<svg xmlns="http://www.w3.org/2000/svg" width="48" height="48">
<defs>
<defs
     id="defs3334">
  </defs>
  <path
     d="M 24 2 C 11.856 2 2 11.856002 2 24 C 2 36.143997 11.856 46 24 46 C 36.144001 46 46 36.143997 46 24 C 46 11.856002 36.144001 2 24 2 z M 24 3 L 24 14.71875 C 29.119529 14.71875 33.28125 18.880467 33.28125 24 C 33.28125 26.575723 32.228415 28.912643 30.53125 30.59375 L 38.78125 38.90625 C 30.544625 47.07149 17.25899 47.017875 9.09375 38.78125 C 0.92850998 30.544625 0.98212506 17.25899 9.21875 9.09375 C 13.151628 5.1949571 18.46212 3.0000016 24 3 z M 24 16.03125 L 24 17.96875 C 27.333647 17.96875 30.03125 20.666353 30.03125 24 C 30.03125 25.682756 29.361565 27.21702 28.25 28.3125 L 29.625 29.6875 C 31.08754 28.240689 31.96875 26.218207 31.96875 24 C 31.96875 19.594823 28.405176 16.03125 24 16.03125 z "
     id="path-main" />
</defs>

<use id="1" style="fill:#E3E3E3" xlink:href="#path-main" />



</svg>
