<svg xmlns="http://www.w3.org/2000/svg" width="48" height="48">
<defs>
<defs
     id="defs3334">
  </defs>
  <path
     d="M 24 2 C 11.856 2 2 11.856002 2 24 C 2 36.143997 11.856 46 24 46 C 36.144001 46 46 36.143997 46 24 C 46 11.856002 36.144001 2 24 2 z M 24 3 C 35.59798 3.0000002 45 12.40202 45 24 C 45 35.59798 35.59798 45 24 45 C 12.40202 45 2.9999998 35.59798 3 24 C 3.0000002 12.402023 12.402023 3.0000033 24 3 z "
     id="path-main" />
</defs>

<use id="1" style="fill:#E3E3E3" xlink:href="#path-main" />



</svg>
