<svg xmlns="http://www.w3.org/2000/svg" width="48" height="48">
<defs>
<defs
     id="defs4291">
  </defs>
  <path
     d="M 30.90625 2 C 29.510633 2.00466 28.423528 2.00639 28 2.03125 C 26.305889 2.13069 25.459867 3.189065 25.125 4.75 C 25.08256 5.535203 25.125 18.5 25.125 18.5 C 25.124999 20.098342 26.401659 21.40625 28 21.40625 L 43.09375 21.40625 C 44.69209 21.40625 45.968749 20.098342 45.96875 18.5 C 45.968751 16.901658 46.163141 4.959408 45.75 3.875 C 45.336859 2.7905915 44.330188 2.03125 43.09375 2.03125 C 42.166421 2.03125 35.093101 1.986016 30.90625 2 z M 29.03125 4.28125 L 42.03125 4.28125 C 42.959317 4.28125 43.71875 5.009431 43.71875 5.9375 L 43.71875 17.5 C 43.71875 18.428066 42.959319 19.15625 42.03125 19.15625 L 29.03125 19.15625 C 28.10318 19.156248 27.34375 18.428069 27.34375 17.5 L 27.34375 5.9375 C 27.34375 5.009431 28.103181 4.28125 29.03125 4.28125 z M 22.15625 5.0625 C 21.698111 5.133615 21.27491 5.4239956 21.0625 5.875 C 20.722644 6.5966071 21.028393 7.4726439 21.75 7.8125 C 22.471607 8.1523561 23.347644 7.8466071 23.6875 7.125 C 24.027356 6.4033929 23.690357 5.5273561 22.96875 5.1875 C 22.698147 5.060054 22.431134 5.019831 22.15625 5.0625 z M 41.71875 21.5625 C 40.350113 21.66166 39.094622 22.556629 38.625 23.9375 C 37.998838 25.778661 39.002589 27.780088 40.84375 28.40625 C 42.684911 29.032412 44.686338 28.028661 45.3125 26.1875 C 45.938662 24.346339 44.934911 22.344912 43.09375 21.71875 C 42.63346 21.562209 42.174962 21.529447 41.71875 21.5625 z M 7.78125 26.59375 C 6.385633 26.59845 5.329778 26.60015 4.90625 26.625 C 3.212139 26.72444 2.334867 27.782815 2 29.34375 C 1.95756 30.128953 2 43.09375 2 43.09375 C 1.999999 44.692092 3.307909 46 4.90625 46 L 19.96875 46 C 21.56709 46 22.843749 44.692092 22.84375 43.09375 C 22.843751 41.495408 23.069391 29.553158 22.65625 28.46875 C 22.243109 27.384341 21.205188 26.625 19.96875 26.625 C 19.041421 26.625 11.9681 26.57977 7.78125 26.59375 z M 5.90625 28.875 L 18.90625 28.875 C 19.834317 28.875 20.59375 29.603181 20.59375 30.53125 L 20.59375 42.09375 C 20.59375 43.021816 19.834319 43.75 18.90625 43.75 L 5.90625 43.75 C 4.97818 43.749998 4.21875 43.021819 4.21875 42.09375 L 4.21875 30.53125 C 4.21875 29.603181 4.978181 28.875 5.90625 28.875 z M 38.4375 30.28125 C 36.780729 30.401285 35.28724 31.484669 34.71875 33.15625 C 33.960764 35.385024 35.146226 37.804514 37.375 38.5625 C 39.603774 39.320486 42.023264 38.135024 42.78125 35.90625 C 43.539236 33.677476 42.353774 31.257986 40.125 30.5 C 39.567806 30.310503 38.989757 30.241238 38.4375 30.28125 z "
     id="path-main" />
</defs>

<use id="1" style="fill:#E3E3E3" xlink:href="#path-main" />



</svg>
