<?xml version="1.0" encoding="UTF-8" standalone="no"?>
<svg
   xmlns:dc="http://purl.org/dc/elements/1.1/"
   xmlns:cc="http://creativecommons.org/ns#"
   xmlns:rdf="http://www.w3.org/1999/02/22-rdf-syntax-ns#"
   xmlns:svg="http://www.w3.org/2000/svg"
   xmlns="http://www.w3.org/2000/svg"
   xmlns:sodipodi="http://sodipodi.sourceforge.net/DTD/sodipodi-0.dtd"
   xmlns:inkscape="http://www.inkscape.org/namespaces/inkscape"
   viewBox="0 0 512 512"
   version="1.1"
   id="svg2"
   inkscape:version="0.91 r13725"
   sodipodi:docname="applications-other.svg">
  <defs
     id="defs17" />
  <sodipodi:namedview
     pagecolor="#b0aeb0"
     bordercolor="#666666"
     borderopacity="1"
     objecttolerance="10"
     gridtolerance="10"
     guidetolerance="10"
     inkscape:pageopacity="0"
     inkscape:pageshadow="2"
     inkscape:window-width="1920"
     inkscape:window-height="1019"
     id="namedview15"
     showgrid="false"
     inkscape:zoom="1.5232544"
     inkscape:cx="256"
     inkscape:cy="256"
     inkscape:window-x="0"
     inkscape:window-y="13"
     inkscape:window-maximized="1"
     inkscape:current-layer="svg2"
     showguides="false" />
  <metadata
     id="metadata1374">
    <rdf:RDF>
      <cc:Work
         rdf:about="">
        <dc:format>image/svg+xml</dc:format>
        <dc:type
           rdf:resource="http://purl.org/dc/dcmitype/StillImage" />
        <dc:title></dc:title>
      </cc:Work>
    </rdf:RDF>
  </metadata>
  <path
     inkscape:connector-curvature="0"
     d="m 367.56212,53.787356 c -1.52301,0 -3.04603,0.586663 -4.21808,1.758709 l -88.56309,88.563095 c -2.34281,2.34281 -2.34281,6.09335 0,8.43616 l 88.56309,88.56309 c 2.34282,2.34282 6.09336,2.34282 8.43616,0 l 88.5631,-88.56309 c 2.34281,-2.34281 2.34281,-6.09335 0,-8.43616 L 371.7802,55.546065 c -1.17204,-1.172046 -2.69506,-1.758709 -4.21808,-1.758709 M 101.56542,79.75809 c -3.31374,0 -5.963976,2.650236 -5.963976,5.963989 l 0,125.248761 c 0,3.31374 2.650236,5.96397 5.963976,5.96397 l 125.24876,0 c 3.31375,0 5.96399,-2.65023 5.96399,-5.96397 l 0,-125.248761 c 0,-3.313753 -2.65024,-5.963989 -5.96399,-5.963989 l -125.24876,0 m 0,196.05824 c -3.31374,0 -5.963976,2.65024 -5.963976,5.96399 l 0,125.24876 c 0,3.31374 2.650236,5.96398 5.963976,5.96398 l 125.24876,0 c 3.31375,0 5.96399,-2.65024 5.96399,-5.96398 l 0,-125.24876 c 0,-3.31375 -2.65024,-5.96399 -5.96399,-5.96399 l -125.24876,0 m 203.37232,0 c -3.31375,0 -5.96397,2.65024 -5.96397,5.96399 l 0,125.24876 c 0,3.31374 2.65022,5.96398 5.96397,5.96398 l 125.24876,0 c 3.31375,0 5.96399,-2.65024 5.96399,-5.96398 l 0,-125.24876 c 0,-3.31375 -2.65024,-5.96399 -5.96399,-5.96399 l -125.24876,0"
     id="path1368"
     style="fill:#E3E3E3" />
</svg>
