<?xml version="1.0" encoding="UTF-8" standalone="no"?>
<svg
   xmlns:dc="http://purl.org/dc/elements/1.1/"
   xmlns:cc="http://creativecommons.org/ns#"
   xmlns:rdf="http://www.w3.org/1999/02/22-rdf-syntax-ns#"
   xmlns:svg="http://www.w3.org/2000/svg"
   xmlns="http://www.w3.org/2000/svg"
   xmlns:sodipodi="http://sodipodi.sourceforge.net/DTD/sodipodi-0.dtd"
   xmlns:inkscape="http://www.inkscape.org/namespaces/inkscape"
   height="100%"
   width="100%"
   version="1.1"
   id="svg2"
   viewBox="0 0 512 512"
   inkscape:version="0.91 r"
   sodipodi:docname="code-block.svg">
  <sodipodi:namedview
     pagecolor="#ffffff"
     bordercolor="#666666"
     borderopacity="1"
     objecttolerance="10"
     gridtolerance="10"
     guidetolerance="10"
     inkscape:pageopacity="0"
     inkscape:pageshadow="2"
     inkscape:window-width="647"
     inkscape:window-height="480"
     id="namedview8"
     showgrid="false"
     inkscape:zoom="0.4609375"
     inkscape:cx="256"
     inkscape:cy="256"
     inkscape:window-x="0"
     inkscape:window-y="0"
     inkscape:window-maximized="0"
     inkscape:current-layer="svg2" />
  <metadata
     id="metadata508">
    <rdf:RDF>
      <cc:Work
         rdf:about="">
        <dc:format>image/svg+xml</dc:format>
        <dc:type
           rdf:resource="http://purl.org/dc/dcmitype/StillImage" />
        <dc:title />
      </cc:Work>
    </rdf:RDF>
  </metadata>
  <defs
     id="defs506" />
  <path
     id="path3249"
     d="m 153.93103,91.71839 c -26.22076,0 -47.24138,20.78493 -47.24138,46.00575 0,25.22083 21.02062,45.14368 47.24138,45.14368 26.22077,0 47.21265,-19.92285 47.21265,-45.14368 0,-25.22082 -20.99188,-46.00575 -47.21265,-46.00575 z m 102.06897,0 c -26.22076,0 -47.21264,20.78493 -47.21264,46.00575 0,25.22083 20.99188,45.14368 47.21264,45.14368 26.22076,0 47.21264,-19.92285 47.21264,-45.14368 0,-25.22082 -20.99188,-46.00575 -47.21264,-46.00575 z m 102.06897,0 c -26.22078,0 -47.9023,20.78493 -47.9023,46.00575 0,25.22083 21.68152,45.14368 47.9023,45.14368 26.22076,0 47.24137,-19.92285 47.24137,-45.14368 0,-25.22082 -21.02061,-46.00575 -47.24137,-46.00575 z M 103.21264,210.88506 C 76.99188,210.88506 56,230.77917 56,256 c 0,25.22082 20.99188,45.14368 47.21264,45.14368 26.22077,0 47.21265,-19.92286 47.21265,-45.14368 0,-25.22083 -20.99188,-45.11494 -47.21265,-45.11494 z m 102.0977,0 c -26.22076,0 -47.24137,19.89411 -47.24137,45.11494 0,25.22082 21.02061,45.14368 47.24137,45.14368 26.22077,0 47.21265,-19.92286 47.21265,-45.14368 0,-25.22083 -20.99188,-45.11494 -47.21265,-45.11494 z m 101.37932,0 c -26.22077,0 -47.21265,19.89411 -47.21265,45.11494 0,25.22082 20.99188,45.14368 47.21265,45.14368 26.22076,0 47.24137,-19.92286 47.24137,-45.14368 0,-25.22083 -21.02061,-45.11494 -47.24137,-45.11494 z m 102.0977,0 c -26.22077,0 -47.21265,19.89411 -47.21265,45.11494 0,25.22082 20.99188,45.14368 47.21265,45.14368 C 435.00812,301.14368 456,281.22082 456,256 456,230.77917 435.00812,210.88506 408.78736,210.88506 Z M 153.93103,329.16093 c -26.22076,0 -47.24138,19.89411 -47.24138,45.11493 0,25.22083 21.02062,46.00575 47.24138,46.00575 26.22077,0 47.21265,-20.78492 47.21265,-46.00575 0,-25.22082 -20.99188,-45.11493 -47.21265,-45.11493 z m 102.06897,0 c -26.22077,0 -47.21264,19.89411 -47.21264,45.11493 0,25.22083 20.99187,46.00575 47.21264,46.00575 26.22076,0 47.21264,-20.78492 47.21264,-46.00575 0,-25.22082 -20.99188,-45.11493 -47.21264,-45.11493 z m 102.06897,0 c -26.22077,0 -47.9023,19.89411 -47.9023,45.11493 0,25.22083 21.68153,46.00575 47.9023,46.00575 26.22077,0 47.24137,-20.78492 47.24137,-46.00575 0,-25.22082 -21.0206,-45.11493 -47.24137,-45.11493 z"
     style="fill:#E3E3E3;stroke:none" />
</svg>
