<?xml version="1.0" encoding="UTF-8" standalone="no"?>
<svg
   xmlns:dc="http://purl.org/dc/elements/1.1/"
   xmlns:cc="http://creativecommons.org/ns#"
   xmlns:rdf="http://www.w3.org/1999/02/22-rdf-syntax-ns#"
   xmlns:svg="http://www.w3.org/2000/svg"
   xmlns="http://www.w3.org/2000/svg"
   xmlns:sodipodi="http://sodipodi.sourceforge.net/DTD/sodipodi-0.dtd"
   xmlns:inkscape="http://www.inkscape.org/namespaces/inkscape"
   height="100%"
   width="100%"
   version="1.1"
   id="svg2"
   viewBox="0 0 512 512"
   inkscape:version="0.91 r"
   sodipodi:docname="edit-clear-locationbar-ltr.svg">
  <sodipodi:namedview
     pagecolor="#ffffff"
     bordercolor="#666666"
     borderopacity="1"
     objecttolerance="10"
     gridtolerance="10"
     guidetolerance="10"
     inkscape:pageopacity="0"
     inkscape:pageshadow="2"
     inkscape:window-width="640"
     inkscape:window-height="480"
     id="namedview8"
     showgrid="false"
     inkscape:zoom="0.4609375"
     inkscape:cx="256"
     inkscape:cy="256"
     inkscape:window-x="0"
     inkscape:window-y="0"
     inkscape:window-maximized="0"
     inkscape:current-layer="svg2" />
  <metadata
     id="metadata100">
    <rdf:RDF>
      <cc:Work
         rdf:about="">
        <dc:format>image/svg+xml</dc:format>
        <dc:type
           rdf:resource="http://purl.org/dc/dcmitype/StillImage" />
        <dc:title />
      </cc:Work>
    </rdf:RDF>
  </metadata>
  <defs
     id="defs98" />
  <path
     d="m 249.01015,109.00665 c 24.27067,0 37.23467,3.26 57.52,15.88 l 156.08001,110.46668 c 23.20267,13.4 23.00533,25.57333 0.708,39.52666 L 304.06482,387.46667 c -22.02667,12.71333 -34.568,15.52666 -55.05334,15.52666 l -155.98667,0 c -33.96934,0 -61.052,-27.084 -61.052,-61.052 l 0,-171.52001 c 0,-33.96933 27.084,-61.4 61.052,-61.4 m 138.34667,50.81333 -53.99467,54.00001 -53.99467,-54.00001 -40.94266,40.94267 54,53.99467 -54,53.99467 40.94266,40.93734 53.99467,-53.99467 53.99467,53.99467 40.93734,-40.93734 -53.99467,-53.99467 53.99467,-53.99467"
     id="path10"
     style="fill:#E3E3E3;fill-rule:evenodd" />
</svg>
