<?xml version="1.0" encoding="UTF-8" standalone="no"?>
<svg
   xmlns:dc="http://purl.org/dc/elements/1.1/"
   xmlns:cc="http://creativecommons.org/ns#"
   xmlns:rdf="http://www.w3.org/1999/02/22-rdf-syntax-ns#"
   xmlns:svg="http://www.w3.org/2000/svg"
   xmlns="http://www.w3.org/2000/svg"
   xmlns:sodipodi="http://sodipodi.sourceforge.net/DTD/sodipodi-0.dtd"
   xmlns:inkscape="http://www.inkscape.org/namespaces/inkscape"
   height="100%"
   width="100%"
   version="1.1"
   id="svg2"
   viewBox="0 0 512 512"
   inkscape:version="0.91 r"
   sodipodi:docname="list-add-font.svg">
  <sodipodi:namedview
     pagecolor="#ffffff"
     bordercolor="#666666"
     borderopacity="1"
     objecttolerance="10"
     gridtolerance="10"
     guidetolerance="10"
     inkscape:pageopacity="0"
     inkscape:pageshadow="2"
     inkscape:window-width="640"
     inkscape:window-height="480"
     id="namedview8"
     showgrid="false"
     inkscape:zoom="0.4609375"
     inkscape:cx="256"
     inkscape:cy="256"
     inkscape:window-x="0"
     inkscape:window-y="0"
     inkscape:window-maximized="0"
     inkscape:current-layer="svg2" />
  <metadata
     id="metadata102">
    <rdf:RDF>
      <cc:Work
         rdf:about="">
        <dc:format>image/svg+xml</dc:format>
        <dc:type
           rdf:resource="http://purl.org/dc/dcmitype/StillImage" />
        <dc:title />
      </cc:Work>
    </rdf:RDF>
  </metadata>
  <defs
     id="defs100" />
  <path
     id="path178"
     d="m 194.86746,72.81883 -0.0308,0.0307 -61.54714,178.15472 c -19.04866,54.53596 -36.66625,107.93607 -49.37299,140.21806 -8.47116,22.23107 -14.3211,26.31184 -42.91699,27.91449 l 0,20.04433 124.50847,0 0,-20.04433 -32.18774,-2.85908 c -11.65357,-1.05318 -11.97091,-6.94584 -9.31508,-18.59941 6.34192,-28.59589 15.53107,-57.49499 25.05541,-88.72382 l 102.31213,0 0,-1.44491 0,-22.90341 22.90341,0 42.20991,0 0,-42.20991 0,-0.70709 -55.09115,-168.87038 -66.52749,0 z m 5.74891,73.72132 1.41418,0 41.50282,136.65189 -85.83399,0 42.917,-136.65189 z m 138.65018,95.61021 0,65.32852 -65.32853,0 -0.36891,65.75891 65.72818,-0.0307 0,65.35926 66.31228,0.49189 -0.18445,-65.82041 65.57446,0.0922 -0.36891,-65.88189 -65.42075,0 -0.12297,-65.29777 -65.82041,0 z m -59.94853,154.05233 0,0.70709 c 3.70899,11.12698 2.54974,17.55408 -8.57725,18.63015 l -30.77358,3.56617 0,20.01358 76.5804,0 0,-0.70708 0,-42.20991 -37.22957,0 z"
     style="fill:#E3E3E3" />
</svg>
