<?xml version="1.0" encoding="UTF-8" standalone="no"?>
<svg
   xmlns:dc="http://purl.org/dc/elements/1.1/"
   xmlns:cc="http://creativecommons.org/ns#"
   xmlns:rdf="http://www.w3.org/1999/02/22-rdf-syntax-ns#"
   xmlns:svg="http://www.w3.org/2000/svg"
   xmlns="http://www.w3.org/2000/svg"
   xmlns:sodipodi="http://sodipodi.sourceforge.net/DTD/sodipodi-0.dtd"
   xmlns:inkscape="http://www.inkscape.org/namespaces/inkscape"
   height="100%"
   width="100%"
   version="1.1"
   id="svg2"
   viewBox="0 0 512 512"
   inkscape:version="0.91 r"
   sodipodi:docname="run-build-configure.svg">
  <sodipodi:namedview
     pagecolor="#ffffff"
     bordercolor="#666666"
     borderopacity="1"
     objecttolerance="10"
     gridtolerance="10"
     guidetolerance="10"
     inkscape:pageopacity="0"
     inkscape:pageshadow="2"
     inkscape:window-width="640"
     inkscape:window-height="480"
     id="namedview8"
     showgrid="false"
     inkscape:zoom="0.4609375"
     inkscape:cx="256"
     inkscape:cy="256"
     inkscape:window-x="0"
     inkscape:window-y="0"
     inkscape:window-maximized="0"
     inkscape:current-layer="svg2" />
  <metadata
     id="metadata100">
    <rdf:RDF>
      <cc:Work
         rdf:about="">
        <dc:format>image/svg+xml</dc:format>
        <dc:type
           rdf:resource="http://purl.org/dc/dcmitype/StillImage" />
        <dc:title />
      </cc:Work>
    </rdf:RDF>
  </metadata>
  <defs
     id="defs98" />
  <path
     id="path114"
     d="m 183.45999,65.80152 0,0.0312 c -4.72394,0.0233 -10.50556,1.48945 -18.90625,4.375 -22.59576,7.74912 -24.34906,10.45135 -24,29.8125 0.3258,17.63912 -2.54436,22.71251 -19.625,37.09375 -15.49823,13.07808 -20.15789,14.81572 -31.28123,10.90625 -13.49696,-4.7472 -26.36594,2.54971 -34.90625,20.375 -9.63404,20.08253 -8.65918,25.52298 5.09375,38.53125 12.33342,11.65857 13.83571,17.98336 11.625,40.71875 -1.67549,17.22025 -3.71312,21.30079 -16,30.5625 -13.96237,10.54158 -15.35352,16.357 -8,37.8125 7.35351,21.43223 11.72853,24.5844 28.34375,23.28125 17.45295,-1.37297 21.69124,0.84555 36.37499,17.4375 16.01017,18.10453 15.02785,16.73718 12.375,33.46875 -3.25788,20.52468 -0.60244,24.22504 21.0625,34.90625 21.64166,10.65794 25.76102,9.86926 39.28125,-5.09375 11.05354,-12.24034 14.03784,-12.86632 35.65625,-11.65625 19.26808,1.09372 28.57389,4.60262 31.25,12.375 2.02454,5.93401 7.36925,11.62513 15.28125,16 5.1428,2.83902 7.03308,2.42536 24.71875,-3.625 0.88428,-0.30252 1.34975,-0.4395 2.1875,-0.71875 -1.23335,-5.49187 -0.69812,-10.20292 0,-14.53125 0.0931,-0.5585 -0.0466,-0.37767 0,-0.75 -0.67485,-1.00064 -0.69818,-1.94951 -2.1875,-3.625 -2.01806,-2.28799 -3.24202,-3.26946 -3.78125,-3.65625 -0.48724,-0.0247 -1.13922,-0.0366 -2.03125,0.0312 -5.74784,0.44214 -14.64515,0.21458 -21.8125,-5.8125 -7.16734,-6.02709 -8.69554,-11.74154 -10.90625,-18.1875 -2.23397,-6.53904 -4.77587,-12.9464 -2.9375,-21.8125 1.83838,-8.86611 8.28472,-14.55728 13.125,-18.1875 0.60527,-0.45524 1.00623,-0.79415 1.3125,-1.09375 -0.11686,0.39791 0.0894,0.41067 0.34375,-0.34375 0.42387,-0.49186 0.34303,-0.66402 0.125,-0.46875 0.14183,-0.55586 0.29802,-1.35462 0.40625,-2.46875 0.38446,-3.97826 0.10834,-5.91985 0,-6.46875 -0.23901,-0.29648 -0.61756,-0.72692 -1.46875,-1.53125 -4.49122,-4.23525 -9.74272,-10.34003 -10.90625,-19.625 -0.25598,-2.07108 -0.0698,-4.09846 0,-5.84375 -38.79211,17.40642 -87.79584,-10.6842 -86.5625,-58.15625 0.90755,-34.95245 28.52018,-59.67688 59.65625,-60.375 9.54095,-0.20943 19.64588,1.76078 29.09375,6.53125 30.18198,15.26552 41.11937,47.98486 30.53125,76.375 2.69076,0.0219 5.63127,0.16302 8.21875,0.625 0.40085,-0.45803 1.841,-1.58759 4.15625,-3.53125 2.94595,-2.47132 4.0513,-3.60256 4.34375,-3.8125 0.0261,-0.44281 0.0482,-1.09999 0.0312,-2.03125 -0.11635,-5.81766 -0.47057,-14.1332 5.8125,-21.8125 6.28306,-7.65603 12.41375,-9.39102 18.90625,-11.625 3.07172,-1.04718 6.76672,-1.51265 10.1875,-2.1875 l 2.90625,-0.75 2.9375,0 c 6.4925,-0.0465 14.01408,3.30996 18.15625,7.3125 2.67612,2.58304 4.64633,5.30061 6.53125,8 1.93146,0.25598 4.30267,0.39296 9.46875,0.71875 0.0698,-0.0931 -0.79384,0.1602 0.71875,-1.46875 3.86292,-4.11889 9.36523,-8.18623 16.71875,-10.1875 0.46541,-0.11636 0.98007,-0.62567 1.46875,-0.71875 2.35034,-1.72203 5.2747,-3.25537 8.71875,-5.09375 11.89128,-6.3296 12.47587,-11.52457 5.84375,-33.46875 -7.91201,-26.17944 -11.19872,-29.1662 -31.28125,-28.375 -18.08127,0.72139 -20.91797,-0.72921 -35.625,-17.4375 -13.86928,-15.77748 -16.31308,-21.76093 -13.125,-32 4.84029,-15.45169 -0.54832,-26.64518 -16,-34.90625 -22.73534,-12.14721 -28.59477,-11.6172 -42.9062,3.62505 -10.70448,11.4026 -15.20647,13.13495 -27.65625,12.34375 -25.78384,-1.65221 -32.90234,-2.48216 -35.625,-6.53125 C 197.63451,72.32788 192.46571,65.80147 183.45999,65.80147 Z m 119.25,199.875 c -0.009,0.15276 -0.0203,0.17541 -0.0312,0.28125 0.0172,-0.0424 0.0401,-0.0828 0.0625,-0.125 0.11737,-0.22784 0.0921,-0.24481 -0.0312,-0.15625 z m -0.0312,0.28125 c -0.18664,0.46118 -0.0807,0.78061 0,0 z m -8.4688,7.0625 c -0.25184,0.28776 -0.12851,0.30925 0.5,0.0937 -0.16176,-0.0321 -0.33506,-0.0643 -0.5,-0.0937 z m -28.5625,62 c 0.0281,0.0348 0.0405,0.0647 0.0625,0.0937 -0.0226,-0.0494 -0.046,-0.0994 -0.0625,-0.15625 0.002,0.0101 -0.002,0.0511 0,0.0625 z m 0.0625,0.0937 c 0.15675,0.3429 0.30467,0.40239 0,0 z m 22.3125,74.71875 c 0.0281,0.001 0.0669,-0.002 0.0937,0 -0.49534,-0.25053 -0.50104,-0.29215 -0.0937,0 z m 0.0937,0 c 0.0361,0.0183 0.0215,0.0114 0.0625,0.0312 1.02971,0.47934 1.52458,0.0644 -0.0625,-0.0312 z m 55.375,-165.34375 c -2.55976,0.0233 -5.71223,0.97212 -10.25,2.53125 -12.24035,4.21198 -13.27991,5.44245 -13.09375,15.9375 0.18617,9.56422 -1.32406,12.39184 -10.5625,20.1875 -8.40069,7.07426 -11.19167,8.05513 -17.21875,5.9375 -7.30697,-2.58304 -13.99415,1.39722 -18.625,11.03125 -5.21261,10.89065 -4.8841,13.7615 2.5625,20.8125 6.67867,6.30633 7.67881,9.68985 6.46875,22 -0.90756,9.33152 -2.09461,11.5673 -8.75,16.59375 -7.56295,5.7013 -8.19802,8.88796 -4.21875,20.5 3.97928,11.61203 6.08801,13.40889 15.09375,12.6875 9.44785,-0.74466 11.72097,0.2988 19.65625,9.28125 8.67993,9.8202 8.44276,9.19773 7,18.25 -1.76858,11.12335 -0.63464,13.04937 11.09375,18.84375 11.72838,5.77112 14.00551,5.44193 21.3125,-2.65625 5.98054,-6.63212 7.58411,-7.15157 19.3125,-6.5 10.44851,0.58177 15.77596,2.75677 17.21875,6.96875 1.09372,3.21134 3.81196,6.00139 8.09375,8.375 2.79248,1.53586 4.06078,1.34365 13.625,-1.9375 12.44977,-4.2818 14.28255,-6.21433 13.375,-14.3125 -1.18681,-10.77429 -0.41929,-12.58068 8.65625,-20.5625 9.91327,-8.70321 10.79606,-9.04982 17.21875,-7.28125 9.93655,2.74593 14.51211,0.5875 19.46875,-9 5.81765,-11.28624 5.80239,-16.75079 0.0312,-21.21875 -8.49377,-6.58558 -9.48668,-8.93651 -8.71875,-20.78125 0.74466,-11.54222 2.41382,-14.39242 11.09375,-19 6.44596,-3.44405 6.95868,-6.22574 3.375,-18.09375 -4.28179,-14.1718 -6.25762,-15.9109 -17.125,-15.46875 -9.79692,0.3956 -11.26818,-0.35398 -19.25,-9.40625 -7.51641,-8.54031 -8.84702,-11.78207 -7.125,-17.34375 2.62957,-8.37741 -0.0521,-14.34454 -8.40625,-18.8125 -12.31016,-6.58558 -15.77416,-6.32356 -23.5,1.9375 -5.7944,6.16671 -8.09528,7.23137 -14.84375,6.8125 -13.96238,-0.88428 -17.88568,-1.66429 -19.375,-3.875 -6.0969,-9.07554 -8.82394,-12.42952 -13.6875,-12.40625 l 0.0937,-0.0312 z m 23.0625,66.84375 c 5.16606,-0.11636 10.50546,1.04196 15.625,3.625 21.19952,10.72775 25.44898,37.7671 8.53125,54.3125 -21.31588,20.85047 -57.41621,4.89475 -56.625,-25.03125 0.48867,-18.94228 15.59755,-32.53392 32.46875,-32.90625 z"
     style="fill:#E3E3E3;fill-opacity:0.969" />
</svg>
