<?xml version="1.0" encoding="UTF-8" standalone="no"?>
<svg
   xmlns:dc="http://purl.org/dc/elements/1.1/"
   xmlns:cc="http://creativecommons.org/ns#"
   xmlns:rdf="http://www.w3.org/1999/02/22-rdf-syntax-ns#"
   xmlns:svg="http://www.w3.org/2000/svg"
   xmlns="http://www.w3.org/2000/svg"
   xmlns:xlink="http://www.w3.org/1999/xlink"
   xmlns:sodipodi="http://sodipodi.sourceforge.net/DTD/sodipodi-0.dtd"
   xmlns:inkscape="http://www.inkscape.org/namespaces/inkscape"
   height="100%"
   width="100%"
   version="1.1"
   id="svg2"
   viewBox="0 0 512 512"
   inkscape:version="0.91 r"
   sodipodi:docname="view-right-close.svg">
  <sodipodi:namedview
     pagecolor="#ffffff"
     bordercolor="#666666"
     borderopacity="1"
     objecttolerance="10"
     gridtolerance="10"
     guidetolerance="10"
     inkscape:pageopacity="0"
     inkscape:pageshadow="2"
     inkscape:window-width="640"
     inkscape:window-height="480"
     id="namedview44"
     showgrid="false"
     inkscape:zoom="0.4609375"
     inkscape:cx="256"
     inkscape:cy="256"
     inkscape:window-x="0"
     inkscape:window-y="0"
     inkscape:window-maximized="0"
     inkscape:current-layer="svg2" />
  <metadata
     id="metadata508">
    <rdf:RDF>
      <cc:Work
         rdf:about="">
        <dc:format>image/svg+xml</dc:format>
        <dc:type
           rdf:resource="http://purl.org/dc/dcmitype/StillImage" />
        <dc:title />
      </cc:Work>
    </rdf:RDF>
  </metadata>
  <defs
     id="defs506">
    <linearGradient
       id="linearGradient3737-8">
      <stop
         id="stop3739-2"
         style="stop-color:#ffffff;stop-opacity:1"
         offset="0" />
      <stop
         id="stop3741-2"
         style="stop-color:#ffffff;stop-opacity:0"
         offset="1" />
    </linearGradient>
    <filter
       color-interpolation-filters="sRGB"
       id="filter3657">
      <feGaussianBlur
         id="feGaussianBlur3659"
         stdDeviation="1.14" />
    </filter>
    <clipPath
       id="clipPath3649">
      <rect
         width="76"
         height="76"
         rx="4"
         ry="4"
         x="10"
         y="10"
         id="rect3651"
         style="fill:#E3E3E3;fill-opacity:1;fill-rule:nonzero;stroke:none" />
    </clipPath>
    <clipPath
       id="clipPath3625">
      <path
         d="M 0,0 0,96 96,96 96,0 0,0 z m 12,6 72,0 c 3.324,0 6,2.676 6,6 l 0,72 c 0,3.324 -2.676,6 -6,6 L 12,90 C 8.676,90 6,87.324 6,84 L 6,12 C 6,8.676 8.676,6 12,6 z"
         id="path3627"
         style="fill:#E3E3E3;fill-opacity:1;stroke:none" />
    </clipPath>
    <filter
       color-interpolation-filters="sRGB"
       id="filter3174">
      <feGaussianBlur
         id="feGaussianBlur3176"
         stdDeviation="1.71" />
    </filter>
    <linearGradient
       id="linearGradient3700">
      <stop
         id="stop3702"
         style="stop-color:#2276c5;stop-opacity:1"
         offset="0" />
      <stop
         id="stop3704"
         style="stop-color:#68baf4;stop-opacity:1"
         offset="1" />
    </linearGradient>
    <linearGradient
       x1="45.447727"
       y1="92.539597"
       x2="45.447727"
       y2="7.0165396"
       id="ButtonShadow"
       gradientUnits="userSpaceOnUse"
       gradientTransform="scale(1.0058652,0.994169)">
      <stop
         id="stop3750"
         style="stop-color:#000000;stop-opacity:1"
         offset="0" />
      <stop
         id="stop3752"
         style="stop-color:#000000;stop-opacity:0.58823532"
         offset="1" />
    </linearGradient>
    <linearGradient
       id="linearGradient3637">
      <stop
         id="stop3639"
         style="stop-color:#f0f0f0;stop-opacity:1"
         offset="0" />
      <stop
         id="stop3641"
         style="stop-color:#dcdcdc;stop-opacity:1"
         offset="1" />
    </linearGradient>
    <linearGradient
       y2="5.9877172"
       x2="48"
       y1="90"
       x1="48"
       gradientTransform="matrix(5.5614395,0,0,5.5614395,580.85009,674.11381)"
       gradientUnits="userSpaceOnUse"
       id="linearGradient3291"
       xlink:href="#linearGradient3700" />
    <radialGradient
       r="42"
       fy="90.171875"
       fx="48"
       cy="90.171875"
       cx="48"
       gradientTransform="matrix(6.4363257,0,0,5.5386807,538.85555,119.0662)"
       gradientUnits="userSpaceOnUse"
       id="radialGradient3294"
       xlink:href="#linearGradient3737-8" />
    <linearGradient
       gradientTransform="matrix(5.5614395,0,0,5.5614395,580.85009,117.96986)"
       y2="63.893143"
       x2="36.357143"
       y1="6"
       x1="36.357143"
       gradientUnits="userSpaceOnUse"
       id="linearGradient3297"
       xlink:href="#linearGradient3737-8" />
    <linearGradient
       gradientTransform="matrix(5.5614395,0,0,5.5614395,580.85009,117.96986)"
       y2="90.015434"
       x2="44.512066"
       y1="6"
       x1="44.512066"
       gradientUnits="userSpaceOnUse"
       id="linearGradient3300"
       xlink:href="#linearGradient3637" />
    <linearGradient
       y2="7.0165396"
       x2="45.447727"
       y1="92.539597"
       x1="45.447727"
       gradientTransform="scale(1.0058652,0.994169)"
       gradientUnits="userSpaceOnUse"
       id="linearGradient3329"
       xlink:href="#ButtonShadow" />
  </defs>
  <rect
     style="display:none;opacity:0.9;fill:url(#linearGradient3329);fill-opacity:1;fill-rule:nonzero;stroke:none;filter:url(#filter3174)"
     id="rect3745"
     clip-path="url(#clipPath3625)"
     y="7"
     x="5"
     ry="6"
     rx="6"
     height="85"
     width="86"
     transform="matrix(5.5614395,0,0,5.5614395,580.85009,117.96986)" />
  <rect
     style="display:none;opacity:0.7;fill:#E3E3E3;fill-opacity:1;fill-rule:nonzero;stroke:none"
     id="rect2419"
     y="151.3385"
     x="614.21875"
     ry="33.368637"
     rx="33.368637"
     height="467.16092"
     width="467.16092" />
  <path
     style="display:none;opacity:0.07999998;fill:#E3E3E3;fill-opacity:1;fill-rule:nonzero;stroke:none"
     id="rect3726"
     d="m 658.71025,173.58426 c -12.32415,0 -22.24577,9.92161 -22.24577,22.24576 l 0,378.17787 c 0,12.32416 9.92162,22.24577 22.24577,22.24577 l 378.17785,0 c 12.3242,0 22.2458,-9.92161 22.2458,-22.24577 l 0,-378.17787 c 0,-12.32415 -9.9216,-22.24576 -22.2458,-22.24576 l -378.17785,0 z m 0,17.03191 378.17785,0 c 3.2188,0 5.2139,1.99506 5.2139,5.21385 l 0,378.17787 c 0,3.2188 -1.9951,5.21386 -5.2139,5.21386 l -378.17785,0 c -3.21879,0 -5.21386,-1.99506 -5.21386,-5.21386 l 0,-378.17787 c 0,-3.21879 1.99507,-5.21385 5.21386,-5.21385 z" />
  <path
     style="display:none;fill:url(#linearGradient3300);fill-opacity:1;fill-rule:nonzero;stroke:none"
     id="rect3629"
     d="m 647.58736,151.3385 c -18.48622,0 -33.36862,14.88241 -33.36862,33.36864 l 0,400.42363 c 0,18.48623 14.8824,33.36865 33.36862,33.36865 l 400.42364,0 c 18.4862,0 33.3687,-14.88242 33.3687,-33.36865 l 0,-400.42363 c 0,-18.48623 -14.8825,-33.36864 -33.3687,-33.36864 l -400.42364,0 z m 11.12289,22.24576 378.17785,0 c 12.3242,0 22.2458,9.92161 22.2458,22.24576 l 0,378.17787 c 0,12.32416 -9.9216,22.24577 -22.2458,22.24577 l -378.17785,0 c -12.32415,0 -22.24577,-9.92161 -22.24577,-22.24577 l 0,-378.17787 c 0,-12.32415 9.92162,-22.24576 22.24577,-22.24576 z" />
  <path
     style="display:none;fill:url(#linearGradient3297);fill-opacity:1;fill-rule:nonzero;stroke:none"
     id="rect3728"
     d="m 647.58736,151.3385 c -18.48622,0 -33.36862,14.88241 -33.36862,33.36864 l 0,11.12288 0,378.17787 0,11.12288 c 0,1.86154 0.22996,3.61883 0.52138,5.38766 0.27084,1.64393 0.53968,3.31971 1.04276,4.86625 0.0549,0.16896 0.11614,0.35371 0.1738,0.52139 0.54983,1.60041 1.30627,3.04461 2.08554,4.51867 0.80414,1.52109 1.75528,2.97878 2.78072,4.34488 1.02544,1.36608 2.07873,2.63318 3.3021,3.82348 2.44675,2.38061 5.24394,4.52994 8.34216,6.08282 1.54911,0.77644 3.18934,1.37339 4.86627,1.91175 -1.42485,-0.55737 -2.70681,-1.31401 -3.99729,-2.08553 -0.0412,-0.0245 -0.13267,0.0251 -0.17379,0 -0.1776,-0.10734 -0.34644,-0.23643 -0.52139,-0.3476 -0.66957,-0.42656 -1.28482,-0.90936 -1.91174,-1.39036 -0.59048,-0.44936 -1.18615,-0.89602 -1.73795,-1.39036 -0.98955,-0.8978 -1.93239,-1.92086 -2.78072,-2.95451 -0.59829,-0.72441 -1.21459,-1.47537 -1.73796,-2.25933 -0.13952,-0.21346 -0.21381,-0.47756 -0.34759,-0.69519 -0.36017,-0.573 -0.72425,-1.1374 -1.04277,-1.73795 -0.56175,-1.08284 -1.14384,-2.31189 -1.56415,-3.4759 -0.0443,-0.12134 -0.1312,-0.22551 -0.1738,-0.34759 -0.17698,-0.51137 -0.19912,-1.03904 -0.34758,-1.56415 -0.1687,-0.59296 -0.39147,-1.12914 -0.52139,-1.73796 -0.40531,-1.89929 -0.69517,-3.88301 -0.69517,-5.90902 l 0,-11.12289 0,-378.17788 0,-11.12287 c 0,-15.47108 12.3361,-27.8072 27.80718,-27.8072 l 11.12289,0 378.17785,0 11.1229,0 c 15.4711,0 27.8072,12.33612 27.8072,27.8072 l 0,11.12287 0,378.17788 0,11.12289 c 0,2.02601 -0.2899,4.00973 -0.6952,5.90902 -0.2455,1.15063 -0.4915,2.21156 -0.8689,3.30211 -0.043,0.12213 -0.1296,0.22629 -0.1738,0.34759 -0.349,0.96624 -0.7696,2.04354 -1.2166,2.95452 -0.2312,0.46049 -0.4396,0.94518 -0.6952,1.39036 -0.3036,0.54062 -0.705,1.04749 -1.0428,1.56416 -0.5233,0.78396 -1.1396,1.53492 -1.7379,2.25933 -0.7963,0.97019 -1.6859,1.9298 -2.6069,2.78072 -0.062,0.0567 -0.1111,0.1176 -0.1738,0.17379 -0.7696,0.69828 -1.5855,1.3038 -2.4332,1.91174 -0.5704,0.40683 -1.1363,0.85294 -1.7379,1.21658 -0.041,0.0251 -0.1325,-0.0245 -0.1738,0 -1.2905,0.77152 -2.5724,1.52816 -3.9973,2.08553 1.6769,-0.53835 3.3172,-1.13531 4.8663,-1.91175 3.0982,-1.55288 5.8954,-3.70221 8.3421,-6.08282 1.2234,-1.1903 2.2767,-2.4574 3.3021,-3.82348 1.0255,-1.3661 1.9766,-2.82379 2.7808,-4.34488 0.7792,-1.47406 1.5357,-2.91826 2.0855,-4.51867 0.058,-0.17119 0.1187,-0.34892 0.1738,-0.52139 0.5031,-1.54654 0.7719,-3.22232 1.0428,-4.86625 0.2914,-1.76883 0.5214,-3.52612 0.5214,-5.38766 l 0,-11.12288 0,-378.17787 0,-11.12288 c 0,-18.48623 -14.8825,-33.36864 -33.3687,-33.36864 l -400.42364,0 z" />
  <path
     style="display:none;opacity:0.6;fill:url(#radialGradient3294);fill-opacity:1;fill-rule:nonzero;stroke:none"
     id="path3615"
     d="m 647.58736,618.49942 c -18.48622,0 -33.36862,-14.88242 -33.36862,-33.36865 l 0,-11.12288 0,-378.17787 0,-11.12288 c 0,-1.86153 0.22996,-3.61883 0.52138,-5.38765 0.27084,-1.64394 0.53968,-3.31971 1.04276,-4.86626 0.0549,-0.16895 0.11614,-0.35371 0.1738,-0.52138 0.54983,-1.60042 1.30627,-3.04462 2.08554,-4.51867 0.80414,-1.5211 1.75528,-2.97879 2.78072,-4.34488 1.02544,-1.36608 2.07873,-2.63318 3.3021,-3.82349 2.44675,-2.3806 5.24394,-4.52993 8.34216,-6.08282 1.54911,-0.77645 3.18934,-1.37338 4.86627,-1.91175 -1.42485,0.55738 -2.70681,1.31402 -3.99729,2.08554 -0.0412,0.0245 -0.13267,-0.025 -0.17379,0 -0.1776,0.10734 -0.34644,0.23642 -0.52139,0.34759 -0.66957,0.42657 -1.28482,0.90937 -1.91174,1.39036 -0.59048,0.44937 -1.18615,0.89602 -1.73795,1.39036 -0.98955,0.8978 -1.93239,1.92086 -2.78072,2.95452 -0.59829,0.7244 -1.21459,1.47536 -1.73796,2.25933 -0.13952,0.21345 -0.21381,0.47756 -0.34759,0.69518 -0.36017,0.57301 -0.72425,1.13741 -1.04277,1.73795 -0.56175,1.08285 -1.14384,2.3119 -1.56415,3.4759 -0.0443,0.1213 -0.1312,0.22552 -0.1738,0.34759 -0.17698,0.51138 -0.19912,1.03905 -0.34758,1.56416 -0.1687,0.59295 -0.39147,1.12914 -0.52139,1.73795 -0.40531,1.89929 -0.69517,3.88302 -0.69517,5.90903 l 0,11.12288 0,378.17787 0,11.12288 c 0,15.47109 12.3361,27.80721 27.80718,27.80721 l 11.12289,0 378.17785,0 11.1229,0 c 15.4711,0 27.8072,-12.33612 27.8072,-27.80721 l 0,-11.12288 0,-378.17787 0,-11.12288 c 0,-2.02601 -0.2899,-4.00974 -0.6952,-5.90903 -0.2455,-1.15063 -0.4915,-2.21155 -0.8689,-3.30211 -0.043,-0.12208 -0.1296,-0.22629 -0.1738,-0.34759 -0.349,-0.96624 -0.7696,-2.04354 -1.2166,-2.95451 -0.2312,-0.46049 -0.4396,-0.94519 -0.6952,-1.39036 -0.3036,-0.54063 -0.705,-1.0475 -1.0428,-1.56416 -0.5233,-0.78397 -1.1396,-1.53493 -1.7379,-2.25933 -0.7963,-0.9702 -1.6859,-1.92981 -2.6069,-2.78072 -0.062,-0.0567 -0.1111,-0.11763 -0.1738,-0.1738 -0.7696,-0.69827 -1.5855,-1.3038 -2.4332,-1.91174 -0.5704,-0.40682 -1.1363,-0.85293 -1.7379,-1.21657 -0.041,-0.025 -0.1325,0.0245 -0.1738,0 -1.2905,-0.77152 -2.5724,-1.52816 -3.9973,-2.08554 1.6769,0.53835 3.3172,1.1353 4.8663,1.91175 3.0982,1.55289 5.8954,3.70222 8.3421,6.08282 1.2234,1.19031 2.2767,2.45741 3.3021,3.82349 1.0255,1.36609 1.9766,2.82378 2.7808,4.34488 0.7792,1.47405 1.5357,2.91825 2.0855,4.51867 0.058,0.17118 0.1187,0.34892 0.1738,0.52138 0.5031,1.54655 0.7719,3.22232 1.0428,4.86626 0.2914,1.76882 0.5214,3.52612 0.5214,5.38765 l 0,11.12288 0,378.17787 0,11.12288 c 0,18.48623 -14.8825,33.36865 -33.3687,33.36865 l -400.42364,0 z" />
  <rect
     style="display:none;fill:url(#linearGradient3291);fill-opacity:1;fill-rule:nonzero;stroke:none"
     id="rect2841"
     y="707.48248"
     x="614.21875"
     ry="33.368637"
     rx="33.368637"
     height="467.16092"
     width="467.16092" />
  <rect
     style="display:none;fill:#E3E3E3;fill-opacity:1;fill-rule:nonzero;stroke:none"
     id="rect3634"
     y="729.72821"
     x="636.46448"
     ry="22.24576"
     rx="22.24576"
     height="422.6694"
     width="422.6694" />
  <path
     style="color:#000000;font-style:normal;font-variant:normal;font-weight:normal;font-stretch:normal;font-size:medium;line-height:normal;font-family:'Abandoned Bitplane';-inkscape-font-specification:'Abandoned Bitplane';text-indent:0;text-align:start;text-decoration:none;text-decoration-line:none;letter-spacing:normal;word-spacing:normal;text-transform:none;direction:ltr;block-progression:tb;writing-mode:lr-tb;text-anchor:start;display:none;overflow:visible;visibility:visible;fill:#E3E3E3;fill-opacity:1;stroke:none;stroke-width:2;marker:none;filter:url(#filter3657);enable-background:accumulate"
     id="rect3647"
     clip-path="url(#clipPath3649)"
     transform="matrix(5.5614395,0,0,5.5614395,-30.908242,117.96986)"
     d="m 14,9 c -2.752703,0 -5,2.247297 -5,5 l 0,68 c 0,2.752703 2.247297,5 5,5 l 68,0 c 2.752703,0 5,-2.247297 5,-5 L 87,14 C 87,11.247297 84.752703,9 82,9 L 14,9 Z m 0,2 68,0 c 1.679297,0 3,1.320703 3,3 l 0,68 c 0,1.679297 -1.320703,3 -3,3 l -68,0 c -1.679297,0 -3,-1.320703 -3,-3 l 0,-68 c 0,-1.679297 1.320703,-3 3,-3 z" />
  <path
     style="display:none;opacity:0.16000001;fill:#E3E3E3;fill-opacity:1;fill-rule:nonzero;stroke:none"
     id="path3709"
     d="m 659.20681,173.58426 c -12.32415,0 -22.24577,9.92161 -22.24577,22.24576 l 0,378.17787 c 0,12.32416 9.92162,22.24577 22.24577,22.24577 l 378.17789,0 c 12.3241,0 22.2458,-9.92161 22.2458,-22.24577 l 0,-378.17787 c 0,-12.32415 -9.9217,-22.24576 -22.2458,-22.24576 l -378.17789,0 z m 0,11.12288 378.17789,0 c 6.3417,0 11.1229,4.78116 11.1229,11.12288 l 0,378.17787 c 0,6.34172 -4.7812,11.12288 -11.1229,11.12288 l -378.17789,0 c -6.34172,0 -11.12289,-4.78116 -11.12289,-11.12288 l 0,-378.17787 c 0,-6.34172 4.78117,-11.12288 11.12289,-11.12288 z" />
  <path
     style="display:none;opacity:0.36000001;fill:#E3E3E3;fill-opacity:1;fill-rule:nonzero;stroke:none"
     id="path3707"
     d="m 658.71025,173.58426 c -12.32415,0 -22.24577,9.92161 -22.24577,22.24576 l 0,378.17787 c 0,12.32416 9.92162,22.24577 22.24577,22.24577 l 378.17785,0 c 12.3242,0 22.2458,-9.92161 22.2458,-22.24577 l 0,-378.17787 c 0,-12.32415 -9.9216,-22.24576 -22.2458,-22.24576 l -378.17785,0 z m 0,5.56144 378.17785,0 c 9.309,0 16.6844,7.37531 16.6844,16.68432 l 0,378.17787 c 0,9.30902 -7.3754,16.68433 -16.6844,16.68433 l -378.17785,0 c -9.30901,0 -16.68433,-7.37531 -16.68433,-16.68433 l 0,-378.17787 c 0,-9.30901 7.37532,-16.68432 16.68433,-16.68432 z" />
  <path
     id="path3264"
     d="m 456,78.24137 0,355.51725 -261.09195,0 0,-355.51725 261.09195,0 z m -296.49425,0 0,355.51725 -6.95403,0 -63.18965,0 -31.95402,0 -1.40805,0 0,-355.51725 1.40805,0 31.95402,0 63.18965,0 6.95403,0 z M 370.85632,163.6724 325.08046,209.477 279.3046,163.6724 233.5,209.44827 l 45.8046,45.77586 -45.8046,45.80459 45.8046,47.32759 46.52299,-46.55172 45.02873,46.55172 46.55173,-46.55172 -45.77587,-45.8046 45.77587,-45.77586 -46.55173,-46.55173 z"
     style="fill:#E3E3E3" />
</svg>
