<?xml version="1.0" encoding="UTF-8" standalone="no"?>
<svg
   xmlns:dc="http://purl.org/dc/elements/1.1/"
   xmlns:cc="http://creativecommons.org/ns#"
   xmlns:rdf="http://www.w3.org/1999/02/22-rdf-syntax-ns#"
   xmlns:svg="http://www.w3.org/2000/svg"
   xmlns="http://www.w3.org/2000/svg"
   xmlns:sodipodi="http://sodipodi.sourceforge.net/DTD/sodipodi-0.dtd"
   xmlns:inkscape="http://www.inkscape.org/namespaces/inkscape"
   height="100%"
   width="100%"
   version="1.1"
   id="svg2"
   viewBox="0 0 512 512"
   inkscape:version="0.91 r"
   sodipodi:docname="format-list-ordered.svg">
  <sodipodi:namedview
     pagecolor="#ffffff"
     bordercolor="#666666"
     borderopacity="1"
     objecttolerance="10"
     gridtolerance="10"
     guidetolerance="10"
     inkscape:pageopacity="0"
     inkscape:pageshadow="2"
     inkscape:window-width="640"
     inkscape:window-height="480"
     id="namedview8"
     showgrid="false"
     inkscape:zoom="0.4609375"
     inkscape:cx="256"
     inkscape:cy="256"
     inkscape:window-x="0"
     inkscape:window-y="0"
     inkscape:window-maximized="0"
     inkscape:current-layer="svg2" />
  <metadata
     id="metadata133">
    <rdf:RDF>
      <cc:Work
         rdf:about="">
        <dc:format>image/svg+xml</dc:format>
        <dc:type
           rdf:resource="http://purl.org/dc/dcmitype/StillImage" />
        <dc:title />
      </cc:Work>
    </rdf:RDF>
  </metadata>
  <defs
     id="defs4" />
  <path
     id="path3002"
     d="m 96.9777,85.00466 c -25.39377,0 -45.97773,20.58302 -45.97773,45.97773 0,25.39 20.58302,45.94827 45.97773,45.94827 25.38999,0 45.97773,-20.55733 45.97773,-45.94827 0,-25.39377 -20.5868,-45.97773 -45.97773,-45.97773 z m 86.68319,20.29382 0,51.36781 277.33909,0 0,-51.36781 -277.33909,0 z M 96.9777,210.00752 c -25.39377,0 -45.97773,20.58303 -45.97773,45.97774 0,25.39 20.58302,45.97774 45.97773,45.97774 25.38999,0 45.97773,-20.58679 45.97773,-45.97774 0,-25.39378 -20.5868,-45.97774 -45.97773,-45.97774 z m 86.68319,20.29383 0,51.39728 277.33909,0 0,-51.39728 -277.33909,0 z M 96.9777,335.03986 c -25.39377,0 -45.97773,20.58303 -45.97773,45.97774 0,25.39 20.58302,45.97772 45.97773,45.97772 25.38999,0 45.97773,-20.58679 45.97773,-45.97772 0,-25.39378 -20.5868,-45.97774 -45.97773,-45.97774 z m 86.68319,20.29383 0,51.39726 277.33909,0 0,-51.39726 -277.33909,0 z"
     style="fill:#E3E3E3;fill-rule:evenodd" />
</svg>
