<?xml version="1.0" encoding="UTF-8" standalone="no"?>
<svg
   xmlns:dc="http://purl.org/dc/elements/1.1/"
   xmlns:cc="http://creativecommons.org/ns#"
   xmlns:rdf="http://www.w3.org/1999/02/22-rdf-syntax-ns#"
   xmlns:svg="http://www.w3.org/2000/svg"
   xmlns="http://www.w3.org/2000/svg"
   xmlns:sodipodi="http://sodipodi.sourceforge.net/DTD/sodipodi-0.dtd"
   xmlns:inkscape="http://www.inkscape.org/namespaces/inkscape"
   height="100%"
   width="100%"
   version="1.1"
   id="svg2"
   viewBox="0 0 512 512"
   inkscape:version="0.91 r"
   sodipodi:docname="view-media-equalizer.svg">
  <sodipodi:namedview
     pagecolor="#ffffff"
     bordercolor="#666666"
     borderopacity="1"
     objecttolerance="10"
     gridtolerance="10"
     guidetolerance="10"
     inkscape:pageopacity="0"
     inkscape:pageshadow="2"
     inkscape:window-width="640"
     inkscape:window-height="480"
     id="namedview8"
     showgrid="false"
     inkscape:zoom="0.4609375"
     inkscape:cx="256"
     inkscape:cy="256"
     inkscape:window-x="0"
     inkscape:window-y="0"
     inkscape:window-maximized="0"
     inkscape:current-layer="svg2" />
  <metadata
     id="metadata133">
    <rdf:RDF>
      <cc:Work
         rdf:about="">
        <dc:format>image/svg+xml</dc:format>
        <dc:type
           rdf:resource="http://purl.org/dc/dcmitype/StillImage" />
        <dc:title />
      </cc:Work>
    </rdf:RDF>
  </metadata>
  <defs
     id="defs4" />
  <path
     id="path3792"
     d="m 88.26562,55.99986 0,62.1875 c 6.27876,-1.90965 12.86917,-2.86052 19.62501,-2.625 6.99249,-0.21623 13.8503,0.80237 20.37499,2.8125 l 0,-62.375 -40,0 z m 148.0625,0 0,202.21875 c 11.0954,-3.39384 22.98348,-4.003 34.5,-1 1.8598,0.38009 3.68921,0.86201 5.5,1.40625 l 0,-202.625 -40,0 z m 147.375,0 0,62.1875 c 6.27876,-1.90965 12.86917,-2.86052 19.625,-2.625 6.99249,-0.21623 13.8503,0.80237 20.375,2.8125 l 0,-62.375 -40,0 z m -275.78124,73.59375 c -31.0839,0 -56,25.63486 -56,56.71875 0,31.08388 24.9161,55.96875 56,55.96875 31.08387,0 56.71874,-24.88487 56.71874,-55.96875 0,-31.08389 -25.6116,-56.71875 -56.71874,-56.71875 z m 295.43749,0 c -31.08389,0 -56,25.63486 -56,56.71875 0,31.08388 24.91611,55.96875 56,55.96875 31.08389,0 56.71875,-24.88487 56.71875,-55.96875 0,-31.08389 -25.6116,-56.71875 -56.71875,-56.71875 z m -295.21874,26.90625 c 16.28646,0 29.81249,13.5493 29.81249,29.8125 0,16.28646 -13.5493,29.09375 -29.81249,29.09375 -16.28647,0 -29.09376,-12.80729 -29.09376,-29.09375 0,-16.2632 12.80729,-29.8125 29.09376,-29.8125 z m 295.43749,0 c 16.28647,0 29.8125,13.5493 29.8125,29.8125 0,16.28646 -13.5493,29.09375 -29.8125,29.09375 -16.28645,0 -29.09375,-12.80729 -29.09375,-29.09375 0,-16.2632 12.8073,-29.8125 29.09375,-29.8125 z m -274.96875,96.875 c -1.81078,0.54424 -3.64019,1.02616 -5.49999,1.40625 -11.51653,3.003 -23.40461,2.39384 -34.50001,-1 l 0,202.21875 40,0 0,-202.625 z m 295.4375,0 c -1.81079,0.54424 -3.6402,1.02616 -5.5,1.40625 -11.51652,3.003 -23.4046,2.39384 -34.5,-1 l 0,202.21875 40,0 0,-202.625 z m -168.40625,16.34375 c -31.08389,0 -56,24.88487 -56,55.96875 0,31.08389 24.91611,56.71875 56,56.71875 31.10715,0 56.71875,-25.63486 56.71875,-56.71875 0,-31.08388 -25.63486,-55.96875 -56.71875,-55.96875 z m 0.21875,26.875 c 16.2632,0 29.8125,12.80729 29.8125,29.09375 0,16.2632 -13.52603,29.8125 -29.8125,29.8125 -16.28646,0 -29.09375,-13.5493 -29.09375,-29.8125 0,-16.28646 12.80729,-29.09375 29.09375,-29.09375 z m 20.125,97.03125 c -6.5247,2.01013 -13.38251,3.02873 -20.375,2.8125 -6.75583,0.23552 -13.34624,-0.71535 -19.625,-2.625 l 0,62.1875 40,0 0,-62.375 z"
     style="fill:#E3E3E3" />
</svg>
