<?xml version="1.0" encoding="UTF-8" standalone="no"?>
<svg
   xmlns:dc="http://purl.org/dc/elements/1.1/"
   xmlns:cc="http://creativecommons.org/ns#"
   xmlns:rdf="http://www.w3.org/1999/02/22-rdf-syntax-ns#"
   xmlns:svg="http://www.w3.org/2000/svg"
   xmlns="http://www.w3.org/2000/svg"
   xmlns:sodipodi="http://sodipodi.sourceforge.net/DTD/sodipodi-0.dtd"
   xmlns:inkscape="http://www.inkscape.org/namespaces/inkscape"
   height="100%"
   width="100%"
   version="1.1"
   id="svg2"
   viewBox="0 0 512 512"
   inkscape:version="0.91 r"
   sodipodi:docname="zoom-1-to-2.svg">
  <sodipodi:namedview
     pagecolor="#ffffff"
     bordercolor="#666666"
     borderopacity="1"
     objecttolerance="10"
     gridtolerance="10"
     guidetolerance="10"
     inkscape:pageopacity="0"
     inkscape:pageshadow="2"
     inkscape:window-width="640"
     inkscape:window-height="480"
     id="namedview8"
     showgrid="false"
     inkscape:zoom="0.4609375"
     inkscape:cx="256"
     inkscape:cy="256"
     inkscape:window-x="0"
     inkscape:window-y="0"
     inkscape:window-maximized="0"
     inkscape:current-layer="svg2" />
  <metadata
     id="metadata133">
    <rdf:RDF>
      <cc:Work
         rdf:about="">
        <dc:format>image/svg+xml</dc:format>
        <dc:type
           rdf:resource="http://purl.org/dc/dcmitype/StillImage" />
        <dc:title />
      </cc:Work>
    </rdf:RDF>
  </metadata>
  <defs
     id="defs4" />
  <path
     id="path3217"
     d="m 282.26877,35.99952 c -106.48542,-3e-5 -192.3355,86.59474 -192.33551,193.0801 10e-6,9.20019 0.15895,17.92054 1.40328,26.77691 0.0793,0.1284 -0.11177,0.53022 -0.0286,0.65868 6.0516,46.80067 21.28647,92.24866 -4.78261,125.00662 l -40.43743,40.46607 -1.17417,1.17417 c -10.40963,11.62568 -10.00064,29.4058 1.17417,40.58063 l 3.5798,3.5798 c 11.17482,11.17482 28.92631,11.55516 40.55198,1.14552 l 0.0286,0.0287 1.17418,-1.17416 40.43742,-40.43744 c 34.09296,-26.12323 79.16996,-9.8776 129.13055,-5.49856 6.94706,0.76196 14.12978,0.0287 21.27834,0.0287 3.60574,0 6.75192,0.15776 10.30982,-0.0287 C 394.0766,415.8123 474.60427,331.27574 474.60428,228.39235 474.60427,175.14338 453.19639,127.93364 418.30119,93.04725 383.41108,58.15196 335.51397,36.05683 282.26877,36.05683 l 0,-0.0573 z m 0,51.54913 c 39.1307,0 74.6782,15.56978 100.32032,41.21066 25.64088,25.63583 41.18202,61.18962 41.18202,100.32031 0,78.24881 -63.25355,141.50234 -141.50234,141.50234 -78.24879,0 -141.50234,-63.94212 -141.50234,-142.18966 -2e-5,-78.24878 63.25355,-140.84365 141.50234,-140.84365 z m 64.17867,89.06542 c -23.59541,0 -40.66654,12.31715 -40.66654,29.38301 0,8.31032 5.49079,14.09009 13.05909,14.09009 6.67795,0 12.31453,-5.19399 12.31453,-11.42673 0,-2.52278 -0.5962,-4.31659 -2.37699,-6.98778 -1.03879,-1.63237 -1.46056,-2.79874 -1.46056,-3.83753 0,-4.30355 7.26116,-8.30513 14.97788,-8.30513 9.64592,0 15.86568,5.78237 15.86568,14.83469 0,10.53631 -6.37596,22.41087 -18.09947,33.39237 -8.60712,8.01351 -11.72357,10.39056 -34.28016,25.23043 l 2.37697,16.61027 75.69131,0 9.04972,-32.21819 -12.02812,-3.26479 c -6.67794,13.8011 -8.14114,14.6915 -26.69098,14.6915 l -18.5577,0 c 18.40144,-9.94271 27.29504,-15.70426 36.19895,-23.5694 11.27829,-10.23951 15.89432,-18.26611 15.89432,-28.20882 0,-18.25304 -16.33696,-30.41399 -41.26793,-30.41399 z m -136.97749,1.91878 c -0.89039,0.1484 -1.92659,0.45301 -2.52017,0.60141 -13.65269,3.11636 -15.87091,3.56417 -22.25205,4.00937 -10.2395,0.5936 -10.23692,0.57276 -10.68212,0.57276 -0.5936,0 -1.3382,0.005 -2.377,-0.14318 l 0,11.56992 2.09062,0.17181 c 16.62064,0.8904 16.89665,1.03622 16.89665,10.68214 l 0,50.00264 c 0,8.90393 -1.4684,10.10156 -15.12108,11.14035 l -3.86619,0.28638 0,12.17131 63.94957,0 0,-12.17131 -3.40798,-0.28638 c -0.2968,0 -1.78078,-0.16663 -3.26477,-0.31503 -10.38792,-0.74199 -12.31452,-2.36657 -12.31452,-10.82532 l 0,-77.46687 -7.13096,0 z m 64.57959,24.48584 c -7.41992,0 -13.48868,5.93076 -13.48868,13.20229 0,7.56834 5.92556,13.66052 13.34549,13.66052 7.41994,0 13.51732,-6.0974 13.51732,-13.51732 0,-7.41994 -5.9542,-13.34549 -13.37413,-13.34549 z m 0,51.63503 c -7.41992,0 -13.48868,5.95941 -13.48868,13.23095 0,7.56832 5.92556,13.63188 13.34549,13.63188 7.41994,0 13.51732,-6.06878 13.51732,-13.4887 0,-7.41993 -5.9542,-13.37413 -13.37413,-13.37413 z"
     style="fill:#E3E3E3" />
</svg>
