<?xml version='1.0' encoding='UTF-8' standalone='no'?>
<!-- Created with Inkscape (http://www.inkscape.org/) -->

<svg xmlns:cc='http://creativecommons.org/ns#' xmlns:dc='http://purl.org/dc/elements/1.1/' sodipodi:docname='appointment-missed-symbolic.svg' height='16' id='svg7384' xmlns:inkscape='http://www.inkscape.org/namespaces/inkscape' xmlns:rdf='http://www.w3.org/1999/02/22-rdf-syntax-ns#' xmlns:sodipodi='http://sodipodi.sourceforge.net/DTD/sodipodi-0.dtd' xmlns:svg='http://www.w3.org/2000/svg' inkscape:version='0.48.4 r9939' version='1.1' width='16' xmlns='http://www.w3.org/2000/svg'>
  <metadata id='metadata90'>
    <rdf:RDF>
      <cc:Work rdf:about=''>
        <dc:format>image/svg+xml</dc:format>
        <dc:type rdf:resource='http://purl.org/dc/dcmitype/StillImage'/>
        <dc:title>Gnome Symbolic Icon Theme</dc:title>
      </cc:Work>
    </rdf:RDF>
  </metadata>
  <sodipodi:namedview inkscape:bbox-nodes='false' inkscape:bbox-paths='true' bordercolor='#666666' borderopacity='1' inkscape:current-layer='layer9' inkscape:cx='121.25379' inkscape:cy='-237.4382' gridtolerance='10' inkscape:guide-bbox='true' guidetolerance='10' id='namedview88' inkscape:object-nodes='false' inkscape:object-paths='false' objecttolerance='10' pagecolor='#3a3b39' inkscape:pageopacity='1' inkscape:pageshadow='2' showborder='false' showgrid='false' showguides='true' inkscape:snap-bbox='true' inkscape:snap-bbox-midpoints='false' inkscape:snap-global='true' inkscape:snap-grids='true' inkscape:snap-nodes='false' inkscape:snap-others='false' inkscape:snap-to-guides='true' inkscape:window-height='1376' inkscape:window-maximized='1' inkscape:window-width='2560' inkscape:window-x='2560' inkscape:window-y='27' inkscape:zoom='1'>
    <inkscape:grid empspacing='2' enabled='true' id='grid4866' originx='20px' originy='180px' snapvisiblegridlinesonly='true' spacingx='1px' spacingy='1px' type='xygrid' visible='true'/>
  </sodipodi:namedview>
  <title id='title9167'>Gnome Symbolic Icon Theme</title>
  <defs id='defs7386'/>
  <g inkscape:groupmode='layer' id='layer9' inkscape:label='status' style='display:inline' transform='translate(-221.0002,-397)'>

    <path inkscape:connector-curvature='0' d='M 227.40625,402 A 0.50005,0.50005 0 0 0 227,402.5 l 0,2.5 -1.5,0 a 0.50005,0.50005 0 1 0 0,1 l 2,0 a 0.50005,0.50005 0 0 0 0.5,-0.5 l 0,-3 a 0.50005,0.50005 0 0 0 -0.59375,-0.5 z' id='path4639-4-4-7' style='font-size:medium;font-style:normal;font-variant:normal;font-weight:normal;font-stretch:normal;text-indent:0;text-align:start;text-decoration:none;line-height:normal;letter-spacing:normal;word-spacing:normal;text-transform:none;direction:ltr;block-progression:tb;writing-mode:lr-tb;text-anchor:start;baseline-shift:baseline;color:#000000;fill:#E3E3E3;fill-opacity:1;stroke:none;stroke-width:1;marker:none;visibility:visible;display:inline;overflow:visible;enable-background:accumulate;font-family:Sans;-inkscape-font-specification:Sans'/>
    <path inkscape:connector-curvature='0' d='m 231.99995,408 1.375,0 1.125,1.09375 1.09375,-1.09375 1.40625,0 0,1.46875 -1.09375,1.0625 1.09375,1.0625 0,1.40625 -1.4375,0 -1.0625,-1.0625 -1.0625,1.0625 -1.4375,0 0,-1.40625 1.0625,-1.0625 -1.0625,-1.0625 0,-1.46875 z' id='path3761-2-3-5-4-8-9-8-0-1-6' sodipodi:nodetypes='ccccccccccccccccc' style='color:#90A4AE;fill:#E3E3E3;fill-opacity:1;stroke:none;stroke-width:2;marker:none;visibility:visible;display:inline;overflow:visible'/>
    <path inkscape:connector-curvature='0' d='m 227.5002,399 c -3.57801,0 -6.5,2.92199 -6.5,6.5 0,3.57801 2.92199,6.5 6.5,6.5 1.29116,0 2.48506,-0.37561 3.5,-1.03125 l 0,-2.65625 c -0.82069,1.02721 -2.071,1.6875 -3.5,1.6875 -2.49713,0 -4.5,-2.00287 -4.5,-4.5 0,-2.49712 2.00287,-4.5 4.5,-4.5 2.49712,0 4.5,2.00288 4.5,4.5 0,0.53296 -0.11393,1.02721 -0.28125,1.5 l 2.09375,0 c 0.11483,-0.48186 0.1875,-0.98435 0.1875,-1.5 0,-3.57801 -2.922,-6.5 -6.5,-6.5 z' id='path3869-9' style='font-size:xx-small;font-style:normal;font-variant:normal;font-weight:normal;font-stretch:normal;text-indent:0;text-align:start;text-decoration:none;line-height:normal;letter-spacing:normal;word-spacing:normal;text-transform:none;direction:ltr;block-progression:tb;writing-mode:lr-tb;text-anchor:start;baseline-shift:baseline;color:#000000;fill:#E3E3E3;fill-opacity:1;stroke:none;stroke-width:2.54545426;marker:none;visibility:visible;display:inline;overflow:visible;enable-background:accumulate;font-family:Sans;-inkscape-font-specification:Sans'/>
  </g>
  <g inkscape:groupmode='layer' id='layer10' inkscape:label='devices' transform='translate(-221.0002,-397)'/>
  <g inkscape:groupmode='layer' id='layer11' inkscape:label='apps' transform='translate(-221.0002,-397)'/>
  <g inkscape:groupmode='layer' id='layer13' inkscape:label='places' transform='translate(-221.0002,-397)'/>
  <g inkscape:groupmode='layer' id='layer14' inkscape:label='mimetypes' transform='translate(-221.0002,-397)'/>
  <g inkscape:groupmode='layer' id='layer15' inkscape:label='emblems' style='display:inline' transform='translate(-221.0002,-397)'/>
  <g inkscape:groupmode='layer' id='g71291' inkscape:label='emotes' style='display:inline' transform='translate(-221.0002,-397)'/>
  <g inkscape:groupmode='layer' id='g4953' inkscape:label='categories' style='display:inline' transform='translate(-221.0002,-397)'/>
  <g inkscape:groupmode='layer' id='layer12' inkscape:label='actions' style='display:inline' transform='translate(-221.0002,-397)'/>
</svg>
