<?xml version="1.0" encoding="UTF-8" standalone="no"?>
<svg
   xmlns:dc="http://purl.org/dc/elements/1.1/"
   xmlns:cc="http://creativecommons.org/ns#"
   xmlns:rdf="http://www.w3.org/1999/02/22-rdf-syntax-ns#"
   xmlns:svg="http://www.w3.org/2000/svg"
   xmlns="http://www.w3.org/2000/svg"
   xmlns:sodipodi="http://sodipodi.sourceforge.net/DTD/sodipodi-0.dtd"
   xmlns:inkscape="http://www.inkscape.org/namespaces/inkscape"
   viewBox="0 0 24 24"
   id="svg2"
   version="1.1"
   inkscape:version="0.91 r13725"
   sodipodi:docname="audio-recorder.svg">
  <metadata
     id="metadata14">
    <rdf:RDF>
      <cc:Work
         rdf:about="">
        <dc:format>image/svg+xml</dc:format>
        <dc:type
           rdf:resource="http://purl.org/dc/dcmitype/StillImage" />
      </cc:Work>
    </rdf:RDF>
  </metadata>
  <defs
     id="defs12" />
  <sodipodi:namedview
     pagecolor="#ffffff"
     bordercolor="#666666"
     borderopacity="1"
     objecttolerance="10"
     gridtolerance="10"
     guidetolerance="10"
     inkscape:pageopacity="0"
     inkscape:pageshadow="2"
     inkscape:window-width="729"
     inkscape:window-height="480"
     id="namedview10"
     showgrid="false"
     inkscape:zoom="9.8333333"
     inkscape:cx="12"
     inkscape:cy="12"
     inkscape:window-x="67"
     inkscape:window-y="34"
     inkscape:window-maximized="0"
     inkscape:current-layer="svg2" />
  <path
     d="m 8.667 3 c -1.84 0 -3.333 1.511 -3.333 3.374 l 0 5.637 c 0 1.862 1.493 3.374 3.333 3.374 c 1.84 0 3.333 -1.511 3.333 -3.374 l 0 -5.637 c 0 -1.862 -1.493 -3.374 -3.333 -3.374"
     style="fill:#E3E3E3;fill-opacity:1"
     id="path4" />
  <path
     d="m 2 12 c 0 3.349 2.399 6.113 5.557 6.647 l 0 1.228 -1.113 0 0 1.125 4.447 0 0 -1.125 -1.113 0 0 -1.228 c 3.158 -0.534 5.557 -3.298 5.557 -6.647 l -2.223 0 c 0 2.485 -1.987 4.502 -4.443 4.502 -2.453 0 -4.443 -2.02 -4.443 -4.502 z"
     style="fill:#E3E3E3;fill-opacity:1"
     id="path6" />
  <path
     d="m 22 12 c 0 1.243 -0.995 2.249 -2.223 2.249 -1.228 0 -2.22 -1.01 -2.22 -2.249 0 -1.243 0.992 -2.249 2.22 -2.249 c 1.228 0 2.223 1.01 2.223 2.249"
     style="fill:#E3E3E3;fill-opacity:1"
     id="path8" />
</svg>
