<svg xmlns="http://www.w3.org/2000/svg" width="48" height="48">
<defs>
  <path

     d="M 5.4712548,12.858301 C 3.568194,12.858301 2,14.426496 2,16.329556 L 2,32.528745 C 2,34.431805 3.568194,36 5.4712548,36 l 32.3983782,0 c 1.90306,0 3.471255,-1.568195 3.471255,-3.471255 l 0,-3.471255 c 0.312593,0.01 0.561385,0.01227 0.940131,0 0.728357,-0.02351 1.617137,-0.180042 2.386488,-0.795495 0.860022,-0.667044 1.223092,-1.657071 1.30172,-2.458806 0.07572,-0.772042 -0.01388,-1.393528 0,-1.880263 0.0035,-0.02393 -0.0028,-0.04834 0,-0.07232 0.229057,-1.899644 -1.078012,-3.906346 -3.181983,-4.049797 l -0.07232,0 c -0.465555,-0.0014 -0.908564,0.0011 -1.374038,0 l 0,-3.471255 c 0,-1.90306 -1.568195,-3.471255 -3.471255,-3.471255 l -32.3983782,0 z m 19.6704442,2.31417 12.727934,0 c 0.66104,0 1.157085,0.496045 1.157085,1.157085 l 0,16.199189 c 0,0.661041 -0.496045,1.157085 -1.157085,1.157085 l -12.727934,0 0,-18.368723 c 0,-0.05033 0.0028,-0.09534 0,-0.144636 z m 16.199189,6.94251 c 0.440597,0.0011 0.861209,-0.0013 1.30172,0 0.63642,0.04339 1.108717,0.835353 1.012449,1.518674 l 0,0.07232 c -0.0327,0.743547 0.04612,1.409875 0,1.880263 -0.04612,0.470387 -0.09389,0.660172 -0.361589,0.867813 l -0.07232,0 c -0.245363,0.196288 -0.514336,0.27319 -1.01245,0.289272 -0.229889,0.0074 -0.579609,0.0099 -0.867813,0 l 0,-4.62834 z"
     id="path-main" />
</defs>

<use id="1" style="fill:#E3E3E3" xlink:href="#path-main" />



</svg>
