<?xml version='1.0' encoding='UTF-8'?>
<!-- Created with Inkscape (http://www.inkscape.org/) -->

<svg xmlns:cc='http://creativecommons.org/ns#' xmlns:inkscape='http://www.inkscape.org/namespaces/inkscape' xmlns:svg='http://www.w3.org/2000/svg' id='svg7384' xmlns:sodipodi='http://sodipodi.sourceforge.net/DTD/sodipodi-0.dtd' sodipodi:docname='dialog-information-symbolic.svg' version='1.1' inkscape:version='0.48.0 r9654' height='16' xmlns:dc='http://purl.org/dc/elements/1.1/' xmlns:rdf='http://www.w3.org/1999/02/22-rdf-syntax-ns#' xmlns='http://www.w3.org/2000/svg' width='16'>
  <metadata id='metadata90'>
    <rdf:RDF>
      <cc:Work rdf:about=''>
        <dc:format>image/svg+xml</dc:format>
        <dc:type rdf:resource='http://purl.org/dc/dcmitype/StillImage'/>
        <dc:title>Gnome Symbolic Icon Theme</dc:title>
      </cc:Work>
    </rdf:RDF>
  </metadata>
  <sodipodi:namedview inkscape:cy='30.533763' pagecolor='#555753' borderopacity='1' showborder='false' inkscape:bbox-paths='false' guidetolerance='10' inkscape:object-paths='true' inkscape:window-width='1920' showguides='true' inkscape:object-nodes='true' inkscape:snap-bbox='true' inkscape:pageshadow='2' inkscape:guide-bbox='true' inkscape:snap-nodes='false' bordercolor='#666666' objecttolerance='10' id='namedview88' showgrid='false' inkscape:window-maximized='1' inkscape:window-x='0' inkscape:snap-global='true' inkscape:window-y='26' gridtolerance='10' inkscape:window-height='1021' inkscape:snap-to-guides='true' inkscape:current-layer='layer9' inkscape:snap-bbox-midpoints='false' inkscape:zoom='1' inkscape:cx='-164.94057' inkscape:snap-grids='true' inkscape:pageopacity='1'>
    <inkscape:grid spacingx='1px' spacingy='1px' id='grid4866' empspacing='2' enabled='true' type='xygrid' snapvisiblegridlinesonly='true' visible='true'/>
  </sodipodi:namedview>
  <title id='title9167'>Gnome Symbolic Icon Theme</title>
  <defs id='defs7386'/>
  <g inkscape:label='status' transform='translate(-260.99994,-257)' inkscape:groupmode='layer' id='layer9' style='display:inline'>

    <path inkscape:connector-curvature='0' d='m 269,257 c -2.74958,0 -5,2.25042 -5,5 0,1.58622 0.84459,2.90336 2,3.8125 l 0,2.1875 0,1 1,0 4,0 1,0 0,-1 0,-2.1875 c 1.15541,-0.90914 2,-2.22628 2,-3.8125 0,-2.74958 -2.25042,-5 -5,-5 z m 0,2 c 1.66868,0 3,1.33132 3,3 0,1.11585 -0.59507,2.03788 -1.5,2.5625 l -0.5,0.3125 0,0.5625 0,1.5625 -2,0 0,-1.5625 0,-0.5625 -0.5,-0.3125 C 266.59507,264.03788 266,263.11585 266,262 c 0,-1.66868 1.33132,-3 3,-3 z' id='path4561' style='font-size:medium;font-style:normal;font-variant:normal;font-weight:normal;font-stretch:normal;text-indent:0;text-align:start;text-decoration:none;line-height:normal;letter-spacing:normal;word-spacing:normal;text-transform:none;direction:ltr;block-progression:tb;writing-mode:lr-tb;text-anchor:start;baseline-shift:baseline;color:#000000;fill:#E3E3E3;fill-opacity:1;stroke:none;stroke-width:2.00000024;marker:none;visibility:visible;display:inline;overflow:visible;enable-background:accumulate;font-family:Sans;-inkscape-font-specification:Sans'/>
    <path inkscape:connector-curvature='0' d='m 267,272 0,1 4,0 0,-1 -4,0 z' id='path4488-4' style='font-size:medium;font-style:normal;font-variant:normal;font-weight:normal;font-stretch:normal;text-indent:0;text-align:start;text-decoration:none;line-height:normal;letter-spacing:normal;word-spacing:normal;text-transform:none;direction:ltr;block-progression:tb;writing-mode:lr-tb;text-anchor:start;baseline-shift:baseline;color:#000000;fill:#E3E3E3;fill-opacity:1;fill-rule:nonzero;stroke:none;stroke-width:1;marker:none;visibility:visible;display:inline;overflow:visible;enable-background:accumulate;font-family:Sans;-inkscape-font-specification:Sans'/>
    <path inkscape:connector-curvature='0' d='m 266,270 0,1 6,0 0,-1 -6,0 z' id='path4488-4-7' style='font-size:medium;font-style:normal;font-variant:normal;font-weight:normal;font-stretch:normal;text-indent:0;text-align:start;text-decoration:none;line-height:normal;letter-spacing:normal;word-spacing:normal;text-transform:none;direction:ltr;block-progression:tb;writing-mode:lr-tb;text-anchor:start;baseline-shift:baseline;color:#000000;fill:#E3E3E3;fill-opacity:1;fill-rule:nonzero;stroke:none;stroke-width:1;marker:none;visibility:visible;display:inline;overflow:visible;enable-background:accumulate;font-family:Sans;-inkscape-font-specification:Sans'/>
    <path inkscape:connector-curvature='0' d='m 268,262 0,1 2,0 0,-1 -2,0 z' id='path4488-4-4' style='font-size:medium;font-style:normal;font-variant:normal;font-weight:normal;font-stretch:normal;text-indent:0;text-align:start;text-decoration:none;line-height:normal;letter-spacing:normal;word-spacing:normal;text-transform:none;direction:ltr;block-progression:tb;writing-mode:lr-tb;text-anchor:start;baseline-shift:baseline;opacity:0.35;color:#000000;fill:#E3E3E3;fill-opacity:1;fill-rule:nonzero;stroke:none;stroke-width:1;marker:none;visibility:visible;display:inline;overflow:visible;enable-background:accumulate;font-family:Sans;-inkscape-font-specification:Sans'/>
  </g>
  <g inkscape:label='devices' transform='translate(-260.99994,-257)' inkscape:groupmode='layer' id='layer10'/>
  <g inkscape:label='apps' transform='translate(-260.99994,-257)' inkscape:groupmode='layer' id='layer11'/>
  <g inkscape:label='actions' transform='translate(-260.99994,-257)' inkscape:groupmode='layer' id='layer12'/>
  <g inkscape:label='places' transform='translate(-260.99994,-257)' inkscape:groupmode='layer' id='layer13'/>
  <g inkscape:label='mimetypes' transform='translate(-260.99994,-257)' inkscape:groupmode='layer' id='layer14'/>
  <g inkscape:label='emblems' transform='translate(-260.99994,-257)' inkscape:groupmode='layer' id='layer15' style='display:inline'/>
  <g inkscape:label='categories' transform='translate(-260.99994,-257)' inkscape:groupmode='layer' id='g4953' style='display:inline'/>
</svg>
