<svg viewBox="0 0 24 24" xmlns="http://www.w3.org/2000/svg">
 <path style="fill:#E3E3E3;fill-opacity:1" d="m 4 2 c -1.108 0 -2 0.892 -2 2 l 0 16 c 0 1.108 0.892 2 2 2 l 16 0 c 1.108 0 2 -0.892 2 -2 l 0 -16 c 0 -1.108 -0.892 -2 -2 -2 l -16 0 z m 0.742 5.588 5.563 0 0 1.338 -3.986 0 0 2.137 3.549 0 0 1.313 -3.549 0 0 2.537 4.287 0 0 1.338 -5.863 0 0 -8.662 z m 9.35 1.963 c 0.383 0 0.75 0.036 1.1 0.111 0.35 0.067 0.614 0.135 0.789 0.201 l -0.275 1.225 c -0.167 -0.075 -0.38 -0.143 -0.639 -0.201 -0.258 -0.067 -0.557 -0.1 -0.898 -0.1 -0.308 0 -0.558 0.054 -0.75 0.162 -0.192 0.1 -0.289 0.26 -0.289 0.477 0 0.108 0.017 0.204 0.051 0.287 0.042 0.083 0.108 0.161 0.199 0.236 0.092 0.067 0.213 0.138 0.363 0.213 0.15 0.067 0.334 0.138 0.551 0.213 0.358 0.133 0.662 0.267 0.912 0.4 0.25 0.125 0.453 0.271 0.611 0.438 0.167 0.158 0.288 0.34 0.363 0.549 0.075 0.208 0.113 0.458 0.113 0.75 0 0.625 -0.235 1.101 -0.701 1.426 -0.458 0.317 -1.116 0.475 -1.975 0.475 -0.575 0 -1.037 -0.05 -1.387 -0.15 -0.35 -0.092 -0.597 -0.166 -0.738 -0.225 l 0.262 -1.262 c 0.225 0.092 0.492 0.178 0.801 0.262 0.317 0.083 0.674 0.125 1.074 0.125 0.4 0 0.692 -0.045 0.875 -0.137 0.183 -0.1 0.275 -0.267 0.275 -0.5 0 -0.217 -0.099 -0.395 -0.299 -0.537 -0.192 -0.142 -0.513 -0.296 -0.963 -0.463 -0.275 -0.1 -0.53 -0.204 -0.764 -0.313 -0.225 -0.117 -0.419 -0.25 -0.586 -0.4 -0.167 -0.15 -0.3 -0.329 -0.4 -0.537 -0.092 -0.217 -0.139 -0.479 -0.139 -0.787 0 -0.6 0.222 -1.072 0.664 -1.414 0.442 -0.35 1.04 -0.523 1.799 -0.523 z m 4.338 4.768 c 0.508 0 0.892 0.165 1.15 0.494 0.262 0.325 0.395 0.785 0.395 1.381 0 0.842 -0.217 1.479 -0.65 1.912 -0.433 0.433 -1.098 0.652 -1.994 0.656 l -0.031 -0.631 c 0.25 0 0.476 -0.021 0.676 -0.063 0.204 -0.042 0.381 -0.108 0.531 -0.199 0.154 -0.092 0.283 -0.212 0.387 -0.357 0.104 -0.15 0.184 -0.332 0.238 -0.549 -0.1 0.046 -0.211 0.08 -0.332 0.105 -0.121 0.025 -0.237 0.037 -0.35 0.037 -0.258 0 -0.479 -0.033 -0.662 -0.1 -0.179 -0.071 -0.329 -0.166 -0.445 -0.287 -0.113 -0.125 -0.196 -0.269 -0.25 -0.432 -0.054 -0.163 -0.08 -0.338 -0.08 -0.525 0 -0.162 0.026 -0.326 0.08 -0.492 0.054 -0.171 0.141 -0.327 0.258 -0.469 0.117 -0.142 0.264 -0.256 0.443 -0.344 0.179 -0.092 0.391 -0.139 0.637 -0.139 z m 0.02 0.625 c -0.121 0 -0.225 0.026 -0.313 0.076 -0.083 0.05 -0.153 0.114 -0.207 0.193 -0.054 0.079 -0.094 0.164 -0.119 0.256 -0.025 0.092 -0.037 0.182 -0.037 0.27 0 0.254 0.061 0.445 0.182 0.574 0.125 0.129 0.32 0.193 0.582 0.193 0.121 0 0.239 -0.01 0.355 -0.031 0.117 -0.025 0.217 -0.06 0.301 -0.105 0.004 -0.046 0.006 -0.086 0.006 -0.119 l 0 -0.088 c 0 -0.167 -0.012 -0.323 -0.037 -0.469 -0.021 -0.15 -0.061 -0.278 -0.119 -0.387 -0.054 -0.113 -0.132 -0.201 -0.232 -0.264 -0.096 -0.067 -0.215 -0.1 -0.361 -0.1 z"/>
</svg>
