<svg xmlns="http://www.w3.org/2000/svg" viewBox="0 0 24 24">
 <g transform="translate(0,-1028.8622)">
  <path d="m 10 1045.86 -2 2 c -1 1 -1 1 0 1 l 8 0 c 1 0 1 0 0 -1 l -2 -2 0 -1 -4 0 z" style="fill:#E3E3E3;fill-opacity:1;stroke:none"/>
  <path d="m 6 1032.86 c -1.108 0 -2 0.892 -2 2 l 0 9 c 0 1.108 0.892 2 2 2 l 12 0 c 1.108 0 2 -0.892 2 -2 l 0 -9 c 0 -1.108 -0.892 -2 -2 -2 l -12 0 z m 0 2 12 0 0 9 -12 0 0 -9 z" style="fill:#E3E3E3;fill-opacity:1;stroke:none"/>
  <g transform="translate(-0.22430405,0)" style="fill:#E3E3E3;fill-opacity:1;stroke:none">
   <path d="m 7.316 1041.42 1.453 0 0 -4.123 -1.491 0.308 0 -1.119 1.483 -0.308 1.564 0 0 5.242 1.453 0 0 1.136 -4.46 0 0 -1.136 z"/>
   <path d="m 14.671 1039.7 q -0.461 0 -0.709 0.252 -0.248 0.252 -0.248 0.722 0 0.47 0.248 0.722 0.248 0.248 0.709 0.248 0.457 0 0.701 -0.248 0.244 -0.252 0.244 -0.722 0 -0.474 -0.244 -0.722 -0.244 -0.252 -0.701 -0.252 z m -1.201 -0.543 q -0.581 -0.175 -0.876 -0.538 -0.295 -0.363 -0.295 -0.906 0 -0.807 0.602 -1.23 0.602 -0.423 1.769 -0.423 1.158 0 1.76 0.423 0.602 0.419 0.602 1.23 0 0.543 -0.299 0.906 -0.295 0.363 -0.876 0.538 0.649 0.179 0.978 0.585 0.333 0.402 0.333 1.017 0 0.948 -0.632 1.436 -0.628 0.483 -1.867 0.483 -1.243 0 -1.88 -0.483 -0.632 -0.487 -0.632 -1.436 0 -0.615 0.329 -1.017 0.333 -0.406 0.983 -0.585 z m 0.385 -1.277 q 0 0.38 0.209 0.585 0.214 0.205 0.607 0.205 0.385 0 0.594 -0.205 0.209 -0.205 0.209 -0.585 0 -0.38 -0.209 -0.581 -0.209 -0.205 -0.594 -0.205 -0.393 0 -0.607 0.205 -0.209 0.205 -0.209 0.581 z"/>
  </g>
 </g>
</svg>
