<svg xmlns="http://www.w3.org/2000/svg" viewBox="0 0 24 24">
 <path style="fill:#E3E3E3;fill-opacity:1" d="m 4 2 c -1.108 0 -2 0.892 -2 2 l 0 16 c 0 1.108 0.892 2 2 2 l 16 0 c 1.108 0 2 -0.892 2 -2 l 0 -16 c 0 -1.108 -0.892 -2 -2 -2 l -16 0 z m 1.326 5.838 6.912 0 0 1.361 -2.662 0 0 7.301 -1.588 0 0 -7.301 -2.662 0 0 -1.361 z m 10.02 1.963 c 0.9 0 1.602 0.278 2.102 0.836 0.508 0.558 0.762 1.392 0.762 2.5 0 0.083 -0.003 0.181 -0.012 0.289 0 0.1 -0.005 0.19 -0.014 0.273 l -4.313 0 c 0.042 0.525 0.226 0.935 0.551 1.227 0.333 0.283 0.813 0.424 1.438 0.424 0.367 0 0.7 -0.033 1 -0.1 0.308 -0.067 0.55 -0.138 0.725 -0.213 l 0.199 1.238 c -0.083 0.042 -0.2 0.087 -0.35 0.137 -0.142 0.042 -0.308 0.08 -0.5 0.113 -0.183 0.042 -0.383 0.075 -0.6 0.1 -0.217 0.025 -0.437 0.037 -0.662 0.037 -0.575 0 -1.075 -0.083 -1.5 -0.25 -0.425 -0.175 -0.776 -0.413 -1.051 -0.713 -0.275 -0.308 -0.478 -0.666 -0.611 -1.074 -0.133 -0.417 -0.201 -0.872 -0.201 -1.363 0 -0.575 0.083 -1.078 0.25 -1.512 0.175 -0.433 0.404 -0.791 0.688 -1.074 0.283 -0.292 0.608 -0.509 0.975 -0.65 0.367 -0.15 0.742 -0.225 1.125 -0.225 z m 0.014 1.262 c -0.233 0 -0.438 0.045 -0.613 0.137 -0.175 0.083 -0.324 0.196 -0.449 0.338 -0.117 0.142 -0.209 0.305 -0.275 0.488 -0.067 0.183 -0.112 0.371 -0.137 0.563 l 2.813 0 c 0 -0.208 -0.03 -0.405 -0.088 -0.588 -0.058 -0.192 -0.147 -0.355 -0.264 -0.488 -0.108 -0.142 -0.245 -0.249 -0.412 -0.324 -0.158 -0.083 -0.349 -0.125 -0.574 -0.125 z"/>
</svg>
