<?xml version='1.0' encoding='UTF-8' standalone='no'?>
<!-- Created with Inkscape (http://www.inkscape.org/) -->

<svg xmlns:cc='http://creativecommons.org/ns#' xmlns:dc='http://purl.org/dc/elements/1.1/' sodipodi:docname='mail-read-symbolic.svg' height='16.001099' id='svg7384' xmlns:inkscape='http://www.inkscape.org/namespaces/inkscape' xmlns:rdf='http://www.w3.org/1999/02/22-rdf-syntax-ns#' xmlns:sodipodi='http://sodipodi.sourceforge.net/DTD/sodipodi-0.dtd' xmlns:svg='http://www.w3.org/2000/svg' inkscape:version='0.48.4 r9939' version='1.1' width='16' xmlns='http://www.w3.org/2000/svg'>
  <metadata id='metadata90'>
    <rdf:RDF>
      <cc:Work rdf:about=''>
        <dc:format>image/svg+xml</dc:format>
        <dc:type rdf:resource='http://purl.org/dc/dcmitype/StillImage'/>
        <dc:title>Gnome Symbolic Icon Theme</dc:title>
      </cc:Work>
    </rdf:RDF>
  </metadata>
  <sodipodi:namedview inkscape:bbox-nodes='false' inkscape:bbox-paths='true' bordercolor='#666666' borderopacity='1' inkscape:current-layer='layer9' inkscape:cx='295.28538' inkscape:cy='-277.42182' gridtolerance='10' inkscape:guide-bbox='true' guidetolerance='10' id='namedview88' inkscape:object-nodes='false' inkscape:object-paths='false' objecttolerance='10' pagecolor='#3a3b39' inkscape:pageopacity='1' inkscape:pageshadow='2' showborder='false' showgrid='false' showguides='true' inkscape:snap-bbox='true' inkscape:snap-bbox-midpoints='false' inkscape:snap-global='true' inkscape:snap-grids='true' inkscape:snap-nodes='false' inkscape:snap-others='false' inkscape:snap-to-guides='true' inkscape:window-height='1403' inkscape:window-maximized='1' inkscape:window-width='2560' inkscape:window-x='0' inkscape:window-y='0' inkscape:zoom='1'>
    <inkscape:grid empspacing='2' enabled='true' id='grid4866' originx='180.00025px' originy='80.000001px' snapvisiblegridlinesonly='true' spacingx='1px' spacingy='1px' type='xygrid' visible='true'/>
  </sodipodi:namedview>
  <title id='title9167'>Gnome Symbolic Icon Theme</title>
  <defs id='defs7386'/>
  <g inkscape:groupmode='layer' id='layer9' inkscape:label='status' style='display:inline' transform='translate(-60.99995,-296.9989)'>

    <path inkscape:connector-curvature='0' d='m 68.8752,297 a 1.0001,1.0001 0 0 0 -0.5,0.25 l -4.90625,4 a 1.0001,1.0001 0 0 0 -0.0625,0.0312 c 0,0 -0.32587,0.29728 -0.65625,0.75 -0.22334,0.30605 -0.3527,0.8316 -0.5,1.3125 a 1.0001,1.0001 0 0 0 -0.03125,0.0312 1.0001,1.0001 0 0 0 -0.21875,0.5625 c -5.1e-4,0.0118 3.6e-4,0.0195 0,0.0312 a 1.0001,1.0001 0 0 0 0,0.0312 1.0001,1.0001 0 0 0 0,0.15625 l 0,7.84375 a 1.0001,1.0001 0 0 0 1,1 l 12,0 a 1.0001,1.0001 0 0 0 1,-1 l 0,-7.84375 a 1.0001,1.0001 0 0 0 0,-0.15625 1.0001,1.0001 0 0 0 -0.21875,-0.65625 1.0001,1.0001 0 0 0 -0.03125,-0.0312 c -0.32774,-1.18787 -1.125,-2 -1.125,-2 a 1.0001,1.0001 0 0 0 -0.0312,-0.0312 L 69.6252,297.25 a 1.0001,1.0001 0 0 0 -0.65625,-0.25 1.0001,1.0001 0 0 0 -0.0937,0 z m 0.125,2.28125 4.3125,3.53125 0.0312,0.0312 c 0.021,0.0255 0.18032,0.24952 0.34375,0.5 l -4.68745,3.53125 -4.6875,-3.53125 c 0.0259,-0.0394 0.0349,-0.0872 0.0625,-0.125 0.1908,-0.26146 0.31874,-0.41421 0.34375,-0.4375 l 0.03125,-0.0312 4.25,-3.46875 z m -5,5.09375 4.6875,3.53125 0.3125,0.21875 0.3125,-0.21875 4.6875,-3.53125 0,6.625 -10,0 0,-6.625 z' id='path35631' style='font-size:medium;font-style:normal;font-variant:normal;font-weight:normal;font-stretch:normal;text-indent:0;text-align:start;text-decoration:none;line-height:normal;letter-spacing:normal;word-spacing:normal;text-transform:none;direction:ltr;block-progression:tb;writing-mode:lr-tb;text-anchor:start;baseline-shift:baseline;opacity:0.5;color:#000000;fill:#E3E3E3;fill-opacity:1;stroke:none;stroke-width:1;marker:none;visibility:visible;display:inline;overflow:visible;enable-background:accumulate;font-family:Sans;-inkscape-font-specification:Sans'/>
  </g>
  <g inkscape:groupmode='layer' id='layer10' inkscape:label='devices' transform='translate(-60.99995,-296.9989)'/>
  <g inkscape:groupmode='layer' id='layer11' inkscape:label='apps' transform='translate(-60.99995,-296.9989)'/>
  <g inkscape:groupmode='layer' id='layer13' inkscape:label='places' transform='translate(-60.99995,-296.9989)'/>
  <g inkscape:groupmode='layer' id='layer14' inkscape:label='mimetypes' transform='translate(-60.99995,-296.9989)'/>
  <g inkscape:groupmode='layer' id='layer15' inkscape:label='emblems' style='display:inline' transform='translate(-60.99995,-296.9989)'/>
  <g inkscape:groupmode='layer' id='g71291' inkscape:label='emotes' style='display:inline' transform='translate(-60.99995,-296.9989)'/>
  <g inkscape:groupmode='layer' id='g4953' inkscape:label='categories' style='display:inline' transform='translate(-60.99995,-296.9989)'/>
  <g inkscape:groupmode='layer' id='layer12' inkscape:label='actions' style='display:inline' transform='translate(-60.99995,-296.9989)'/>
</svg>
