<?xml version="1.0" encoding="UTF-8" standalone="no"?>
<svg
   xmlns:dc="http://purl.org/dc/elements/1.1/"
   xmlns:cc="http://creativecommons.org/ns#"
   xmlns:rdf="http://www.w3.org/1999/02/22-rdf-syntax-ns#"
   xmlns:svg="http://www.w3.org/2000/svg"
   xmlns="http://www.w3.org/2000/svg"
   xmlns:sodipodi="http://sodipodi.sourceforge.net/DTD/sodipodi-0.dtd"
   xmlns:inkscape="http://www.inkscape.org/namespaces/inkscape"
   viewBox="0 0 24 24"
   id="svg2"
   version="1.1"
   inkscape:version="0.91 r13725"
   sodipodi:docname="network-idle.svg">
  <metadata
     id="metadata12">
    <rdf:RDF>
      <cc:Work
         rdf:about="">
        <dc:format>image/svg+xml</dc:format>
        <dc:type
           rdf:resource="http://purl.org/dc/dcmitype/StillImage" />
        <dc:title />
      </cc:Work>
    </rdf:RDF>
  </metadata>
  <defs
     id="defs10" />
  <sodipodi:namedview
     pagecolor="#3a3a38"
     bordercolor="#666666"
     borderopacity="1"
     objecttolerance="10"
     gridtolerance="10"
     guidetolerance="10"
     inkscape:pageopacity="0"
     inkscape:pageshadow="2"
     inkscape:window-width="1920"
     inkscape:window-height="1020"
     id="namedview8"
     showgrid="false"
     inkscape:zoom="11.116485"
     inkscape:cx="-39.842515"
     inkscape:cy="4.3818579"
     inkscape:window-x="0"
     inkscape:window-y="0"
     inkscape:window-maximized="1"
     inkscape:current-layer="svg2" />
  <g
     id="g4140"
     transform="matrix(0.94444444,0,0,1,0.66666672,0)"
     style="fill:#E3E3E3;fill-opacity:1">
    <path
       id="path4"
       style="fill:#E3E3E3;fill-opacity:1;fill-rule:evenodd"
       d="M 13,8.389 8,3.5 3,8.389 l 2.727,0 0,7.111 4.545,0 0,-7.111 z"
       inkscape:connector-curvature="0" />
    <path
       id="path6"
       style="fill:#E3E3E3;fill-opacity:1;fill-rule:evenodd"
       d="m 11,15.611 5,4.889 5,-4.889 -2.727,0 0,-7.111 -4.545,0 0,7.111 z"
       inkscape:connector-curvature="0" />
  </g>
</svg>
