<svg xmlns="http://www.w3.org/2000/svg" width="48" height="48">
<defs>
<defs
     id="defs8145">
  </defs>
  <path
     id="path-main"
     d="m 44.757865,21.107 c -0.811284,-0.813083 -1.821493,-1.242083 -2.920622,-1.242083 l -4.967623,0 c -0.977208,0 -1.887496,0.340083 -2.638277,0.979916 C 34.034251,20.203167 33.777574,19.589 33.468645,19.006 c 0.990957,-0.08342 1.874661,-0.487667 2.575023,-1.184333 l 3.50823,-3.5145 c 0.770032,-0.77 1.188049,-1.774667 1.206384,-2.954417 -0.0092,-1.136667 -0.427185,-2.148667 -1.202717,-2.9205 -0.778283,-0.781 -1.789408,-1.199 -2.973791,-1.2081667 -1.138547,0.01925 -2.145089,0.4326667 -2.908704,1.1989997 l -3.518314,3.516334 c -0.689362,0.69025 -1.089962,1.573 -1.172465,2.581333 -0.575691,-0.3025 -1.180716,-0.556417 -1.813242,-0.752583 0.635276,-0.75625 0.968957,-1.664667 0.968957,-2.64275 l 0,-4.970167 c 0,-1.089 -0.416184,-2.0955 -1.239385,-2.9425 C 26.09192,2.418 25.084462,2 23.984416,2 22.885287,2 21.875995,2.418 21.029876,3.2485 20.23876,4.0698333 19.821659,5.0754167 19.821659,6.15525 l 0,4.970167 c 0,0.968916 0.332764,1.87275 0.985458,2.650083 -0.624276,0.194333 -1.223801,0.446417 -1.793075,0.748917 -0.07884,-0.977167 -0.48402,-1.855334 -1.184382,-2.5575 l -3.509147,-3.509 C 13.541314,7.6769167 12.531105,7.26075 11.367807,7.2515833 10.224676,7.2616663 9.2126339,7.6778333 8.4426018,8.449667 7.6652361,9.223333 7.249052,10.237167 7.239885,11.412333 c 0.00917,1.134834 0.4253511,2.145 1.2045502,2.924167 l 3.5091458,3.509 c 0.702196,0.704 1.58315,1.110083 2.564941,1.18525 -0.302513,0.57475 -0.55369,1.1825 -0.748948,1.81225 -0.747115,-0.63525 -1.657403,-0.969833 -2.648361,-0.969833 l -4.9575395,0 c -1.1009626,0 -2.1111713,0.419833 -2.9398725,1.23475 C 2.4235177,21.91825 2,22.928417 2,24.029333 c 0,1.096334 0.4216842,2.107417 1.2467186,2.943417 0.807617,0.793833 1.8178258,1.211833 2.9169549,1.211833 l 4.9575395,0 c 0.998292,0 1.91408,-0.33825 2.663028,-0.98175 0.190675,0.61325 0.437268,1.20175 0.73153,1.760917 -0.979957,0.08158 -1.857244,0.484 -2.553939,1.180667 L 8.4591025,33.6525 c -0.7773658,0.776417 -1.1917164,1.7875 -1.2008834,2.943417 0,1.144 0.416184,2.163333 1.1972165,2.943416 0.7810326,0.782834 1.7967414,1.197167 2.9407894,1.197167 l 0.02017,0 c 1.14038,-0.01375 2.150589,-0.427167 2.924289,-1.20175 l 3.509145,-3.509917 c 0.698529,-0.702166 1.099129,-1.58125 1.177049,-2.541916 0.563774,0.297 1.157798,0.545416 1.773824,0.73975 -0.64261,0.75075 -0.97904,1.659166 -0.97904,2.652833 l 0,4.961 c 0,1.092667 0.421683,2.102833 1.232967,2.929667 C 21.862244,45.574667 22.87612,46 23.984416,46 c 1.102796,0 2.113005,-0.425333 2.931622,-1.243917 0.800284,-0.813083 1.221968,-1.82325 1.221968,-2.9205 l 0,-4.961 c 0,-0.997333 -0.340098,-1.910333 -0.970791,-2.64275 0.62886,-0.19525 1.232052,-0.446416 1.804992,-0.748916 0.07792,1.001 0.480354,1.890166 1.177966,2.583166 l 3.51648,3.520917 c 0.781949,0.777333 1.796741,1.187083 2.935289,1.187083 l 0.03208,0 c 1.129381,0 2.137756,-0.40975 2.916955,-1.191666 0.786533,-0.7865 1.198134,-1.810417 1.18805,-2.944334 0,-1.150416 -0.409767,-2.16975 -1.1853,-2.94525 l -3.510979,-3.512666 c -0.688446,-0.692084 -1.568482,-1.092667 -2.579608,-1.17425 0.302513,-0.571084 0.555523,-1.170584 0.752615,-1.7985 0.758115,0.64625 1.667486,0.9845 2.653861,0.9845 l 4.967623,0 c 1.100046,0 2.111172,-0.425334 2.906871,-1.219167 C 45.566399,26.168833 46,25.151333 46,24.029333 46,22.91375 45.566399,21.898083 44.757865,21.107 l 0,0 z M 24,32.878833 c -4.900704,0 -8.872786,-3.975583 -8.872786,-8.878833 0,-4.90325 3.972082,-8.877917 8.872786,-8.877917 4.900704,0 8.872786,3.974667 8.872786,8.877917 0,4.90325 -3.972082,8.878833 -8.872786,8.878833 z" />
</defs>

<use id="1" style="fill:#E3E3E3" xlink:href="#path-main" />



</svg>
