<svg xmlns="http://www.w3.org/2000/svg" width="48" height="48">
<defs>
  <path
     d="m 20.333333,5.8951311 c -10.12,0 -18.3333328,8.2133339 -18.333333,18.3333339 0,10.12 8.213334,18.333333 18.333333,18.333333 4.802815,0 9.181593,-1.863204 12.451389,-4.888889 l 13.215278,0 -8.173611,-8.173611 c 0.508303,-1.680842 0.840278,-3.424828 0.840278,-5.270833 0,-10.12 -8.213334,-18.3333339 -18.333334,-18.3333339 z m 11,21.9999999 -22,0 0,-4.888889 22,0 0,4.888889 z"
     id="path-main"
      />
</defs>

<use id="1" style="fill:#E3E3E3" xlink:href="#path-main" />



</svg>
