<?xml version='1.0' encoding='UTF-8' standalone='no'?>
<!-- Created with Inkscape (http://www.inkscape.org/) -->

<svg xmlns:cc='http://creativecommons.org/ns#' xmlns:dc='http://purl.org/dc/elements/1.1/' sodipodi:docname='weather-storm-symbolic.svg' height='16' id='svg7384' xmlns:inkscape='http://www.inkscape.org/namespaces/inkscape' xmlns:rdf='http://www.w3.org/1999/02/22-rdf-syntax-ns#' xmlns:sodipodi='http://sodipodi.sourceforge.net/DTD/sodipodi-0.dtd' xmlns:svg='http://www.w3.org/2000/svg' inkscape:version='0.48.4 r9939' version='1.1' width='16' xmlns='http://www.w3.org/2000/svg'>
  <metadata id='metadata90'>
    <rdf:RDF>
      <cc:Work rdf:about=''>
        <dc:format>image/svg+xml</dc:format>
        <dc:type rdf:resource='http://purl.org/dc/dcmitype/StillImage'/>
        <dc:title>Gnome Symbolic Icon Theme</dc:title>
      </cc:Work>
    </rdf:RDF>
  </metadata>
  <sodipodi:namedview inkscape:bbox-nodes='false' inkscape:bbox-paths='true' bordercolor='#666666' borderopacity='1' inkscape:current-layer='layer9' inkscape:cx='-108.71599' inkscape:cy='-361.9103' gridtolerance='10' inkscape:guide-bbox='true' guidetolerance='10' id='namedview88' inkscape:object-nodes='false' inkscape:object-paths='false' objecttolerance='10' pagecolor='#3a3b39' inkscape:pageopacity='1' inkscape:pageshadow='2' showborder='false' showgrid='false' showguides='true' inkscape:snap-bbox='true' inkscape:snap-bbox-midpoints='false' inkscape:snap-global='true' inkscape:snap-grids='true' inkscape:snap-nodes='true' inkscape:snap-others='false' inkscape:snap-to-guides='true' inkscape:window-height='702' inkscape:window-maximized='1' inkscape:window-width='1366' inkscape:window-x='0' inkscape:window-y='27' inkscape:zoom='1'>
    <inkscape:grid empspacing='2' enabled='true' id='grid4866' originx='-139.9998px' originy='60px' snapvisiblegridlinesonly='true' spacingx='1px' spacingy='1px' type='xygrid' visible='true'/>
    <inkscape:grid color='#000000' empcolor='#000000' empopacity='0' empspacing='4' enabled='true' id='grid5968' opacity='0.1254902' originx='-139.9998px' originy='60px' snapvisiblegridlinesonly='true' spacingx='0.5px' spacingy='0.5px' type='xygrid' visible='true'/>
  </sodipodi:namedview>
  <title id='title9167'>Gnome Symbolic Icon Theme</title>
  <defs id='defs7386'/>
  <g inkscape:groupmode='layer' id='layer9' inkscape:label='status' style='display:inline' transform='translate(-381,-277)'>

    <path inkscape:connector-curvature='0' d='m 390.50955,277.04355 c -1.27301,0 -2.30704,0.9731 -2.44802,2.21895 -0.32401,-0.12209 -0.65635,-0.21877 -1.02258,-0.21877 -1.64294,0 -2.97481,1.34328 -2.97481,3.00028 0,0.0982 0.0219,0.18552 0.0309,0.28128 -0.29709,-0.17926 -0.65102,-0.28128 -1.02251,-0.28128 -1.0953,0 -1.98321,0.89552 -1.98321,2.00019 0,1.10467 0.81558,1.9558 1.91088,1.9558 l 5,0 0,-1.5 c -0.0163,-0.7855 0.73891,-1.47087 1.51774,-1.48715 0.79948,-0.0169 1.49901,0.68082 1.48226,1.48715 l 0,1.5 4.5,0 c 0.82146,0 1.45475,-0.62724 1.45475,-1.45575 0,-0.82851 -0.66593,-1.50014 -1.48739,-1.50014 -0.20538,0 -0.41082,0.0491 -0.58878,0.12501 0.0521,-0.20196 0.0929,-0.40662 0.0929,-0.62506 0,-1.22947 -0.88584,-2.2284 -2.04518,-2.43773 0.0416,-0.18137 0.062,-0.36846 0.062,-0.56255 0,-1.38084 -1.1099,-2.50023 -2.47901,-2.50023 z' id='path5094-5-04-4-6-4-1-4' sodipodi:nodetypes='ccsscssccccccssscscssc' style='color:#000000;fill:#E3E3E3;fill-opacity:1;stroke:none;stroke-width:2.40000033;marker:none;visibility:visible;display:inline;overflow:visible;enable-background:accumulate'/>
    <path inkscape:connector-curvature='0' d='M 389.40625,284 A 0.49935348,0.49935348 0 0 0 389,284.5 l 0,2.5 -2.5,0 -0.5,0 0,0.5 0,0.5 -1.5,0 -0.21875,0 -0.125,0.15625 -2.5,2.5 a 0.49935348,0.49935348 0 1 0 0.6875,0.6875 L 384.6875,289 386,289 l 0,3 a 0.5,0.5 0 0 0 1,0 l 0,-3.375 a 0.49935348,0.49935348 0 0 0 0,-0.21875 L 387,288 l 2,0 0,0.5 0,0.21875 0.15625,0.125 L 391,290.6875 391,292 a 0.5,0.5 0 0 0 1,0 l 0,-1 1.34375,0 2.40625,1.4375 a 0.50389111,0.50389111 0 1 0 0.5,-0.875 l -2.5,-1.5 -0.125,-0.0625 -0.125,0 -1.8125,0 -1.6875,-1.6875 0,-0.6875 a 0.49935348,0.49935348 0 0 0 0,-0.21875 L 390,284.5 a 0.49935348,0.49935348 0 0 0 -0.59375,-0.5 z' id='path1891-5-8-3' style='font-size:medium;font-style:normal;font-variant:normal;font-weight:normal;font-stretch:normal;text-indent:0;text-align:start;text-decoration:none;line-height:normal;letter-spacing:normal;word-spacing:normal;text-transform:none;direction:ltr;block-progression:tb;writing-mode:lr-tb;text-anchor:start;baseline-shift:baseline;color:#000000;fill:#E3E3E3;fill-opacity:1;stroke:none;stroke-width:0.9986071px;marker:none;visibility:visible;display:inline;overflow:visible;enable-background:new;font-family:Sans;-inkscape-font-specification:Sans'/>
  </g>
  <g inkscape:groupmode='layer' id='layer10' inkscape:label='devices' style='display:inline' transform='translate(-381,-277)'/>
  <g inkscape:groupmode='layer' id='layer11' inkscape:label='apps' transform='translate(-381,-277)'/>
  <g inkscape:groupmode='layer' id='layer13' inkscape:label='places' style='display:inline' transform='translate(-381,-277)'/>
  <g inkscape:groupmode='layer' id='layer14' inkscape:label='mimetypes' transform='translate(-381,-277)'/>
  <g inkscape:groupmode='layer' id='layer15' inkscape:label='emblems' style='display:inline' transform='translate(-381,-277)'/>
  <g inkscape:groupmode='layer' id='g71291' inkscape:label='emotes' style='display:inline' transform='translate(-381,-277)'/>
  <g inkscape:groupmode='layer' id='g4953' inkscape:label='categories' style='display:inline' transform='translate(-381,-277)'/>
  <g inkscape:groupmode='layer' id='layer12' inkscape:label='actions' style='display:inline' transform='translate(-381,-277)'/>
</svg>
