<?xml version="1.0" encoding="UTF-8" standalone="no"?>
<svg
   xmlns:dc="http://purl.org/dc/elements/1.1/"
   xmlns:cc="http://creativecommons.org/ns#"
   xmlns:rdf="http://www.w3.org/1999/02/22-rdf-syntax-ns#"
   xmlns:svg="http://www.w3.org/2000/svg"
   xmlns="http://www.w3.org/2000/svg"
   xmlns:sodipodi="http://sodipodi.sourceforge.net/DTD/sodipodi-0.dtd"
   xmlns:inkscape="http://www.inkscape.org/namespaces/inkscape"
   height="512"
   viewBox="0 0 512 512"
   width="512"
   version="1.1"
   id="svg2"
   inkscape:version="0.91 r13725"
   sodipodi:docname="applications-interfacedesign.svg">
  <defs
     id="defs17" />
  <sodipodi:namedview
     pagecolor="#bdbbbb"
     bordercolor="#666666"
     borderopacity="1"
     objecttolerance="10"
     gridtolerance="10"
     guidetolerance="10"
     inkscape:pageopacity="0"
     inkscape:pageshadow="2"
     inkscape:window-width="1680"
     inkscape:window-height="1019"
     id="namedview15"
     showgrid="false"
     inkscape:zoom="0.73779786"
     inkscape:cx="557.21672"
     inkscape:cy="371.71594"
     inkscape:window-x="1680"
     inkscape:window-y="0"
     inkscape:window-maximized="1"
     inkscape:current-layer="svg2" />
  <metadata
     id="metadata28">
    <rdf:RDF>
      <cc:Work
         rdf:about="">
        <dc:format>image/svg+xml</dc:format>
        <dc:type
           rdf:resource="http://purl.org/dc/dcmitype/StillImage" />
        <dc:title></dc:title>
      </cc:Work>
    </rdf:RDF>
  </metadata>
  <path
     style="fill:none;fill-opacity:1;stroke:#E3E3E3;stroke-width:18.38797569;stroke-linecap:round;stroke-miterlimit:4;stroke-dasharray:none;stroke-opacity:1"
     d="M 93.849609 88.794922 C 91.58559 88.794922 89.771484 90.610981 89.771484 92.875 L 89.771484 415.69922 C 89.771484 417.96324 91.58559 419.7793 93.849609 419.7793 L 416.67383 419.7793 C 418.93785 419.7793 420.75391 417.96324 420.75391 415.69922 L 420.75391 92.875 C 420.75391 90.610981 418.93785 88.794922 416.67383 88.794922 L 93.849609 88.794922 z M 140.33789 314.04883 L 195.50195 314.04883 L 195.50195 369.21289 L 140.33789 369.21289 L 140.33789 314.04883 z "
     id="path4" />
  <path
     d="m 152.88741,139.36234 204.78459,0 c 6.95295,0 12.50382,5.0567 12.50382,11.40055 l 0,23.21482 c 0,6.33236 -5.56236,11.40054 -12.50382,11.40054 l -204.78459,0 c -6.95296,0 -12.5498,-5.05669 -12.5498,-11.40054 l 0,-23.21482 c 0,-6.33236 5.60833,-11.40055 12.5498,-11.40055 z"
     style="fill:none;fill-opacity:1;stroke:#E3E3E3;stroke-width:9.19398785;stroke-linecap:round;stroke-linejoin:round;stroke-miterlimit:4;stroke-dasharray:none;stroke-opacity:1"
     id="path10"
     inkscape:connector-curvature="0" />
  <path
     d="m 356.39633,258.88419 c 0,7.58504 -6.15997,13.79098 -13.81397,13.79098 -7.60802,0 -13.76799,-6.20594 -13.76799,-13.79098 0,-7.58504 6.15997,-13.79098 13.76799,-13.79098 7.654,0 13.81397,6.20594 13.81397,13.79098"
     style="fill:none;fill-opacity:1;fill-rule:evenodd;stroke:#E3E3E3;stroke-width:11.49248505;stroke-opacity:1"
     id="path12-2"
     inkscape:connector-curvature="0" />
  <path
     d="m 296.63541,139.36234 0,45.96994 57.41645,0 c 8.99862,0 16.13545,-6.29788 16.13545,-14.18172 l 0,-17.50306 c 0,-7.88384 -7.13683,-14.29665 -16.13545,-14.29665 z"
     style="fill:none;fill-opacity:1;stroke:#E3E3E3;stroke-width:9.19398785;stroke-linecap:round;stroke-linejoin:round;stroke-miterlimit:4;stroke-dasharray:none;stroke-opacity:1"
     id="path14-9"
     inkscape:connector-curvature="0" />
  <path
     d="m 370.18731,341.6071 c 0,15.25052 -12.35442,27.60494 -27.60495,27.60494 -15.20455,0 -27.55898,-12.35442 -27.55898,-27.60494 0,-15.20456 12.35443,-27.55898 27.55898,-27.55898 15.25053,0 27.60495,12.35442 27.60495,27.55898"
     style="fill:none;fill-opacity:1;stroke:#E3E3E3;stroke-width:9.19398785;stroke-linecap:round;stroke-linejoin:round;stroke-miterlimit:4;stroke-dasharray:none;stroke-opacity:1"
     id="path18"
     inkscape:connector-curvature="0" />
  <path
     d="m 154.12859,245.09321 9.19399,0 0,9.19398 -9.19399,0 z"
     style="fill:#746053;fill-opacity:1;stroke:#E3E3E3;stroke-width:11.49248505;stroke-opacity:1"
     id="path20"
     inkscape:connector-curvature="0" />
  <path
     d="m 154.12859,263.48118 9.19399,0 0,9.19399 -9.19399,0 z"
     style="fill:#746053;fill-opacity:1;stroke:#E3E3E3;stroke-width:11.49248505;stroke-opacity:1"
     id="path22"
     inkscape:connector-curvature="0" />
  <path
     d="m 172.51657,263.48118 9.19399,0 0,9.19399 -9.19399,0 z"
     style="fill:#746053;fill-opacity:1;stroke:#E3E3E3;stroke-width:11.49248505;stroke-opacity:1"
     id="path24"
     inkscape:connector-curvature="0" />
  <path
     d="m 172.51657,245.09321 9.19399,0 0,9.19398 -9.19399,0 z"
     style="fill:#746053;fill-opacity:1;stroke:#E3E3E3;stroke-width:11.49248505;stroke-opacity:1"
     id="path26"
     inkscape:connector-curvature="0" />
  <path
     d="m 163.32258,254.28719 9.19399,0 0,9.19399 -9.19399,0 z"
     style="fill:#746053;fill-opacity:1;stroke:#E3E3E3;stroke-width:11.49248505;stroke-opacity:1"
     id="path28"
     inkscape:connector-curvature="0" />
  <path
     d="m 319.62038,153.15333 9.19399,0 0,9.19398 -9.19399,0 z"
     style="fill:#746053;fill-opacity:1;stroke:#E3E3E3;stroke-width:11.49248505;stroke-opacity:1"
     id="path30"
     inkscape:connector-curvature="0" />
  <path
     d="m 338.00835,153.15333 9.19399,0 0,9.19398 -9.19399,0 z"
     style="fill:#746053;fill-opacity:1;stroke:#E3E3E3;stroke-width:11.49248505;stroke-opacity:1"
     id="path32"
     inkscape:connector-curvature="0" />
  <path
     d="m 328.81437,162.34731 9.19398,0 0,9.19399 -9.19398,0 z"
     style="fill:#746053;fill-opacity:1;stroke:#E3E3E3;stroke-width:11.49248505;stroke-opacity:1"
     id="path34"
     inkscape:connector-curvature="0" />
</svg>
