<?xml version="1.0" encoding="UTF-8" standalone="no"?>
<svg
   xmlns:dc="http://purl.org/dc/elements/1.1/"
   xmlns:cc="http://creativecommons.org/ns#"
   xmlns:rdf="http://www.w3.org/1999/02/22-rdf-syntax-ns#"
   xmlns:svg="http://www.w3.org/2000/svg"
   xmlns="http://www.w3.org/2000/svg"
   xmlns:sodipodi="http://sodipodi.sourceforge.net/DTD/sodipodi-0.dtd"
   xmlns:inkscape="http://www.inkscape.org/namespaces/inkscape"
   version="1.1"
   width="512"
   height="512"
   viewBox="0 0 512 512"
   id="svg2"
   inkscape:version="0.91 r"
   sodipodi:docname="applications-education-miscellaneous.svg">
  <defs
     id="defs40" />
  <sodipodi:namedview
     pagecolor="#ffffff"
     bordercolor="#666666"
     borderopacity="1"
     objecttolerance="10"
     gridtolerance="10"
     guidetolerance="10"
     inkscape:pageopacity="0"
     inkscape:pageshadow="2"
     inkscape:window-width="640"
     inkscape:window-height="480"
     id="namedview38"
     showgrid="false"
     inkscape:zoom="0.4609375"
     inkscape:cx="256"
     inkscape:cy="256"
     inkscape:window-x="0"
     inkscape:window-y="0"
     inkscape:window-maximized="0"
     inkscape:current-layer="svg2" />
  <metadata
     id="metadata74">
    <rdf:RDF>
      <cc:Work
         rdf:about="">
        <dc:format>image/svg+xml</dc:format>
        <dc:type
           rdf:resource="http://purl.org/dc/dcmitype/StillImage" />
      </cc:Work>
    </rdf:RDF>
  </metadata>
  <text
     style="font-size:129.22999573px;line-height:125%;font-family:'Gentium Book Basic';letter-spacing:0;word-spacing:0"
     sodipodi:linespacing="125%"
     font-size="129.23"
     letter-spacing="0"
     line-height="125%"
     word-spacing="0"
     id="text22"
     y="231.35997"
     x="729.64001">
    <tspan
       id="tspan24"
       y="231.35997"
       x="729.64001" />
  </text>
  <text
     style="font-size:46.95399857px;font-family:Arial;text-anchor:middle"
     font-size="46.954"
     id="text26"
     transform="scale(4.0128205,0.24920128)"
     y="579.25812"
     x="378.90805" />
  <text
     style="font-size:129.22999573px;line-height:125%;font-family:'Gentium Book Basic';letter-spacing:0;word-spacing:0"
     sodipodi:linespacing="125%"
     font-size="129.23"
     letter-spacing="0"
     line-height="125%"
     word-spacing="0"
     id="text28"
     y="151.35997"
     x="1310.91">
    <tspan
       id="tspan30"
       y="151.35997"
       x="1310.91" />
  </text>
  <text
     style="font-size:46.95399857px;font-family:Arial;text-anchor:middle"
     font-size="46.954"
     id="text32"
     transform="scale(4.0128205,0.24920128)"
     y="258.21997"
     x="523.75732" />
  <text
     style="font-size:129.22999573px;line-height:125%;font-family:'Gentium Book Basic';letter-spacing:0;word-spacing:0"
     sodipodi:linespacing="125%"
     font-size="129.23"
     letter-spacing="0"
     line-height="125%"
     word-spacing="0"
     id="text34"
     y="-29.900009"
     x="239.33">
    <tspan
       id="tspan36"
       y="-29.900009"
       x="239.33" />
  </text>
  <text
     style="font-size:46.95399857px;font-family:Arial;text-anchor:middle"
     font-size="46.954"
     id="text38"
     transform="scale(4.0128205,0.24920128)"
     y="-469.1264"
     x="256.71869" />
  <text
     style="font-size:129.22999573px;line-height:125%;font-family:'Gentium Book Basic';letter-spacing:0;word-spacing:0"
     sodipodi:linespacing="125%"
     font-size="129.23"
     letter-spacing="0"
     line-height="125%"
     word-spacing="0"
     id="text40"
     y="-246.37001"
     x="1337.38">
    <tspan
       id="tspan42"
       y="-246.37001"
       x="1337.38" />
  </text>
  <text
     style="font-size:46.95399857px;font-family:Arial;text-anchor:middle"
     font-size="46.954"
     id="text44"
     transform="scale(4.0128205,0.24920128)"
     y="-1337.802"
     x="530.3573" />
  <text
     style="font-size:129.22999573px;line-height:125%;font-family:'Gentium Book Basic';letter-spacing:0;word-spacing:0"
     sodipodi:linespacing="125%"
     font-size="129.23"
     letter-spacing="0"
     line-height="125%"
     word-spacing="0"
     id="text46"
     y="-326.37"
     x="1918.65">
    <tspan
       id="tspan48"
       y="-326.37"
       x="1918.65" />
  </text>
  <text
     style="font-size:46.95399857px;font-family:Arial;text-anchor:middle"
     font-size="46.954"
     id="text50"
     transform="scale(4.0128205,0.24920128)"
     y="-1658.8303"
     x="675.20654" />
  <text
     style="font-size:129.22999573px;line-height:125%;font-family:'Gentium Book Basic';letter-spacing:0;word-spacing:0"
     sodipodi:linespacing="125%"
     font-size="129.23"
     letter-spacing="0"
     line-height="125%"
     word-spacing="0"
     id="text52"
     y="-798.77002"
     x="1529.53">
    <tspan
       id="tspan54"
       y="-798.77002"
       x="1529.53" />
  </text>
  <text
     style="font-size:46.95399857px;font-family:Arial;text-anchor:middle"
     font-size="46.954"
     id="text56"
     transform="scale(4.0128205,0.24920128)"
     y="-3554.4807"
     x="578.237" />
  <text
     style="font-size:129.22999573px;line-height:125%;font-family:'Gentium Book Basic';letter-spacing:0;word-spacing:0"
     sodipodi:linespacing="125%"
     font-size="129.23"
     letter-spacing="0"
     line-height="125%"
     word-spacing="0"
     id="text58"
     y="-878.78003"
     x="2110.79">
    <tspan
       id="tspan60"
       y="-878.78003"
       x="2110.79" />
  </text>
  <text
     style="font-size:46.95399857px;font-family:Arial;text-anchor:middle"
     font-size="46.954"
     id="text62"
     transform="scale(4.0128205,0.24920128)"
     y="-3875.519"
     x="723.0863" />
  <text
     style="font-size:208.33000183px;line-height:125%;font-family:'Gentium Book Basic';letter-spacing:0;word-spacing:0"
     sodipodi:linespacing="125%"
     font-size="208.33"
     letter-spacing="0"
     line-height="125%"
     word-spacing="0"
     id="text64"
     y="535.94006"
     x="277.98999">
    <tspan
       id="tspan66"
       y="535.94006"
       x="277.98999" />
  </text>
  <path
     style="fill:#E3E3E3;fill-rule:evenodd"
     id="path68"
     inkscape:connector-curvature="0"
     d="m 250.27168,76.307119 -21.78167,55.258061 -8.33601,-26.21744 -13.51185,34.28508 -9.24337,-4.77272 -6.78963,-10.58757 -0.77259,6.68854 -35.79655,-18.48675 25.00801,57.51084 -55.12448,-28.46901 22.251,51.12435 -39.15887,-8.53697 14.85606,18.65522 -10.31922,3.29373 18.8225,7.42863 3.86534,4.80641 -52.804309,16.80558 42.179429,16.60462 -22.85632,0.97476 18.7888,14.01608 -29.343884,18.8225 48.232564,5.47911 -20.8394,40.3346 24.20052,-10.52018 -31.45707,34.21768 44.16625,-6.42018 -3.76426,17.30981 -3.83164,4.1674 40.16612,-5.84856 2.38636,56.4013 34.02032,-45.57785 2.55484,60.63969 36.06611,-48.32884 0.50423,11.76451 6.62115,-8.84023 22.58795,20.77202 -3.12645,-21.41103 39.69559,36.47528 -11.02441,-75.8989 4.60544,-0.20217 42.99052,39.52832 -5.98334,-41.07229 3.29373,-0.13478 4.30218,2.21787 -1.04215,-2.35266 28.469,-1.21544 -39.49462,-29.47746 -0.57162,-3.86534 76.63298,-3.22634 -56.63235,-42.25163 35.12746,-11.19289 -24.23662,-9.54543 36.19849,-39.35984 -42.85574,6.218 -27.36067,-10.75605 22.11742,-42.78835 -29.74702,12.94024 -1.31051,-31.22601 -33.20923,44.46951 35.22373,-68.13693 -51.92702,22.58796 0.0674,-0.30206 -0.7389,0.60532 -3.96643,1.71365 -8.00025,-25.14159 -8.67175,22.01634 -20.36887,-63.961098" />
</svg>
