<?xml version="1.0" encoding="UTF-8" standalone="no"?>
<svg
   xmlns:dc="http://purl.org/dc/elements/1.1/"
   xmlns:cc="http://creativecommons.org/ns#"
   xmlns:rdf="http://www.w3.org/1999/02/22-rdf-syntax-ns#"
   xmlns:svg="http://www.w3.org/2000/svg"
   xmlns="http://www.w3.org/2000/svg"
   xmlns:sodipodi="http://sodipodi.sourceforge.net/DTD/sodipodi-0.dtd"
   xmlns:inkscape="http://www.inkscape.org/namespaces/inkscape"
   version="1.1"
   width="512"
   height="512"
   viewBox="0 0 512 512"
   id="svg2"
   inkscape:version="0.91 r"
   sodipodi:docname="applications-toys.svg">
  <defs
     id="defs53" />
  <sodipodi:namedview
     pagecolor="#ffffff"
     bordercolor="#666666"
     borderopacity="1"
     objecttolerance="10"
     gridtolerance="10"
     guidetolerance="10"
     inkscape:pageopacity="0"
     inkscape:pageshadow="2"
     inkscape:window-width="647"
     inkscape:window-height="480"
     id="namedview51"
     showgrid="false"
     inkscape:zoom="0.4609375"
     inkscape:cx="256"
     inkscape:cy="256"
     inkscape:window-x="0"
     inkscape:window-y="0"
     inkscape:window-maximized="0"
     inkscape:current-layer="svg2" />
  <metadata
     id="metadata102">
    <rdf:RDF>
      <cc:Work
         rdf:about="">
        <dc:format>image/svg+xml</dc:format>
        <dc:type
           rdf:resource="http://purl.org/dc/dcmitype/StillImage" />
      </cc:Work>
    </rdf:RDF>
  </metadata>
  <g
     id="g4"
     font-family="Gentium Book Basic"
     word-spacing="0"
     line-height="125%"
     letter-spacing="0"
     font-size="208.33">
    <text
       x="478.8"
       y="89.28"
       id="text6">
      <tspan
         x="478.8"
         y="89.28"
         id="tspan8" />
    </text>
    <text
       x="-1880.03"
       y="367.4"
       id="text10">
      <tspan
         x="-1880.03"
         y="367.4"
         id="tspan12" />
    </text>
    <text
       x="-1591.81"
       y="140.11"
       id="text14">
      <tspan
         x="-1591.81"
         y="140.11"
         id="tspan16" />
    </text>
    <text
       x="2602.79"
       y="-116.79"
       id="text18">
      <tspan
         x="2602.79"
         y="-116.79"
         id="tspan20" />
    </text>
    <text
       x="474.85"
       y="28.25"
       id="text22">
      <tspan
         x="474.85"
         y="28.25"
         id="tspan24" />
    </text>
    <text
       x="-1883.98"
       y="306.36"
       id="text26">
      <tspan
         x="-1883.98"
         y="306.36"
         id="tspan28" />
    </text>
    <text
       x="-1595.76"
       y="79.08"
       id="text30">
      <tspan
         x="-1595.76"
         y="79.08"
         id="tspan32" />
    </text>
  </g>
  <text
     x="729.64"
     y="231.36"
     id="text50"
     font-family="Gentium Book Basic"
     word-spacing="0"
     line-height="125%"
     letter-spacing="0"
     font-size="129.23">
    <tspan
       x="729.64"
       y="231.36"
       id="tspan52" />
  </text>
  <text
     x="378.91"
     y="579.25"
     transform="scale(4.0128,0.2492)"
     id="text54"
     font-family="Arial"
     text-anchor="middle"
     font-size="46.954" />
  <text
     x="1310.91"
     y="151.36"
     id="text56"
     font-family="Gentium Book Basic"
     word-spacing="0"
     line-height="125%"
     letter-spacing="0"
     font-size="129.23">
    <tspan
       x="1310.91"
       y="151.36"
       id="tspan58" />
  </text>
  <text
     x="523.76"
     y="258.22"
     transform="scale(4.0128,0.2492)"
     id="text60"
     font-family="Arial"
     text-anchor="middle"
     font-size="46.954" />
  <text
     x="239.33"
     y="-29.901"
     id="text62"
     font-family="Gentium Book Basic"
     word-spacing="0"
     line-height="125%"
     letter-spacing="0"
     font-size="129.23">
    <tspan
       x="239.33"
       y="-29.901"
       id="tspan64" />
  </text>
  <text
     x="256.72"
     y="-469.14"
     transform="scale(4.0128,0.2492)"
     id="text66"
     font-family="Arial"
     text-anchor="middle"
     font-size="46.954" />
  <text
     x="1337.38"
     y="-246.37"
     id="text68"
     font-family="Gentium Book Basic"
     word-spacing="0"
     line-height="125%"
     letter-spacing="0"
     font-size="129.23">
    <tspan
       x="1337.38"
       y="-246.37"
       id="tspan70" />
  </text>
  <text
     x="530.36"
     y="-1337.81"
     transform="scale(4.0128,0.2492)"
     id="text72"
     font-family="Arial"
     text-anchor="middle"
     font-size="46.954" />
  <text
     x="1918.65"
     y="-326.38"
     id="text74"
     font-family="Gentium Book Basic"
     word-spacing="0"
     line-height="125%"
     letter-spacing="0"
     font-size="129.23">
    <tspan
       x="1918.65"
       y="-326.38"
       id="tspan76" />
  </text>
  <text
     x="675.21"
     y="-1658.85"
     transform="scale(4.0128,0.2492)"
     id="text78"
     font-family="Arial"
     text-anchor="middle"
     font-size="46.954" />
  <text
     x="1529.53"
     y="-798.78"
     id="text80"
     font-family="Gentium Book Basic"
     word-spacing="0"
     line-height="125%"
     letter-spacing="0"
     font-size="129.23">
    <tspan
       x="1529.53"
       y="-798.78"
       id="tspan82" />
  </text>
  <text
     x="578.24"
     y="-3554.51"
     transform="scale(4.0128,0.2492)"
     id="text84"
     font-family="Arial"
     text-anchor="middle"
     font-size="46.954" />
  <text
     x="2110.79"
     y="-878.78"
     id="text86"
     font-family="Gentium Book Basic"
     word-spacing="0"
     line-height="125%"
     letter-spacing="0"
     font-size="129.23">
    <tspan
       x="2110.79"
       y="-878.78"
       id="tspan88" />
  </text>
  <text
     x="723.09"
     y="-3875.54"
     transform="scale(4.0128,0.2492)"
     id="text90"
     font-family="Arial"
     text-anchor="middle"
     font-size="46.954" />
  <text
     x="277.99"
     y="535.94"
     id="text92"
     font-family="Gentium Book Basic"
     word-spacing="0"
     line-height="125%"
     letter-spacing="0"
     font-size="208.33">
    <tspan
       x="277.99"
       y="535.94"
       id="tspan94" />
  </text>
  <path
     d="m 27.189143,200.93537 3.434089,15.78276 11.047925,-2.40387 11.217066,51.55624 18.312921,84.17059 20.977256,-4.56402 c -0.991086,4.60037 -1.054985,9.47705 0.01145,14.3756 3.996183,18.36668 22.127952,30.01616 40.493642,26.02271 18.36667,-3.99619 30.01616,-22.12796 26.0227,-40.49364 -1.06501,-4.89743 -3.13434,-9.31066 -5.94602,-13.08302 l 18.85687,-4.10209 c -0.99109,4.60039 -1.05499,9.47706 0.0114,14.37562 3.99618,18.36667 22.12795,30.01616 40.49364,26.02269 18.36667,-3.99618 30.01615,-22.12795 26.0227,-40.49364 -1.065,-4.89742 -3.13433,-9.31064 -5.94603,-13.08301 l 24.11726,-5.24759 c -0.99108,4.60039 -1.05498,9.47706 0.0115,14.37562 3.99618,18.36667 22.12795,30.01616 40.49364,26.02269 18.36666,-3.99618 30.01615,-22.12795 26.02269,-40.49364 -1.06499,-4.89742 -3.13432,-9.31064 -5.94602,-13.08301 l 24.11726,-5.24759 c -0.99109,4.60039 -1.05499,9.47706 0.0115,14.37562 3.99619,18.36666 22.12796,30.01616 40.49365,26.02269 18.36666,-3.99618 30.01615,-22.12795 26.02269,-40.49364 -1.065,-4.89742 -3.13433,-9.31065 -5.94602,-13.08301 l 11.95202,-2.60017 7.49687,34.46063 60.49904,-13.16209 -73.30229,-46.32437 -12.87258,-59.16835 -10.76867,2.34233 -4.84946,-42.46871 6.05025,-1.31665 -4.12091,-18.93929 -62.67405,13.63566 4.12091,18.9393 10.78507,-2.34686 12.70834,40.76331 -72.12345,15.69113 c -0.11301,-0.92562 -0.26677,-1.85687 -0.46918,-2.7902 -2.95506,-13.58363 -14.53723,-22.5963 -25.86312,-20.13106 -11.33104,2.46585 -18.12196,15.47545 -15.16704,29.0578 0.20377,0.93448 0.45156,1.84423 0.73204,2.7332 l -24.85763,5.40769 c -3.60001,-8.731 -8.97521,-14.30077 -13.63516,-13.28717 -4.65996,1.0136 -7.23604,8.31136 -6.88227,17.75277 l -18.67644,4.06392 -11.21707,-51.55624 11.04793,-2.40386 -3.43409,-15.78275 -138.883376,30.2168"
     inkscape:connector-curvature="0"
     id="path96"
     style="fill:#E3E3E3;fill-rule:evenodd" />
</svg>
