<?xml version="1.0" encoding="UTF-8" standalone="no"?>
<svg
   xmlns:dc="http://purl.org/dc/elements/1.1/"
   xmlns:cc="http://creativecommons.org/ns#"
   xmlns:rdf="http://www.w3.org/1999/02/22-rdf-syntax-ns#"
   xmlns:svg="http://www.w3.org/2000/svg"
   xmlns="http://www.w3.org/2000/svg"
   xmlns:sodipodi="http://sodipodi.sourceforge.net/DTD/sodipodi-0.dtd"
   xmlns:inkscape="http://www.inkscape.org/namespaces/inkscape"
   height="512"
   viewBox="0 0 512 512"
   width="512"
   version="1.1"
   id="svg2"
   inkscape:version="0.91 r"
   sodipodi:docname="share.svg">
  <defs
     id="defs15" />
  <sodipodi:namedview
     pagecolor="#ffffff"
     bordercolor="#666666"
     borderopacity="1"
     objecttolerance="10"
     gridtolerance="10"
     guidetolerance="10"
     inkscape:pageopacity="0"
     inkscape:pageshadow="2"
     inkscape:window-width="640"
     inkscape:window-height="480"
     id="namedview13"
     showgrid="false"
     inkscape:zoom="0.4609375"
     inkscape:cx="256"
     inkscape:cy="256"
     inkscape:window-x="0"
     inkscape:window-y="0"
     inkscape:window-maximized="0"
     inkscape:current-layer="svg2" />
  <metadata
     id="metadata26">
    <rdf:RDF>
      <cc:Work
         rdf:about="">
        <dc:format>image/svg+xml</dc:format>
        <dc:type
           rdf:resource="http://purl.org/dc/dcmitype/StillImage" />
      </cc:Work>
    </rdf:RDF>
  </metadata>
  <path
     style="fill:#E3E3E3;fill-rule:evenodd"
     inkscape:connector-curvature="0"
     d="m 157.57651,38.796036 c -4.54338,0.0027 -9.12721,1.127405 -13.39857,3.434844 -13.6678,7.383531 -18.72732,24.36385 -11.29079,37.93564 6.27452,11.449942 19.43874,16.815501 31.60836,13.776772 l 58.8812,107.643588 c -4.97722,3.74924 -9.33646,8.22978 -13.00102,13.26293 l -0.0405,0 -21.94688,-16.30305 c 4.65219,-11.53442 1.18989,-25.27657 -9.26392,-33.04098 -4.67312,-3.46947 -10.08555,-5.1495 -15.51194,-5.40849 -9.03375,-0.43213 -18.07029,3.32127 -23.89564,11.05244 -9.31972,12.37097 -6.77531,29.86652 5.68585,39.1129 10.5138,7.80735 24.69495,7.43201 34.47082,-0.31578 l 23.41717,17.32934 c -2.76341,6.5359 -4.43318,13.60642 -4.81122,21.03981 0.0726,-1.91687 0.21344,-3.83788 0.47709,-5.68412 L 73.563682,238.48652 c -2.780151,-12.08428 -13.493433,-21.28218 -26.560009,-21.71154 -15.550998,-0.51107 -28.588281,11.59954 -29.103021,27.03971 -0.514739,15.44017 11.682778,28.34439 27.233775,28.85546 13.063787,0.42936 24.369926,-8.02064 27.954969,-19.89578 l 125.560214,4.18275 c 1.0783,12.52056 5.87696,23.94419 13.27861,33.23766 l -90.60952,78.79228 c -10.35757,-7.01234 -24.563832,-6.48881 -34.430374,2.09277 -11.705096,10.17849 -12.876862,27.8527 -2.623917,39.47439 10.25155,11.62168 28.052621,12.7851 39.757721,2.60521 9.8484,-8.5594 12.22123,-22.41096 6.64,-33.51743 l 91.24423,-79.45847 c 9.79261,7.80181 21.98594,12.7671 35.34546,13.57871 -2.16358,-0.12187 -4.27415,-0.35871 -6.40147,-0.71051 l -0.83557,26.88181 c -12.29656,2.3296 -21.95665,12.63829 -22.82153,25.61868 -1.02808,15.41524 10.71468,28.74327 26.24057,29.76403 15.52589,1.02076 28.95097,-10.63832 29.97766,-26.05357 0.86627,-12.99424 -7.34167,-24.5162 -19.24345,-28.42195 l 0,-0.277 0.79512,-26.80287 c 7.41979,-0.43628 14.51455,-2.13154 21.03597,-4.89465 l 62.18167,103.81816 c -8.72686,8.86135 -10.72025,22.73092 -4.01608,33.86924 7.98195,13.26154 25.29059,17.59664 38.64454,9.67157 13.35672,-7.92507 17.68388,-25.11037 9.70054,-38.36915 -6.74183,-11.20479 -20.11949,-16.01911 -32.16774,-12.47901 L 298.11992,301.99929 c 5.59378,-4.01101 10.51102,-8.90844 14.51176,-14.48728 l 20.91322,14.52606 c -4.40529,11.68124 -0.48406,25.30289 10.29758,32.76398 12.76526,8.83503 30.30268,5.72566 39.19833,-6.95278 8.89844,-12.6743 5.76676,-30.12691 -7.00269,-38.96056 -10.71329,-7.41538 -24.79818,-6.38632 -34.31179,1.61909 L 319.5019,275.14795 c 2.42863,-5.85725 3.97842,-12.15353 4.49316,-18.75037 l 120.94291,4.3822 c 2.68669,12.15491 13.37207,21.465 26.47911,21.94837 15.54959,0.57339 28.60501,-11.48319 29.18253,-26.92198 0.57751,-15.4388 -11.52655,-28.40117 -27.07475,-28.97457 -13.07635,-0.48198 -24.41457,7.97493 -28.02472,19.85562 l -122.01702,-4.57887 c -1.95573,-12.75463 -7.79782,-24.25721 -16.30149,-33.28198 l 86.66877,-79.97648 c 10.5431,6.61347 24.66147,5.66611 34.23228,-3.15783 11.4024,-10.51229 12.05942,-28.233593 1.47169,-39.553344 -10.58774,-11.321135 -28.39577,-11.973479 -39.79817,-1.461193 -9.62103,8.869654 -11.62419,22.874957 -5.6454,33.830447 l -87.91028,80.96815 c 0.9374,0.62187 1.78694,1.26867 2.62392,1.93486 -8.45345,-6.28659 -18.53901,-10.50398 -29.50338,-11.92084 l 1.21362,-33.9191 c 12.15985,-2.72986 21.42377,-13.29616 21.90642,-26.25024 0.57473,-15.43879 -11.5656,-28.44272 -27.1152,-29.01335 -15.54961,-0.570628 -28.60781,11.48318 -29.18254,26.92197 -0.48265,12.9707 8.00986,24.23089 19.95908,27.82501 l -1.23175,34.18501 c -6.85204,0.67728 -13.38324,2.47781 -19.40249,5.17166 L 176.90506,87.113769 c 9.11327,-8.499854 11.7023,-22.340338 5.44731,-33.7515 -5.11252,-9.32948 -14.81446,-14.611938 -24.80934,-14.605013 M 301.50275,203.49128 c 0.14229,0.0817 0.27481,0.16759 0.39756,0.277 0.13113,0.11079 0.24551,0.25761 0.35712,0.39473 -0.25389,-0.21744 -0.498,-0.45706 -0.75468,-0.67173 m -40.35475,3.51379 c 24.72563,0 44.80607,19.97888 44.80607,44.52833 0,24.54943 -20.08182,44.52831 -44.80607,44.52831 -24.72564,0 -44.84792,-19.97888 -44.84792,-44.52831 0,-24.54945 20.12228,-44.52833 44.84792,-44.52833 m 0,13.10504 c -17.45931,0 -31.68788,14.08702 -31.68788,31.42189 0,17.33489 14.22718,31.42191 31.68788,31.42191 17.4593,0 31.64742,-14.08702 31.64742,-31.42191 0,-17.33487 -14.18812,-31.42189 -31.64742,-31.42189"
     id="path20" />
</svg>
