<?xml version="1.0" encoding="UTF-8" standalone="no"?>
<svg
   xmlns:dc="http://purl.org/dc/elements/1.1/"
   xmlns:cc="http://creativecommons.org/ns#"
   xmlns:rdf="http://www.w3.org/1999/02/22-rdf-syntax-ns#"
   xmlns:svg="http://www.w3.org/2000/svg"
   xmlns="http://www.w3.org/2000/svg"
   xmlns:sodipodi="http://sodipodi.sourceforge.net/DTD/sodipodi-0.dtd"
   xmlns:inkscape="http://www.inkscape.org/namespaces/inkscape"
   height="512"
   viewBox="0 0 512 512"
   width="512"
   version="1.1"
   id="svg2"
   inkscape:version="0.91 r13725"
   sodipodi:docname="applications-viewers.svg">
  <defs
     id="defs25" />
  <sodipodi:namedview
     pagecolor="#ffffff"
     bordercolor="#666666"
     borderopacity="1"
     objecttolerance="10"
     gridtolerance="10"
     guidetolerance="10"
     inkscape:pageopacity="0"
     inkscape:pageshadow="2"
     inkscape:window-width="1920"
     inkscape:window-height="1020"
     id="namedview23"
     showgrid="false"
     inkscape:zoom="1.5250549"
     inkscape:cx="256"
     inkscape:cy="256"
     inkscape:window-x="0"
     inkscape:window-y="0"
     inkscape:window-maximized="1"
     inkscape:current-layer="svg2" />
  <metadata
     id="metadata44">
    <rdf:RDF>
      <cc:Work
         rdf:about="">
        <dc:format>image/svg+xml</dc:format>
        <dc:type
           rdf:resource="http://purl.org/dc/dcmitype/StillImage" />
        <dc:title></dc:title>
      </cc:Work>
    </rdf:RDF>
  </metadata>
  <text
     id="text4"
     font-size="199.47"
     line-height="125%"
     y="537.03"
     x="-1100.21"
     font-family="Gentium Book Basic"
     word-spacing="0"
     letter-spacing="0">
    <tspan
       id="tspan6"
       y="537.03"
       x="-1100.21" />
  </text>
  <text
     id="text8"
     font-size="72.48"
     transform="scale(4.0128 .2492)"
     y="1616.07"
     x="30.03"
     font-family="Arial"
     text-anchor="middle" />
  <text
     id="text10"
     font-size="208.33"
     line-height="125%"
     y="336.71"
     x="-606.24"
     font-family="Gentium Book Basic"
     word-spacing="0"
     letter-spacing="0">
    <tspan
       id="tspan12"
       y="336.71"
       x="-606.24" />
  </text>
  <text
     id="text14"
     font-size="75.7"
     transform="scale(4.0128 .2492)"
     y="788.26"
     x="166.65"
     font-family="Arial"
     text-anchor="middle" />
  <g
     id="g32"
     transform="matrix(1.112653,0,0,1.112653,-28.89982,-28.910112)"
     style="fill:#E3E3E3">
    <path
       id="path34"
       d="m 231.64,166.58 c -13.904,3.726 -26.1,10.734 -36.19,19.842 l 16.668,19.14 c 7.309,-6.56 16.04,-11.546 26.14,-14.252 34.944,-9.363 70.62,11.931 80.19,47.669 9.576,35.737 -10.721,71.821 -45.665,81.18 -34.944,9.363 -70.75,-11.688 -80.33,-47.42 -2.239,-8.354 -2.819,-16.657 -1.971,-24.732 l -24.689,-3.737 c -1.321,11.393 -0.669,23.19 2.481,34.948 13.157,49.1 63.12,78.54 111.13,65.67 48.01,-12.865 76.37,-63.29 63.22,-112.39 -13.157,-49.1 -62.984,-78.78 -111,-65.918"
       inkscape:connector-curvature="0"
       style="color:#000000" />
    <path
       id="path36"
       d="m 242.62,207.53 c -7.53,2.02 -14.16,5.72 -19.621,10.641 l 29,33.433 5.797,6.522 -8.436,-1.26 -42.42,-6.44 c -0.579,5.904 -0.233,11.977 1.396,18.05 7.13,26.61 34.14,42.614 60.16,35.642 26.02,-6.972 41.41,-34.34 34.28,-60.949 -7.13,-26.61 -34.14,-42.614 -60.16,-35.642"
       inkscape:connector-curvature="0" />
    <path
       id="path38"
       d="m 214.34,123.77 c -68.04,19.15 -122.99,77.54 -138.53,160.4 -0.003,0.011 -0.014,0.019 -0.017,0.029 -0.059,0.314 -0.135,0.614 -0.192,0.929 -1.328,5.369 -2.48,10.827 -3.401,16.409 l -1.254,7.583 5.464,5.382 c 2.464,2.429 4.925,4.764 7.398,7.02 0.021,0.019 0.044,0.039 0.065,0.058 62.21,64.57 138.89,86.67 205.91,68.76 67.02,-17.913 123.17,-75.44 146.33,-163.32 0.073,-0.219 0.082,-0.246 0.027,-0.082 0.024,-0.071 0.041,-0.147 0.064,-0.218 0.058,-0.223 0.135,-0.43 0.193,-0.654 1.168,-3.529 2.294,-7.112 3.341,-10.776 l 2.393,-8.365 -6.137,-6.155 c -3.085,-3.094 -6.221,-6.05 -9.379,-8.922 -0.234,-0.242 -0.488,-0.443 -0.723,-0.684 -63.851,-65.61 -141.81,-85.66 -208.31,-68.27 -1.086,0.284 -2.169,0.566 -3.249,0.871 m 15.931,54.24 c 58.22,-15.779 125.14,-6.02 178.13,37.635 -51.781,128.12 -205.8,167.9 -305.42,83.52 16.1,-60.34 65.56,-103.5 124.53,-120.39 0.92,-0.263 1.838,-0.515 2.762,-0.765"
       inkscape:connector-curvature="0"
       style="color:#000000" />
  </g>
</svg>
