<?xml version="1.0" encoding="UTF-8" standalone="no"?>
<svg
   xmlns:dc="http://purl.org/dc/elements/1.1/"
   xmlns:cc="http://creativecommons.org/ns#"
   xmlns:rdf="http://www.w3.org/1999/02/22-rdf-syntax-ns#"
   xmlns:svg="http://www.w3.org/2000/svg"
   xmlns="http://www.w3.org/2000/svg"
   xmlns:sodipodi="http://sodipodi.sourceforge.net/DTD/sodipodi-0.dtd"
   xmlns:inkscape="http://www.inkscape.org/namespaces/inkscape"
   height="512"
   viewBox="0 0 512 512"
   width="512"
   version="1.1"
   id="svg2"
   inkscape:version="0.91 r13725"
   sodipodi:docname="face-wink.svg">
  <defs
     id="defs17" />
  <sodipodi:namedview
     pagecolor="#a49f9d"
     bordercolor="#666666"
     borderopacity="1"
     objecttolerance="10"
     gridtolerance="10"
     guidetolerance="10"
     inkscape:pageopacity="0"
     inkscape:pageshadow="2"
     inkscape:window-width="1680"
     inkscape:window-height="1019"
     id="namedview15"
     showgrid="false"
     inkscape:zoom="1.4738515"
     inkscape:cx="52.497315"
     inkscape:cy="360.98163"
     inkscape:window-x="1680"
     inkscape:window-y="0"
     inkscape:window-maximized="1"
     inkscape:current-layer="svg2" />
  <metadata
     id="metadata28">
    <rdf:RDF>
      <cc:Work
         rdf:about="">
        <dc:format>image/svg+xml</dc:format>
        <dc:type
           rdf:resource="http://purl.org/dc/dcmitype/StillImage" />
        <dc:title></dc:title>
      </cc:Work>
    </rdf:RDF>
  </metadata>
  <circle
     style="opacity:1;fill:none;fill-opacity:1;fill-rule:evenodd;stroke:#E3E3E3;stroke-width:11.6622715;stroke-linecap:square;stroke-linejoin:round;stroke-miterlimit:4;stroke-dasharray:none;stroke-dashoffset:0;stroke-opacity:1"
     id="path4143"
     cx="253.85304"
     cy="250.52751"
     r="170.29721" />
  <ellipse
     style="opacity:1;fill:#E3E3E3;fill-opacity:1;fill-rule:evenodd;stroke:#E3E3E3;stroke-width:11.6622715;stroke-linecap:square;stroke-linejoin:round;stroke-miterlimit:4;stroke-dasharray:none;stroke-dashoffset:0;stroke-opacity:1"
     id="path4145-3"
     cx="316.28452"
     cy="194.6319"
     rx="21.573158"
     ry="34.647797" />
  <path
     style="opacity:1;fill:#E3E3E3;fill-opacity:0;fill-rule:evenodd;stroke:#E3E3E3;stroke-width:7.46385384;stroke-linecap:butt;stroke-linejoin:miter;stroke-miterlimit:4;stroke-dasharray:none;stroke-opacity:1"
     d="m 158.0813,303.80669 c 90.66476,76.23048 138.79763,39.31397 194.15843,-1.96121"
     id="path4166"
     inkscape:connector-curvature="0"
     sodipodi:nodetypes="cc" />
  <path
     style="fill:#E3E3E3;fill-opacity:0;fill-rule:evenodd;stroke:#E3E3E3;stroke-width:9.56306267;stroke-linecap:round;stroke-linejoin:miter;stroke-miterlimit:4.30000019;stroke-dasharray:none;stroke-opacity:1"
     d="m 228.82044,197.91456 c -13.71238,-22.95179 -37.3112,-33.48819 -74.59668,-26.83682"
     id="path4148"
     inkscape:connector-curvature="0"
     sodipodi:nodetypes="cc" />
  <path
     style="fill:#E3E3E3;fill-opacity:0;fill-rule:evenodd;stroke:#E3E3E3;stroke-width:9.56306267;stroke-linecap:round;stroke-linejoin:miter;stroke-miterlimit:4.30000019;stroke-dasharray:none;stroke-opacity:1"
     d="m 228.8704,198.45571 c -22.8883,-13.8181 -48.67062,-12.03143 -78.45935,11.35832"
     id="path4148-3"
     inkscape:connector-curvature="0"
     sodipodi:nodetypes="cc" />
</svg>
