<?xml version="1.0" encoding="UTF-8" standalone="no"?>
<svg
   xmlns:dc="http://purl.org/dc/elements/1.1/"
   xmlns:cc="http://creativecommons.org/ns#"
   xmlns:rdf="http://www.w3.org/1999/02/22-rdf-syntax-ns#"
   xmlns:svg="http://www.w3.org/2000/svg"
   xmlns="http://www.w3.org/2000/svg"
   xmlns:sodipodi="http://sodipodi.sourceforge.net/DTD/sodipodi-0.dtd"
   xmlns:inkscape="http://www.inkscape.org/namespaces/inkscape"
   viewBox="0 0 512 512"
   version="1.1"
   id="svg2"
   inkscape:version="0.91 r"
   sodipodi:docname="preferences-tweaks-shadows.svg">
  <defs
     id="defs14" />
  <sodipodi:namedview
     pagecolor="#ffffff"
     bordercolor="#666666"
     borderopacity="1"
     objecttolerance="10"
     gridtolerance="10"
     guidetolerance="10"
     inkscape:pageopacity="0"
     inkscape:pageshadow="2"
     inkscape:window-width="647"
     inkscape:window-height="480"
     id="namedview12"
     showgrid="false"
     inkscape:zoom="0.4609375"
     inkscape:cx="263.59322"
     inkscape:cy="256"
     inkscape:window-x="0"
     inkscape:window-y="0"
     inkscape:window-maximized="0"
     inkscape:current-layer="svg2" />
  <metadata
     id="metadata1270">
    <rdf:RDF>
      <cc:Work
         rdf:about="">
        <dc:format>image/svg+xml</dc:format>
        <dc:type
           rdf:resource="http://purl.org/dc/dcmitype/StillImage" />
      </cc:Work>
    </rdf:RDF>
  </metadata>
  <path
     id="path1264"
     d="m 115.75008,86.133803 c -13.8665,0 -25.264487,11.489613 -25.264487,25.349367 l 0,270.61966 c 0,13.85841 11.397987,25.34937 25.264487,25.34937 l 269.15094,0 c 13.86649,0 25.30625,-11.48962 25.30625,-25.34937 l 0,-270.61966 c 0,-13.858407 -11.43976,-25.349367 -25.30625,-25.349367 l -269.15094,0 m 10.44265,77.941267 246.87777,0 0,206.15817 -246.87777,0 0,-206.15817 m 264.98735,219.47086 c -0.54302,2.72183 -2.63424,4.62846 -5.38975,4.96936 a 9.4415995,9.4415995 0 0 0 5.38975,-4.96868"
     inkscape:connector-curvature="0"
     style="color:#000000;fill:#E3E3E3" />
</svg>
