<?xml version="1.0" encoding="UTF-8" standalone="no"?>
<svg
   xmlns:dc="http://purl.org/dc/elements/1.1/"
   xmlns:cc="http://creativecommons.org/ns#"
   xmlns:rdf="http://www.w3.org/1999/02/22-rdf-syntax-ns#"
   xmlns:svg="http://www.w3.org/2000/svg"
   xmlns="http://www.w3.org/2000/svg"
   xmlns:sodipodi="http://sodipodi.sourceforge.net/DTD/sodipodi-0.dtd"
   xmlns:inkscape="http://www.inkscape.org/namespaces/inkscape"
   height="48"
   viewBox="0 0 512 512"
   width="48"
   version="1.1"
   id="svg2"
   inkscape:version="0.91 r13725"
   sodipodi:docname="calendar.svg">
  <sodipodi:namedview
     pagecolor="#ffffff"
     bordercolor="#666666"
     borderopacity="1"
     objecttolerance="10"
     gridtolerance="10"
     guidetolerance="10"
     inkscape:pageopacity="0"
     inkscape:pageshadow="2"
     inkscape:window-width="1920"
     inkscape:window-height="1020"
     id="namedview15"
     showgrid="false"
     inkscape:zoom="0.53918833"
     inkscape:cx="-171.12653"
     inkscape:cy="516.57169"
     inkscape:window-x="0"
     inkscape:window-y="0"
     inkscape:window-maximized="1"
     inkscape:current-layer="svg2" />
  <defs
     id="defs17" />
  <metadata
     id="metadata28">
    <rdf:RDF>
      <cc:Work
         rdf:about="">
        <dc:format>image/svg+xml</dc:format>
        <dc:type
           rdf:resource="http://purl.org/dc/dcmitype/StillImage" />
        <dc:title />
      </cc:Work>
    </rdf:RDF>
  </metadata>
  <path
     d="m 85.691455,87.230529 0,62.984811 335.765105,0 0,-62.984811 -335.765105,0 z m 84.864415,15.270211 c 8.94416,0 16.22668,7.20264 16.22668,16.14719 0,8.94416 -7.28277,16.22668 -16.22668,16.22668 -8.94416,0 -16.22668,-7.28278 -16.22668,-16.22668 0,-8.94417 7.28277,-16.14719 16.22668,-16.14719 z m 165.99782,0 c 8.94416,0 16.18693,7.20264 16.18693,16.14719 0,8.94416 -7.24277,16.22668 -16.18693,16.22668 -8.94417,0 -16.18694,-7.28278 -16.18694,-16.22668 0,-8.94417 7.24277,-16.14719 16.18694,-16.14719 z m -237.681903,64.58747 0,257.2729 54.890693,0 c 37.6037,-20.97955 75.18687,-41.98987 112.788,-62.98481 l 0,-27.44534 c 6.82095,3.41047 13.53933,5.96448 20.23335,7.7328 3.83512,0.96775 7.65818,1.6219 11.41894,2.04346 12.76761,-7.1225 25.57343,-14.20475 38.34348,-21.31547 -0.60579,-5.23469 -3.24598,-9.28815 -7.85307,-12.14026 -5.24213,-3.34727 -13.02391,-5.00827 -23.31944,-5.00827 l -14.58427,0 0,-23.51946 15.34586,0 c 9.15764,9e-5 15.98948,-1.40496 20.47439,-4.24706 4.484,-2.90506 6.69107,-7.26816 6.69119,-13.14187 -7e-5,-5.43137 -2.09295,-9.61241 -6.45067,-12.58094 -4.35784,-2.96826 -10.55311,-4.48733 -18.51144,-4.48746 -5.87371,1.4e-4 -11.82986,0.63709 -17.82935,1.9632 -5.99987,1.32637 -12.01307,3.30047 -17.94986,5.88986 l 0,-26.76453 c 7.19982,-2.0209 14.36245,-3.47676 21.43599,-4.48747 7.07353,-1.01036 14.09321,-1.5224 20.91416,-1.52253 18.3781,1.3e-4 32.05333,3.03224 41.14879,9.0952 9.15764,6 13.78293,15.07917 13.78293,27.20559 -1.1e-4,8.2736 -2.17309,15.0484 -6.53093,20.35386 -4.35797,5.24214 -10.86621,8.91109 -19.39227,11.05841 9.53664,2.46323 16.82929,6.8153 21.75652,12.94185 2.54324,3.09071 4.41016,6.62568 5.64934,10.5776 10.14668,18.17681 20.29746,36.35746 30.45067,54.53042 l 6.4908,-1.76293 0,-199.25636 -309.391623,0 z m 83.459193,55.25226 c 16.92545,1.3e-4 30.03782,3.68613 39.38586,11.13854 9.41035,7.45265 14.14321,17.88576 14.14321,31.21225 -1.2e-4,7.70524 -2.03115,14.94199 -6.01,21.636 -3.97897,6.63158 -12.32412,15.4651 -25.08109,26.64402 l -30.20963,26.56452 62.26297,0 0,26.80428 -102.77069,0 0,-26.80428 51.60587,-45.55548 c 4.61042,-4.16822 8.00641,-8.28143 10.21706,-12.2604 2.2104,-3.97885 3.32547,-8.04577 3.3256,-12.34054 -9e-5,-6.63145 -2.24719,-12.02461 -6.7312,-16.06641 -4.42105,-4.04193 -10.32015,-6.04988 -17.70883,-6.05013 -5.68421,1.4e-4 -11.91333,1.2231 -18.67042,3.68613 -6.75775,2.40015 -13.97141,6.01821 -21.67575,10.818 l 0,-31.05199 c 8.21039,-2.71556 16.33951,-4.82069 24.36053,-6.2104 8.0209,-1.4524 15.85358,-2.16347 23.5592,-2.1636 z m 181.62703,93.27521 -194.84582,108.7403 22.55785,0 202.7053,-54.29835 -30.4122,-54.43939 z"
     id="path6191"
     style="fill:#E3E3E3"
     inkscape:connector-curvature="0" />
</svg>
