<?xml version="1.0" encoding="UTF-8" standalone="no"?>
<svg xmlns:dc="http://purl.org/dc/elements/1.1/" xmlns:cc="http://creativecommons.org/ns#" xmlns:rdf="http://www.w3.org/1999/02/22-rdf-syntax-ns#" xmlns:svg="http://www.w3.org/2000/svg" xmlns="http://www.w3.org/2000/svg" xmlns:sodipodi="http://sodipodi.sourceforge.net/DTD/sodipodi-0.dtd" xmlns:inkscape="http://www.inkscape.org/namespaces/inkscape" height="512" viewBox="0 0 512 512" width="512" version="1.1" id="svg2" inkscape:version="0.91 r" sodipodi:docname="sublime-text.svg">
<defs id="defs16" />
<sodipodi:namedview pagecolor="#ffffff" bordercolor="#666666" borderopacity="1" objecttolerance="10" gridtolerance="10" guidetolerance="10" inkscape:pageopacity="0" inkscape:pageshadow="2" inkscape:window-width="640" inkscape:window-height="480" id="namedview14" showgrid="false" inkscape:zoom="0.4609375" inkscape:cx="218.0339" inkscape:cy="256" inkscape:window-x="420" inkscape:window-y="302" inkscape:window-maximized="0" inkscape:current-layer="svg2" />
<metadata id="metadata72">
<rdf:RDF>
<cc:Work rdf:about="">
<dc:format>image/svg+xml</dc:format>
<dc:type rdf:resource="http://purl.org/dc/dcmitype/StillImage" />
</cc:Work>
</rdf:RDF>
</metadata>
<path id="path66" d="m 164.57483,323.34124 c 26.29785,20.96032 59.8842,35.63645 90.09741,35.63645 34.13487,0 50.91859,-12.58021 50.91859,-33.0139 0,-21.49051 -20.7016,-28.29662 -52.60327,-40.87329 l -47.56437,-18.86914 c -37.49792,-14.14831 -73.31369,-43.49347 -73.31369,-93.27942 0,-56.59441 53.72681,-101.654804 129.84367,-101.654804 41.96559,0 86.18835,15.721131 117.52384,45.071024 l -41.9782,48.73148 c -24.05961,-17.29277 -46.45219,-27.25279 -75.5469,-27.25279 -28.53989,0 -46.45218,11.52812 -46.45218,30.91327 0,20.96032 24.0596,28.29661 55.41022,40.34783 l 47.00953,17.81822 c 44.21015,16.7685 72.19142,44.54557 72.19142,92.75161 0,56.59796 -50.3688,105.84664 -137.67439,105.84664 -47.56311,0 -97.92813,-16.76496 -134.86239,-49.25813 l 47.00954,-52.92214" inkscape:connector-curvature="0" style="fill:#E3E3E3" />
</svg>
