<?xml version="1.0" encoding="UTF-8" standalone="no"?>
<svg
   xmlns:dc="http://purl.org/dc/elements/1.1/"
   xmlns:cc="http://creativecommons.org/ns#"
   xmlns:rdf="http://www.w3.org/1999/02/22-rdf-syntax-ns#"
   xmlns:svg="http://www.w3.org/2000/svg"
   xmlns="http://www.w3.org/2000/svg"
   xmlns:sodipodi="http://sodipodi.sourceforge.net/DTD/sodipodi-0.dtd"
   xmlns:inkscape="http://www.inkscape.org/namespaces/inkscape"
   height="512"
   viewBox="0 0 512 512"
   width="512"
   version="1.1"
   id="svg2"
   inkscape:version="0.91 r13725"
   sodipodi:docname="accerciser.svg">
  <defs
     id="defs14" />
  <sodipodi:namedview
     pagecolor="#ffffff"
     bordercolor="#666666"
     borderopacity="1"
     objecttolerance="10"
     gridtolerance="10"
     guidetolerance="10"
     inkscape:pageopacity="0"
     inkscape:pageshadow="2"
     inkscape:window-width="1920"
     inkscape:window-height="1027"
     id="namedview12"
     showgrid="false"
     inkscape:zoom="0.4609375"
     inkscape:cx="256"
     inkscape:cy="256"
     inkscape:window-x="0"
     inkscape:window-y="27"
     inkscape:window-maximized="1"
     inkscape:current-layer="svg2" />
  <metadata
     id="metadata70">
    <rdf:RDF>
      <cc:Work
         rdf:about="">
        <dc:format>image/svg+xml</dc:format>
        <dc:type
           rdf:resource="http://purl.org/dc/dcmitype/StillImage" />
      </cc:Work>
    </rdf:RDF>
  </metadata>
  <path
     id="rect3115"
     d="m 111.78842,105.50043 0,60.9244 -41.365541,0 0,41.41255 -34.112317,0 0,23.64459 -38.47424,0 0,49.03306 38.47424,0 0,23.64459 34.112317,0 0,41.41255 41.365541,0 0,60.9244 45.31462,0 0,-125.98007 197.83646,0 0,125.98007 45.26761,0 0,-60.9244 41.41255,0 0,-41.41255 34.06678,0 0,-23.64459 38.47424,0 0,-49.03306 -38.47424,0 0,-23.64459 -34.06678,0 0,-41.41255 -41.41255,0 0,-60.9244 -45.26761,0 0,125.98007 -197.83646,0 0,-125.98007 -45.31462,0 z"
     inkscape:connector-curvature="0"
     style="fill:#E3E3E3" />
</svg>
