<svg xmlns="http://www.w3.org/2000/svg" width="48" height="48">
<defs>
  <path
     d="M 29.15625,3 40,14.125 39.96875,42.71875 c 0,1.26897 -1.016507,2.28125 -2.25,2.28125 l -27.5,0 C 8.9852537,45 8,43.98772 8,42.71875 L 8,5.3125 C 8,4.0435306 8.9852537,3 10.21875,3 z M 24.5625,14.213889 c -0.05838,0.02922 -0.07809,0.04711 -0.15625,0.09375 -0.07817,0.04665 -0.18259,0.108693 -0.3125,0.1875 -0.259819,0.157628 -0.610739,0.398613 -1.03125,0.65625 -0.841021,0.515274 -1.941959,1.172812 -3.03125,1.84375 -2.17858,1.341882 -4.34375,2.6875 -4.34375,2.6875 l -0.15625,0.0625 0,0.21875 0,10.1875 -4.71875,6.21875 c -0.02589,0.28499 -0.391061,0.768572 0.46875,0.5 l 8.75,-4 9.46875,-0.125 c 1.871098,-2.592735 3.534585,-5.38514 5.25,-8.09375 l -0.03125,-0.0625 0,-9.96875 0,-0.34375 -0.375,0 -7.21875,0 c -0.234892,0.238116 -0.567856,0.480634 0,0.71875 l 6.875,0 0,9.34375 -7.65625,5.25 -6.875,0 0,-8 L 25,14.745139 c 0.138815,-0.394315 -0.105063,-0.490375 -0.4375,-0.53125 z m 2.59375,1.0625 0,7.40625 1.6875,-1.53125 1.96875,3.9375 1.34375,-0.71875 -1.78125,-3.5625 2.21875,-0.34375 z m -4,0.625 -4.34375,5.34375 -0.0625,0.125 0,0.09375 0,8.125 -2.5,0 0,-9.4375 c 0.166742,-0.102981 2.068241,-1.276402 4.15625,-2.5625 0.993599,-0.611997 1.944321,-1.193464 2.75,-1.6875 z m 9.875,9.9375 -3.9375,5.5625 -0.46875,0 -9.15625,0.03125 0,-1.125 7,0 0.09375,0 0.09375,-0.09375 z m -16.78125,4.46875 2.5,0 0,1.125 -6.25,3.875 3.65625,-4.84375 0.09375,-0.09375 z"
     id="path-main" />
</defs>

<use id="1" style="fill:#E3E3E3" xlink:href="#path-main" />



</svg>
