<svg xmlns="http://www.w3.org/2000/svg" width="48" height="48">
<defs>
  <path
     d="m 20.684118,5.4884694 -2.220327,5.8721796 3.885572,1.986609 c 0.457278,-1.503205 0.575131,-2.397487 0.876444,-3.9147872 0.375442,1.3141072 0.931194,2.9809672 1.577601,4.7912312 L 28.747409,12.120234 26.03043,5.4884694 z m -8.676803,1.7528894 c -1.738414,0 -3.2704133,0.8539077 -4.2069343,2.161897 -0.508736,-0.06775 -1.0085736,-0.116263 -1.4607411,-0.1168594 -1.364845,-0.00178 -2.6395459,0.3369294 -3.301275,1.4315266 l -0.4382223,0.671941 c -0.6617291,1.094596 -0.3436841,2.385731 0.2921482,3.593424 0.6358323,1.207693 1.6691404,2.496564 3.0383416,3.885571 1.3284992,1.347718 2.979015,2.782031 4.8788759,4.23615 0.705471,-0.4273 1.344156,-0.834559 1.957393,-1.227023 C 10.65981,20.311679 8.8269787,18.776002 7.4498029,17.378903 6.1726249,16.083249 5.265238,14.890264 4.791254,13.989984 4.31727,13.089704 4.3663655,12.652163 4.4406761,12.529242 l 0.4382224,-0.701156 c 0.07431,-0.12292 0.4433113,-0.381134 1.4607411,-0.379793 0.1755127,2.32e-4 0.3823913,0.01375 0.5842965,0.02921 -0.054367,0.301634 -0.087644,0.617113 -0.087644,0.934875 0,2.864694 2.3063301,5.171024 5.1710239,5.171024 2.051811,0 3.808516,-1.19747 4.645157,-2.921482 1.929839,0.925069 3.986884,2.063752 5.667676,2.979912 l -1.139379,0.671946 c -0.214479,0.123918 -0.380012,0.229976 -0.584297,0.350578 L 20.362755,18.81043 C 14.930912,22.243148 10.100384,25.013548 5.6969135,29.444625 4.3277115,30.833632 3.2944043,32.122503 2.6585719,33.330197 2.0227395,34.53789 1.7046952,35.829023 2.3664237,36.92362 l 0.4382224,0.701155 c 0.6617292,1.094596 1.9364304,1.404088 3.3012749,1.402312 0.5368448,-6.98e-4 1.137896,-0.05355 1.7528894,-0.146074 l -1.5776004,4.090075 5.258668,0 2.103468,-5.75532 c 3.183285,-1.232856 6.827868,-3.051339 10.575765,-5.317098 L 24.3944,31.781811 c 3.064071,1.817949 6.035465,3.335546 8.735232,4.469868 l 2.570905,6.719409 5.667675,0 -1.928178,-4.674372 c 0.884339,0.172127 1.716816,0.261962 2.454045,0.262934 1.364846,0.0018 2.639546,-0.307715 3.301275,-1.402312 l 0.438222,-0.701155 c 0.661729,-1.094597 0.343685,-2.385731 -0.292148,-3.593424 -0.635832,-1.207693 -1.669141,-2.496564 -3.038341,-3.885571 -1.534559,-1.556757 -3.502517,-3.22674 -5.784535,-4.90809 l -1.840534,-1.285452 c -3.171714,-1.759042 -5.335727,-3.429298 -8.18015,-5.02495 l 0.934874,-0.642726 2.775408,-1.431526 0.321363,-0.175289 0,0.02921 c 2.536084,-1.237723 4.898757,-2.227502 6.894698,-2.833838 1.740762,-0.528818 3.218719,-0.787492 4.23615,-0.7888 1.017429,-0.0013 1.386428,0.256871 1.460741,0.379792 l 0.409007,0.701157 c 0.07431,0.122921 0.152621,0.560461 -0.321363,1.460741 -0.328488,0.623927 -0.881499,1.408607 -1.606815,2.249541 -0.656611,-0.473168 -1.462498,-0.759585 -2.337186,-0.759585 -2.213627,0 -3.973216,1.759589 -3.973216,3.973216 0,0.722283 0.193324,1.403128 0.525867,1.986608 -0.160513,0.122452 -0.33188,0.250799 -0.496652,0.379793 l 1.723675,1.402311 c 0.117662,-0.08535 0.235805,-0.174483 0.350577,-0.262933 0.563518,0.302946 1.182719,0.496652 1.869749,0.496652 2.213627,0 4.002431,-1.788804 4.002431,-4.002431 0,-0.543685 -0.12637,-1.04756 -0.321363,-1.519171 0.937735,-1.03858 1.671009,-2.01831 2.161897,-2.950697 0.635832,-1.207693 0.953876,-2.469612 0.292148,-3.564209 l -0.438223,-0.701156 c -0.661729,-1.094597 -1.936429,-1.4333032 -3.301274,-1.4315262 -1.364846,0.0018 -2.983474,0.3387402 -4.849661,0.9056592 -2.140415,0.650226 -4.597591,1.642692 -7.216061,2.921483 -1.908843,1.006443 -3.481386,1.815448 -5.200239,2.804623 -0.779475,-0.470409 -1.543023,-0.916061 -2.307971,-1.343882 l -0.292148,-0.14607 -3.944001,-2.074252 c -0.06621,-0.03175 -0.137256,-0.05517 -0.204504,-0.08764 -0.158065,-0.07633 -0.313477,-0.162271 -0.467437,-0.233719 4.96e-4,-0.02963 0,-0.0579 0,-0.08765 0,-2.8646932 -2.30633,-5.1710237 -5.171024,-5.1710237 z m 4.440654,9.0273812 -1.577601,4.236149 c 1.356664,-0.894675 2.761825,-1.799878 4.382224,-2.775408 z m 14.344477,0.818015 -1.431526,0.730371 2.249542,1.285452 z M 24.3944,18.898074 c 5.812889,3.593966 12.117643,7.376417 16.389516,11.598285 1.277178,1.295654 2.184565,2.459424 2.658549,3.359704 0.473984,0.900281 0.424889,1.367035 0.350578,1.489956 l -0.438223,0.701156 c -0.07431,0.122921 -0.443312,0.381134 -1.460741,0.379793 -0.857005,-0.0011 -2.055014,-0.181138 -3.447349,-0.555082 l -3.33049,-8.18015 -7.011557,-4.557513 1.227022,3.213631 c -0.0188,0.0114 -0.03959,0.01783 -0.05843,0.02922 l -1.986608,1.197807 -5.784535,0 -2.775408,-1.665244 c -0.284397,-0.17193 -0.540848,-0.351816 -0.818015,-0.525867 l 0.379792,-1.022519 -6.427261,4.11929 -3.0967711,8.034076 C 7.7092689,36.7574 6.7975801,36.89352 6.10592,36.89441 5.0884907,36.89571 4.719492,36.637538 4.6451789,36.514617 L 4.2069575,35.813456 C 4.1326465,35.690536 4.0835513,35.252996 4.5575354,34.352715 5.0315195,33.452435 5.9389057,32.25945 7.2160843,30.963796 11.444596,26.90638 15.629785,24.376072 19.661599,21.731912 z m -7.245276,8.530728 c 0.07885,0.04833 0.15437,0.09777 0.233719,0.146074 l -0.292148,0 z m -1.489956,4.17772 4.791231,0 c -2.032875,1.123756 -4.018556,2.104372 -5.842964,2.892267 z m 12.737663,0 2.950697,0 0.701156,1.840534 c -1.175146,-0.541987 -2.399489,-1.169505 -3.651853,-1.840534 z"
     id="path-main" />
</defs>

<use id="1" style="fill:#E3E3E3" xlink:href="#path-main" />



</svg>
