<?xml version="1.0" encoding="UTF-8" standalone="no"?>
<svg
   xmlns:dc="http://purl.org/dc/elements/1.1/"
   xmlns:cc="http://creativecommons.org/ns#"
   xmlns:rdf="http://www.w3.org/1999/02/22-rdf-syntax-ns#"
   xmlns:svg="http://www.w3.org/2000/svg"
   xmlns="http://www.w3.org/2000/svg"
   xmlns:sodipodi="http://sodipodi.sourceforge.net/DTD/sodipodi-0.dtd"
   xmlns:inkscape="http://www.inkscape.org/namespaces/inkscape"
   height="512"
   viewBox="0 0 512 512"
   width="512"
   version="1.1"
   id="svg2"
   inkscape:version="0.91 r"
   sodipodi:docname="cdcat.svg">
  <defs
     id="defs65" />
  <sodipodi:namedview
     pagecolor="#ffffff"
     bordercolor="#666666"
     borderopacity="1"
     objecttolerance="10"
     gridtolerance="10"
     guidetolerance="10"
     inkscape:pageopacity="0"
     inkscape:pageshadow="2"
     inkscape:window-width="640"
     inkscape:window-height="480"
     id="namedview63"
     showgrid="false"
     inkscape:zoom="0.4609375"
     inkscape:cx="256"
     inkscape:cy="256"
     inkscape:window-x="0"
     inkscape:window-y="0"
     inkscape:window-maximized="0"
     inkscape:current-layer="svg2" />
  <metadata
     id="metadata124">
    <rdf:RDF>
      <cc:Work
         rdf:about="">
        <dc:format>image/svg+xml</dc:format>
        <dc:type
           rdf:resource="http://purl.org/dc/dcmitype/StillImage" />
      </cc:Work>
    </rdf:RDF>
  </metadata>
  <text
     id="text20"
     font-size="129.23"
     line-height="125%"
     y="231.36"
     x="729.64"
     font-family="Gentium Book Basic"
     word-spacing="0"
     letter-spacing="0">
    <tspan
       id="tspan22"
       y="231.36"
       x="729.64" />
  </text>
  <text
     id="text24"
     font-size="46.954"
     transform="scale(4.0128 .2492)"
     y="579.26"
     x="378.91"
     font-family="Arial"
     text-anchor="middle" />
  <text
     id="text26"
     font-size="129.23"
     line-height="125%"
     y="151.36"
     x="1310.91"
     font-family="Gentium Book Basic"
     word-spacing="0"
     letter-spacing="0">
    <tspan
       id="tspan28"
       y="151.36"
       x="1310.91" />
  </text>
  <text
     id="text30"
     font-size="46.954"
     transform="scale(4.0128 .2492)"
     y="258.22"
     x="523.76"
     font-family="Arial"
     text-anchor="middle" />
  <text
     id="text32"
     font-size="129.23"
     line-height="125%"
     y="-29.9"
     x="239.33"
     font-family="Gentium Book Basic"
     word-spacing="0"
     letter-spacing="0">
    <tspan
       id="tspan34"
       y="-29.9"
       x="239.33" />
  </text>
  <text
     id="text36"
     font-size="46.954"
     transform="scale(4.0128 .2492)"
     y="-469.13"
     x="256.72"
     font-family="Arial"
     text-anchor="middle" />
  <text
     id="text38"
     font-size="129.23"
     line-height="125%"
     y="-246.37"
     x="1337.38"
     font-family="Gentium Book Basic"
     word-spacing="0"
     letter-spacing="0">
    <tspan
       id="tspan40"
       y="-246.37"
       x="1337.38" />
  </text>
  <text
     id="text42"
     font-size="46.954"
     transform="scale(4.0128 .2492)"
     y="-1337.8"
     x="530.36"
     font-family="Arial"
     text-anchor="middle" />
  <text
     id="text44"
     font-size="129.23"
     line-height="125%"
     y="-326.37"
     x="1918.65"
     font-family="Gentium Book Basic"
     word-spacing="0"
     letter-spacing="0">
    <tspan
       id="tspan46"
       y="-326.37"
       x="1918.65" />
  </text>
  <text
     id="text48"
     font-size="46.954"
     transform="scale(4.0128 .2492)"
     y="-1658.83"
     x="675.21"
     font-family="Arial"
     text-anchor="middle" />
  <text
     id="text50"
     font-size="129.23"
     line-height="125%"
     y="-798.77"
     x="1529.53"
     font-family="Gentium Book Basic"
     word-spacing="0"
     letter-spacing="0">
    <tspan
       id="tspan52"
       y="-798.77"
       x="1529.53" />
  </text>
  <text
     id="text54"
     font-size="46.954"
     transform="scale(4.0128 .2492)"
     y="-3554.48"
     x="578.24"
     font-family="Arial"
     text-anchor="middle" />
  <text
     id="text56"
     font-size="129.23"
     line-height="125%"
     y="-878.78"
     x="2110.79"
     font-family="Gentium Book Basic"
     word-spacing="0"
     letter-spacing="0">
    <tspan
       id="tspan58"
       y="-878.78"
       x="2110.79" />
  </text>
  <text
     id="text60"
     font-size="46.954"
     transform="scale(4.0128 .2492)"
     y="-3875.52"
     x="723.09"
     font-family="Arial"
     text-anchor="middle" />
  <g
     id="g62"
     font-family="Gentium Book Basic"
     line-height="125%"
     word-spacing="0"
     letter-spacing="0">
    <text
       id="text64"
       y="535.94"
       x="277.99"
       font-size="208.33">
      <tspan
         id="tspan66"
         y="535.94"
         x="277.99" />
    </text>
    <text
       id="text68"
       y="-267.4"
       x="-548.05"
       font-size="129.23">
      <tspan
         id="tspan70"
         y="-267.4"
         x="-548.05" />
    </text>
  </g>
  <text
     id="text72"
     font-size="46.954"
     transform="scale(4.0128 .2492)"
     y="-1422.18"
     x="60.51"
     font-family="Arial"
     text-anchor="middle" />
  <text
     id="text74"
     font-size="129.23"
     line-height="125%"
     y="-347.4"
     x="33.22"
     font-family="Gentium Book Basic"
     word-spacing="0"
     letter-spacing="0">
    <tspan
       id="tspan76"
       y="-347.4"
       x="33.22" />
  </text>
  <text
     id="text78"
     font-size="46.954"
     transform="scale(4.0128 .2492)"
     y="-1743.21"
     x="205.36"
     font-family="Arial"
     text-anchor="middle" />
  <text
     id="text80"
     font-size="129.23"
     line-height="125%"
     y="-528.66"
     x="-1038.36"
     font-family="Gentium Book Basic"
     word-spacing="0"
     letter-spacing="0">
    <tspan
       id="tspan82"
       y="-528.66"
       x="-1038.36" />
  </text>
  <text
     id="text84"
     font-size="46.954"
     transform="scale(4.0128 .2492)"
     y="-2470.57"
     x="-61.682"
     font-family="Arial"
     text-anchor="middle" />
  <text
     id="text86"
     font-size="129.23"
     line-height="125%"
     y="-745.13"
     x="59.695"
     font-family="Gentium Book Basic"
     word-spacing="0"
     letter-spacing="0">
    <tspan
       id="tspan88"
       y="-745.13"
       x="59.695" />
  </text>
  <text
     id="text90"
     font-size="46.954"
     transform="scale(4.0128 .2492)"
     y="-3339.23"
     x="211.96"
     font-family="Arial"
     text-anchor="middle" />
  <text
     id="text92"
     font-size="129.23"
     line-height="125%"
     y="-825.14"
     x="640.96"
     font-family="Gentium Book Basic"
     word-spacing="0"
     letter-spacing="0">
    <tspan
       id="tspan94"
       y="-825.14"
       x="640.96" />
  </text>
  <text
     id="text96"
     font-size="46.954"
     transform="scale(4.0128 .2492)"
     y="-3660.27"
     x="356.81"
     font-family="Arial"
     text-anchor="middle" />
  <text
     id="text98"
     font-size="129.23"
     line-height="125%"
     y="-1297.54"
     x="251.84"
     font-family="Gentium Book Basic"
     word-spacing="0"
     letter-spacing="0">
    <tspan
       id="tspan100"
       y="-1297.54"
       x="251.84" />
  </text>
  <text
     id="text102"
     font-size="46.954"
     transform="scale(4.0128 .2492)"
     y="-5555.92"
     x="259.84"
     font-family="Arial"
     text-anchor="middle" />
  <text
     id="text104"
     font-size="129.23"
     line-height="125%"
     y="-1377.54"
     x="833.1"
     font-family="Gentium Book Basic"
     word-spacing="0"
     letter-spacing="0">
    <tspan
       id="tspan106"
       y="-1377.54"
       x="833.1" />
  </text>
  <text
     id="text108"
     font-size="46.954"
     transform="scale(4.0128 .2492)"
     y="-5876.95"
     x="404.69"
     font-family="Arial"
     text-anchor="middle" />
  <text
     id="text110"
     font-size="208.33"
     line-height="125%"
     y="37.18"
     x="-999.7"
     font-family="Gentium Book Basic"
     word-spacing="0"
     letter-spacing="0">
    <tspan
       id="tspan112"
       y="37.18"
       x="-999.7" />
  </text>
  <g
     id="g114"
     fill="#E3E3E3">
    <path
       id="path116"
       d="m340.37 221.9c-43.826 0-79.35 35.528-79.35 79.35 0 43.826 35.528 79.35 79.35 79.35 43.826 0 79.35-35.528 79.35-79.35 0-43.826-35.528-79.35-79.35-79.35m0 9.116c3.963 0.002 7.934 0.354 11.835 1.014l-3.382 41.636c-1.546-0.471-3.109-0.768-4.706-0.972l-5.453-41.664c0.566-0.014 1.139-0.014 1.705-0.014m23.291 4.227c11.695 4.124 21.935 11.301 29.842 20.529l-29.19 29.842c-2.882-4.399-6.983-7.942-11.779-10.201l11.131-40.17m-23.23 52.936c7.23 0 13.02 5.887 13.02 13.12 0 7.23-5.788 13.03-13.02 13.03-7.23 0-13.13-5.802-13.13-13.03 0-7.23 5.902-13.12 13.13-13.12m-18.06 35.21c4.113 3.345 9.05 5.477 14.259 6.171l-14.259 39.32c-11.742-3.132-22.639-9.307-31.42-18.06l31.42-27.433" />
    <path
       id="path118"
       d="m329.53 118.44c-28.404 0.604-56.02 14.969-69.41 43.22l-4.906 10.344-1.969-7.5c-3.209-12.139-18.744-29.23-33.844-37.22-12.402-6.573-16.854-8.936-37.938-8.813-20.15 0.109-26.1 2.718-38.16 8.625-17.04 8.341-30.384 21.988-39.438 40.34-5.333 10.821-6.609 17.91-6.625 36.25-0.047 37.61 13.151 65.31 44.25 92.91 16.867 14.976 22.515 19.348 64.06 49.594 14.03 10.201 31.12 24.574 37.938 31.969 12.976 13.999 10.148 18.691 13.09 13.156 1.299-2.455 11.565-12.667 25.563-25.03-18-16.483-29.479-40.33-29.28-65-1.164-45.694 39.46-87.26 85.16-87.44 1.305-0.036 2.602-0.056 3.906-0.031 19.557 0.37 38.793 7.572 53.875 19.969 4.623 3.567 8.756 7.64 12.406 12.09 0.228-0.568 0.467-1.146 0.688-1.719 8.635-22.479 7.579-62.35-2.156-81.03-15.835-30.368-46.982-45.33-77.22-44.688" />
  </g>
</svg>
