<svg xmlns="http://www.w3.org/2000/svg" width="48" height="48">
<defs>
<defs
     id="defs4291">
  </defs>
  <path
     id="path-main"
   d="M 42.65625 1.71875 C 39.573523 1.6356932 34.085469 4.4374967 26.84375 10.84375 C 22.800044 10.685039 18.710978 12.227708 15.71875 15.40625 C 12.724345 18.587106 11.442262 22.779426 11.84375 26.8125 C -5.6385389 49.048683 5.6079998 54.835053 29.8125 29.34375 C 45.696704 12.615082 48.541456 1.8773129 42.65625 1.71875 z M 34.71875 8.75 C 39.238374 8.3052617 37.325523 16.166276 27.15625 26.96875 C 14.061124 40.879258 5.4906077 40.331266 12.34375 29.3125 C 12.884238 31.215699 13.79866 33.03652 15.125 34.625 C 18.280935 33.11584 22.044904 30.334148 26.125 26 C 30.607082 21.238836 33.290039 16.951026 34.5625 13.4375 C 32.986428 12.337178 31.238422 11.62121 29.4375 11.21875 C 31.671363 9.6740152 33.453255 8.8745267 34.71875 8.75 z M 18.5625 16.1875 C 18.982836 16.196196 19.385749 16.330958 19.71875 16.625 C 21.050755 17.801168 20.938386 20.939135 19.5 23.625 C 18.061614 26.310865 15.832005 27.519918 14.5 26.34375 C 13.167995 25.167582 13.249114 22.060865 14.6875 19.375 C 15.766289 17.360601 17.301492 16.161412 18.5625 16.1875 z M 39.75 20.03125 C 37.662897 23.427349 34.870175 27.060701 31.21875 30.90625 C 27.994761 34.301641 24.916721 37.055296 22 39.1875 C 27.120148 40.765276 32.892228 39.414373 36.8125 35.25 C 40.784007 31.031202 41.734235 25.089349 39.75 20.03125 z "
/>
</defs>

<use id="1" style="fill:#E3E3E3" xlink:href="#path-main" />



</svg>
