<?xml version="1.0" encoding="UTF-8" standalone="no"?>
<svg
   xmlns:dc="http://purl.org/dc/elements/1.1/"
   xmlns:cc="http://creativecommons.org/ns#"
   xmlns:rdf="http://www.w3.org/1999/02/22-rdf-syntax-ns#"
   xmlns:svg="http://www.w3.org/2000/svg"
   xmlns="http://www.w3.org/2000/svg"
   xmlns:sodipodi="http://sodipodi.sourceforge.net/DTD/sodipodi-0.dtd"
   xmlns:inkscape="http://www.inkscape.org/namespaces/inkscape"
   height="512"
   viewBox="0 0 512 512"
   width="512"
   version="1.1"
   id="svg2"
   inkscape:version="0.91 r"
   sodipodi:docname="equaliser.svg">
  <defs
     id="defs16" />
  <sodipodi:namedview
     pagecolor="#ffffff"
     bordercolor="#666666"
     borderopacity="1"
     objecttolerance="10"
     gridtolerance="10"
     guidetolerance="10"
     inkscape:pageopacity="0"
     inkscape:pageshadow="2"
     inkscape:window-width="647"
     inkscape:window-height="480"
     id="namedview14"
     showgrid="false"
     inkscape:zoom="0.4609375"
     inkscape:cx="263.59322"
     inkscape:cy="256"
     inkscape:window-x="0"
     inkscape:window-y="0"
     inkscape:window-maximized="0"
     inkscape:current-layer="svg2" />
  <metadata
     id="metadata70">
    <rdf:RDF>
      <cc:Work
         rdf:about="">
        <dc:format>image/svg+xml</dc:format>
        <dc:type
           rdf:resource="http://purl.org/dc/dcmitype/StillImage" />
      </cc:Work>
    </rdf:RDF>
  </metadata>
  <path
     id="path207"
     fill="#E3E3E3"
     d="m193.38 124.09v31.5h55.16v-31.5h-55.16m0 46.47v31.5h55.16v-31.5h-55.16m-70.09 46.47v31.5h55.16v-31.5h-55.16m70.09 0v31.5h55.16v-31.5h-55.16m140.19 0v31.5h55.16v-31.5h-55.16m-210.28 46.44v31.5h55.16v-31.5h-55.16m70.09 0v31.5h55.16v-31.5h-55.16m70.09 0v31.5h55.16v-31.5h-55.16m70.09 0v31.5h55.16v-31.5h-55.16m-210.28 46.47v31.5h55.16v-31.5h-55.16m70.09 0v31.5h55.16v-31.5h-55.16m70.09 0v31.5h55.16v-31.5h-55.16m70.09 0v31.5h55.16v-31.5h-55.16m-210.28 46.47v31.5h55.16v-31.5h-55.16m70.09 0v31.5h55.16v-31.5h-55.16m70.09 0v31.5h55.16v-31.5h-55.16m70.09 0v31.5h55.16v-31.5h-55.16" />
</svg>
