<?xml version="1.0" encoding="UTF-8" standalone="no"?>
<svg
   xmlns:dc="http://purl.org/dc/elements/1.1/"
   xmlns:cc="http://creativecommons.org/ns#"
   xmlns:rdf="http://www.w3.org/1999/02/22-rdf-syntax-ns#"
   xmlns:svg="http://www.w3.org/2000/svg"
   xmlns="http://www.w3.org/2000/svg"
   xmlns:sodipodi="http://sodipodi.sourceforge.net/DTD/sodipodi-0.dtd"
   xmlns:inkscape="http://www.inkscape.org/namespaces/inkscape"
   viewBox="0 0 512 512"
   id="svg2"
   version="1.1"
   inkscape:version="0.91 r13725"
   sodipodi:docname="clipgrab.svg">
  <metadata
     id="metadata417">
    <rdf:RDF>
      <cc:Work
         rdf:about="">
        <dc:format>image/svg+xml</dc:format>
        <dc:type
           rdf:resource="http://purl.org/dc/dcmitype/StillImage" />
        <dc:title />
      </cc:Work>
    </rdf:RDF>
  </metadata>
  <sodipodi:namedview
     pagecolor="#d6d6d4"
     bordercolor="#666666"
     borderopacity="1"
     objecttolerance="10"
     gridtolerance="10"
     guidetolerance="10"
     inkscape:pageopacity="0"
     inkscape:pageshadow="2"
     inkscape:window-width="1920"
     inkscape:window-height="1024"
     id="namedview415"
     showgrid="false"
     inkscape:zoom="0.4609375"
     inkscape:cx="-101.9661"
     inkscape:cy="256"
     inkscape:window-x="0"
     inkscape:window-y="0"
     inkscape:window-maximized="1"
     inkscape:current-layer="svg2" />
  <defs
     id="defs4">
    <linearGradient
       id="0"
       y2="61.02"
       gradientUnits="userSpaceOnUse"
       y1="436.43"
       x2="356.04"
       x1="143.14">
      <stop
         stop-color="#59cdea"
         id="stop7" />
      <stop
         stop-color="#00b2de"
         offset="0.084"
         id="stop9" />
      <stop
         stop-color="#5bcdea"
         offset="0.501"
         id="stop11" />
      <stop
         stop-color="#21bce2"
         offset="0.866"
         id="stop13" />
      <stop
         stop-color="#18a7ca"
         offset="1"
         id="stop15" />
    </linearGradient>
  </defs>
  <text
     font-size="129.23"
     y="231.36"
     x="729.64"
     font-family="Gentium Book Basic"
     line-height="125%"
     word-spacing="0"
     letter-spacing="0"
     id="text17"
     style="fill:#E3E3E3;fill-opacity:1;">
    <tspan
       y="231.36"
       x="729.64"
       id="tspan19"
       style="fill:#E3E3E3;fill-opacity:1;" />
  </text>
  <text
     transform="scale(4.0128.2492)"
     font-size="46.954"
     y="579.26"
     x="378.91"
     font-family="Arial"
     text-anchor="middle"
     id="text21"
     style="fill:#E3E3E3;fill-opacity:1;" />
  <text
     font-size="129.23"
     y="151.36"
     x="1310.91"
     font-family="Gentium Book Basic"
     line-height="125%"
     word-spacing="0"
     letter-spacing="0"
     id="text23"
     style="fill:#E3E3E3;fill-opacity:1;">
    <tspan
       y="151.36"
       x="1310.91"
       id="tspan25"
       style="fill:#E3E3E3;fill-opacity:1;" />
  </text>
  <text
     transform="scale(4.0128.2492)"
     font-size="46.954"
     y="258.22"
     x="523.76"
     font-family="Arial"
     text-anchor="middle"
     id="text27"
     style="fill:#E3E3E3;fill-opacity:1;" />
  <text
     font-size="129.23"
     y="-29.9"
     x="239.33"
     font-family="Gentium Book Basic"
     line-height="125%"
     word-spacing="0"
     letter-spacing="0"
     id="text29"
     style="fill:#E3E3E3;fill-opacity:1;">
    <tspan
       y="-29.9"
       x="239.33"
       id="tspan31"
       style="fill:#E3E3E3;fill-opacity:1;" />
  </text>
  <text
     transform="scale(4.0128.2492)"
     font-size="46.954"
     y="-469.13"
     x="256.72"
     font-family="Arial"
     text-anchor="middle"
     id="text33"
     style="fill:#E3E3E3;fill-opacity:1;" />
  <text
     font-size="129.23"
     y="-246.37"
     x="1337.38"
     font-family="Gentium Book Basic"
     line-height="125%"
     word-spacing="0"
     letter-spacing="0"
     id="text35"
     style="fill:#E3E3E3;fill-opacity:1;">
    <tspan
       y="-246.37"
       x="1337.38"
       id="tspan37"
       style="fill:#E3E3E3;fill-opacity:1;" />
  </text>
  <text
     transform="scale(4.0128.2492)"
     font-size="46.954"
     y="-1337.8"
     x="530.36"
     font-family="Arial"
     text-anchor="middle"
     id="text39"
     style="fill:#E3E3E3;fill-opacity:1;" />
  <text
     font-size="129.23"
     y="-326.37"
     x="1918.65"
     font-family="Gentium Book Basic"
     line-height="125%"
     word-spacing="0"
     letter-spacing="0"
     id="text41"
     style="fill:#E3E3E3;fill-opacity:1;">
    <tspan
       y="-326.37"
       x="1918.65"
       id="tspan43"
       style="fill:#E3E3E3;fill-opacity:1;" />
  </text>
  <text
     transform="scale(4.0128.2492)"
     font-size="46.954"
     y="-1658.83"
     x="675.21"
     font-family="Arial"
     text-anchor="middle"
     id="text45"
     style="fill:#E3E3E3;fill-opacity:1;" />
  <text
     font-size="129.23"
     y="-798.77"
     x="1529.53"
     font-family="Gentium Book Basic"
     line-height="125%"
     word-spacing="0"
     letter-spacing="0"
     id="text47"
     style="fill:#E3E3E3;fill-opacity:1;">
    <tspan
       y="-798.77"
       x="1529.53"
       id="tspan49"
       style="fill:#E3E3E3;fill-opacity:1;" />
  </text>
  <text
     transform="scale(4.0128.2492)"
     font-size="46.954"
     y="-3554.48"
     x="578.24"
     font-family="Arial"
     text-anchor="middle"
     id="text51"
     style="fill:#E3E3E3;fill-opacity:1;" />
  <text
     font-size="129.23"
     y="-878.78"
     x="2110.79"
     font-family="Gentium Book Basic"
     line-height="125%"
     word-spacing="0"
     letter-spacing="0"
     id="text53"
     style="fill:#E3E3E3;fill-opacity:1;">
    <tspan
       y="-878.78"
       x="2110.79"
       id="tspan55"
       style="fill:#E3E3E3;fill-opacity:1;" />
  </text>
  <text
     transform="scale(4.0128.2492)"
     font-size="46.954"
     y="-3875.52"
     x="723.09"
     font-family="Arial"
     text-anchor="middle"
     id="text57"
     style="fill:#E3E3E3;fill-opacity:1;" />
  <g
     line-height="125%"
     word-spacing="0"
     letter-spacing="0"
     id="g59"
     style="fill:#E3E3E3;fill-opacity:1">
    <text
       y="535.94"
       x="277.99"
       font-size="208.33"
       font-family="Gentium Book Basic"
       id="text61"
       style="fill:#E3E3E3;fill-opacity:1">
      <tspan
         y="535.94"
         x="277.99"
         id="tspan63"
         style="fill:#E3E3E3;fill-opacity:1" />
    </text>
    <text
       y="231.36"
       x="729.64"
       font-size="129.23"
       font-family="'Gentium Book Basic'"
       id="text65"
       style="fill:#E3E3E3;fill-opacity:1">
      <tspan
         y="231.36"
         x="729.64"
         id="tspan67"
         style="fill:#E3E3E3;fill-opacity:1" />
    </text>
  </g>
  <text
     transform="scale(4.0128.2492)"
     font-size="46.954"
     y="579.26"
     x="378.91"
     font-family="Arial"
     text-anchor="middle"
     id="text69"
     style="fill:#E3E3E3;fill-opacity:1;" />
  <text
     font-size="129.23"
     y="151.36"
     x="1310.91"
     font-family="'Gentium Book Basic'"
     line-height="125%"
     word-spacing="0"
     letter-spacing="0"
     id="text71"
     style="fill:#E3E3E3;fill-opacity:1;">
    <tspan
       y="151.36"
       x="1310.91"
       id="tspan73"
       style="fill:#E3E3E3;fill-opacity:1;" />
  </text>
  <text
     transform="scale(4.0128.2492)"
     font-size="46.954"
     y="258.22"
     x="523.76"
     font-family="Arial"
     text-anchor="middle"
     id="text75"
     style="fill:#E3E3E3;fill-opacity:1;" />
  <text
     font-size="129.23"
     y="-29.9"
     x="239.33"
     font-family="'Gentium Book Basic'"
     line-height="125%"
     word-spacing="0"
     letter-spacing="0"
     id="text77"
     style="fill:#E3E3E3;fill-opacity:1;">
    <tspan
       y="-29.9"
       x="239.33"
       id="tspan79"
       style="fill:#E3E3E3;fill-opacity:1;" />
  </text>
  <text
     transform="scale(4.0128.2492)"
     font-size="46.954"
     y="-469.13"
     x="256.72"
     font-family="Arial"
     text-anchor="middle"
     id="text81"
     style="fill:#E3E3E3;fill-opacity:1;" />
  <text
     font-size="129.23"
     y="-246.37"
     x="1337.38"
     font-family="'Gentium Book Basic'"
     line-height="125%"
     word-spacing="0"
     letter-spacing="0"
     id="text83"
     style="fill:#E3E3E3;fill-opacity:1;">
    <tspan
       y="-246.37"
       x="1337.38"
       id="tspan85"
       style="fill:#E3E3E3;fill-opacity:1;" />
  </text>
  <text
     transform="scale(4.0128.2492)"
     font-size="46.954"
     y="-1337.8"
     x="530.36"
     font-family="Arial"
     text-anchor="middle"
     id="text87"
     style="fill:#E3E3E3;fill-opacity:1;" />
  <text
     font-size="129.23"
     y="-326.37"
     x="1918.65"
     font-family="'Gentium Book Basic'"
     line-height="125%"
     word-spacing="0"
     letter-spacing="0"
     id="text89"
     style="fill:#E3E3E3;fill-opacity:1;">
    <tspan
       y="-326.37"
       x="1918.65"
       id="tspan91"
       style="fill:#E3E3E3;fill-opacity:1;" />
  </text>
  <text
     transform="scale(4.0128.2492)"
     font-size="46.954"
     y="-1658.83"
     x="675.21"
     font-family="Arial"
     text-anchor="middle"
     id="text93"
     style="fill:#E3E3E3;fill-opacity:1;" />
  <text
     font-size="129.23"
     y="-798.77"
     x="1529.53"
     font-family="'Gentium Book Basic'"
     line-height="125%"
     word-spacing="0"
     letter-spacing="0"
     id="text95"
     style="fill:#E3E3E3;fill-opacity:1;">
    <tspan
       y="-798.77"
       x="1529.53"
       id="tspan97"
       style="fill:#E3E3E3;fill-opacity:1;" />
  </text>
  <text
     transform="scale(4.0128.2492)"
     font-size="46.954"
     y="-3554.48"
     x="578.24"
     font-family="Arial"
     text-anchor="middle"
     id="text99"
     style="fill:#E3E3E3;fill-opacity:1;" />
  <text
     font-size="129.23"
     y="-878.78"
     x="2110.79"
     font-family="'Gentium Book Basic'"
     line-height="125%"
     word-spacing="0"
     letter-spacing="0"
     id="text101"
     style="fill:#E3E3E3;fill-opacity:1;">
    <tspan
       y="-878.78"
       x="2110.79"
       id="tspan103"
       style="fill:#E3E3E3;fill-opacity:1;" />
  </text>
  <text
     transform="scale(4.0128.2492)"
     font-size="46.954"
     y="-3875.52"
     x="723.09"
     font-family="Arial"
     text-anchor="middle"
     id="text105"
     style="fill:#E3E3E3;fill-opacity:1;" />
  <g
     font-family="'Gentium Book Basic'"
     line-height="125%"
     word-spacing="0"
     letter-spacing="0"
     id="g107"
     style="fill:#E3E3E3;fill-opacity:1">
    <text
       y="535.94"
       x="277.99"
       font-size="208.33"
       id="text109"
       style="fill:#E3E3E3;fill-opacity:1">
      <tspan
         y="535.94"
         x="277.99"
         id="tspan111"
         style="fill:#E3E3E3;fill-opacity:1" />
    </text>
    <text
       y="231.36"
       x="729.64"
       font-size="129.23"
       id="text113"
       style="fill:#E3E3E3;fill-opacity:1">
      <tspan
         y="231.36"
         x="729.64"
         id="tspan115"
         style="fill:#E3E3E3;fill-opacity:1" />
    </text>
  </g>
  <text
     transform="scale(4.0128.2492)"
     font-size="46.954"
     y="579.26"
     x="378.91"
     font-family="Arial"
     text-anchor="middle"
     id="text117"
     style="fill:#E3E3E3;fill-opacity:1;" />
  <text
     font-size="129.23"
     y="151.36"
     x="1310.91"
     font-family="'Gentium Book Basic'"
     line-height="125%"
     word-spacing="0"
     letter-spacing="0"
     id="text119"
     style="fill:#E3E3E3;fill-opacity:1;">
    <tspan
       y="151.36"
       x="1310.91"
       id="tspan121"
       style="fill:#E3E3E3;fill-opacity:1;" />
  </text>
  <text
     transform="scale(4.0128.2492)"
     font-size="46.954"
     y="258.22"
     x="523.76"
     font-family="Arial"
     text-anchor="middle"
     id="text123"
     style="fill:#E3E3E3;fill-opacity:1;" />
  <text
     font-size="129.23"
     y="-29.9"
     x="239.33"
     font-family="'Gentium Book Basic'"
     line-height="125%"
     word-spacing="0"
     letter-spacing="0"
     id="text125"
     style="fill:#E3E3E3;fill-opacity:1;">
    <tspan
       y="-29.9"
       x="239.33"
       id="tspan127"
       style="fill:#E3E3E3;fill-opacity:1;" />
  </text>
  <text
     transform="scale(4.0128.2492)"
     font-size="46.954"
     y="-469.13"
     x="256.72"
     font-family="Arial"
     text-anchor="middle"
     id="text129"
     style="fill:#E3E3E3;fill-opacity:1;" />
  <text
     font-size="129.23"
     y="-246.37"
     x="1337.38"
     font-family="'Gentium Book Basic'"
     line-height="125%"
     word-spacing="0"
     letter-spacing="0"
     id="text131"
     style="fill:#E3E3E3;fill-opacity:1;">
    <tspan
       y="-246.37"
       x="1337.38"
       id="tspan133"
       style="fill:#E3E3E3;fill-opacity:1;" />
  </text>
  <text
     transform="scale(4.0128.2492)"
     font-size="46.954"
     y="-1337.8"
     x="530.36"
     font-family="Arial"
     text-anchor="middle"
     id="text135"
     style="fill:#E3E3E3;fill-opacity:1;" />
  <text
     font-size="129.23"
     y="-326.37"
     x="1918.65"
     font-family="'Gentium Book Basic'"
     line-height="125%"
     word-spacing="0"
     letter-spacing="0"
     id="text137"
     style="fill:#E3E3E3;fill-opacity:1;">
    <tspan
       y="-326.37"
       x="1918.65"
       id="tspan139"
       style="fill:#E3E3E3;fill-opacity:1;" />
  </text>
  <text
     transform="scale(4.0128.2492)"
     font-size="46.954"
     y="-1658.83"
     x="675.21"
     font-family="Arial"
     text-anchor="middle"
     id="text141"
     style="fill:#E3E3E3;fill-opacity:1;" />
  <text
     font-size="129.23"
     y="-798.77"
     x="1529.53"
     font-family="'Gentium Book Basic'"
     line-height="125%"
     word-spacing="0"
     letter-spacing="0"
     id="text143"
     style="fill:#E3E3E3;fill-opacity:1;">
    <tspan
       y="-798.77"
       x="1529.53"
       id="tspan145"
       style="fill:#E3E3E3;fill-opacity:1;" />
  </text>
  <text
     transform="scale(4.0128.2492)"
     font-size="46.954"
     y="-3554.48"
     x="578.24"
     font-family="Arial"
     text-anchor="middle"
     id="text147"
     style="fill:#E3E3E3;fill-opacity:1;" />
  <text
     font-size="129.23"
     y="-878.78"
     x="2110.79"
     font-family="'Gentium Book Basic'"
     line-height="125%"
     word-spacing="0"
     letter-spacing="0"
     id="text149"
     style="fill:#E3E3E3;fill-opacity:1;">
    <tspan
       y="-878.78"
       x="2110.79"
       id="tspan151"
       style="fill:#E3E3E3;fill-opacity:1;" />
  </text>
  <text
     transform="scale(4.0128.2492)"
     font-size="46.954"
     y="-3875.52"
     x="723.09"
     font-family="Arial"
     text-anchor="middle"
     id="text153"
     style="fill:#E3E3E3;fill-opacity:1;" />
  <g
     font-family="'Gentium Book Basic'"
     line-height="125%"
     word-spacing="0"
     letter-spacing="0"
     id="g155"
     style="fill:#E3E3E3;fill-opacity:1">
    <text
       y="535.94"
       x="277.99"
       font-size="208.33"
       id="text157"
       style="fill:#E3E3E3;fill-opacity:1">
      <tspan
         y="535.94"
         x="277.99"
         id="tspan159"
         style="fill:#E3E3E3;fill-opacity:1" />
    </text>
    <text
       y="-503.34"
       x="968.53"
       font-size="129.23"
       id="text161"
       style="fill:#E3E3E3;fill-opacity:1">
      <tspan
         y="-503.34"
         x="968.53"
         id="tspan163"
         style="fill:#E3E3E3;fill-opacity:1" />
    </text>
  </g>
  <text
     transform="scale(4.0128.2492)"
     font-size="46.954"
     y="-2368.97"
     x="438.44"
     font-family="Arial"
     text-anchor="middle"
     id="text165"
     style="fill:#E3E3E3;fill-opacity:1;" />
  <text
     font-size="129.23"
     y="-583.34"
     x="1549.8"
     font-family="'Gentium Book Basic'"
     line-height="125%"
     word-spacing="0"
     letter-spacing="0"
     id="text167"
     style="fill:#E3E3E3;fill-opacity:1;">
    <tspan
       y="-583.34"
       x="1549.8"
       id="tspan169"
       style="fill:#E3E3E3;fill-opacity:1;" />
  </text>
  <text
     transform="scale(4.0128.2492)"
     font-size="46.954"
     y="-2690.01"
     x="583.29"
     font-family="Arial"
     text-anchor="middle"
     id="text171"
     style="fill:#E3E3E3;fill-opacity:1;" />
  <text
     font-size="129.23"
     y="-764.6"
     x="478.22"
     font-family="'Gentium Book Basic'"
     line-height="125%"
     word-spacing="0"
     letter-spacing="0"
     id="text173"
     style="fill:#E3E3E3;fill-opacity:1;">
    <tspan
       y="-764.6"
       x="478.22"
       id="tspan175"
       style="fill:#E3E3E3;fill-opacity:1;" />
  </text>
  <text
     transform="scale(4.0128.2492)"
     font-size="46.954"
     y="-3417.36"
     x="316.25"
     font-family="Arial"
     text-anchor="middle"
     id="text177"
     style="fill:#E3E3E3;fill-opacity:1;" />
  <text
     font-size="129.23"
     y="-981.07"
     x="1576.27"
     font-family="'Gentium Book Basic'"
     line-height="125%"
     word-spacing="0"
     letter-spacing="0"
     id="text179"
     style="fill:#E3E3E3;fill-opacity:1;">
    <tspan
       y="-981.07"
       x="1576.27"
       id="tspan181"
       style="fill:#E3E3E3;fill-opacity:1;" />
  </text>
  <text
     transform="scale(4.0128.2492)"
     font-size="46.954"
     y="-4286.02"
     x="589.89"
     font-family="Arial"
     text-anchor="middle"
     id="text183"
     style="fill:#E3E3E3;fill-opacity:1;" />
  <text
     font-size="129.23"
     y="-1061.07"
     x="2157.54"
     font-family="'Gentium Book Basic'"
     line-height="125%"
     word-spacing="0"
     letter-spacing="0"
     id="text185"
     style="fill:#E3E3E3;fill-opacity:1;">
    <tspan
       y="-1061.07"
       x="2157.54"
       id="tspan187"
       style="fill:#E3E3E3;fill-opacity:1;" />
  </text>
  <text
     transform="scale(4.0128.2492)"
     font-size="46.954"
     y="-4607.05"
     x="734.74"
     font-family="Arial"
     text-anchor="middle"
     id="text189"
     style="fill:#E3E3E3;fill-opacity:1;" />
  <text
     font-size="129.23"
     y="-1533.47"
     x="1768.42"
     font-family="'Gentium Book Basic'"
     line-height="125%"
     word-spacing="0"
     letter-spacing="0"
     id="text191"
     style="fill:#E3E3E3;fill-opacity:1;">
    <tspan
       y="-1533.47"
       x="1768.42"
       id="tspan193"
       style="fill:#E3E3E3;fill-opacity:1;" />
  </text>
  <text
     transform="scale(4.0128.2492)"
     font-size="46.954"
     y="-6502.69"
     x="637.77"
     font-family="Arial"
     text-anchor="middle"
     id="text195"
     style="fill:#E3E3E3;fill-opacity:1;" />
  <text
     font-size="129.23"
     y="-1613.48"
     x="2349.68"
     font-family="'Gentium Book Basic'"
     line-height="125%"
     word-spacing="0"
     letter-spacing="0"
     id="text197"
     style="fill:#E3E3E3;fill-opacity:1;">
    <tspan
       y="-1613.48"
       x="2349.68"
       id="tspan199"
       style="fill:#E3E3E3;fill-opacity:1;" />
  </text>
  <text
     transform="scale(4.0128.2492)"
     font-size="46.954"
     y="-6823.73"
     x="782.62"
     font-family="Arial"
     text-anchor="middle"
     id="text201"
     style="fill:#E3E3E3;fill-opacity:1;" />
  <g
     font-family="'Gentium Book Basic'"
     line-height="125%"
     word-spacing="0"
     letter-spacing="0"
     id="g203"
     style="fill:#E3E3E3;fill-opacity:1">
    <text
       y="-198.76"
       x="516.88"
       font-size="208.33"
       id="text205"
       style="fill:#E3E3E3;fill-opacity:1">
      <tspan
         y="-198.76"
         x="516.88"
         id="tspan207"
         style="fill:#E3E3E3;fill-opacity:1" />
    </text>
    <text
       y="231.36"
       x="729.64"
       font-size="129.23"
       id="text209"
       style="fill:#E3E3E3;fill-opacity:1">
      <tspan
         y="231.36"
         x="729.64"
         id="tspan211"
         style="fill:#E3E3E3;fill-opacity:1" />
    </text>
  </g>
  <text
     transform="scale(4.0128.2492)"
     font-size="46.954"
     y="579.26"
     x="378.91"
     font-family="Arial"
     text-anchor="middle"
     id="text213"
     style="fill:#E3E3E3;fill-opacity:1;" />
  <text
     font-size="129.23"
     y="151.36"
     x="1310.91"
     font-family="'Gentium Book Basic'"
     line-height="125%"
     word-spacing="0"
     letter-spacing="0"
     id="text215"
     style="fill:#E3E3E3;fill-opacity:1;">
    <tspan
       y="151.36"
       x="1310.91"
       id="tspan217"
       style="fill:#E3E3E3;fill-opacity:1;" />
  </text>
  <text
     transform="scale(4.0128.2492)"
     font-size="46.954"
     y="258.22"
     x="523.76"
     font-family="Arial"
     text-anchor="middle"
     id="text219"
     style="fill:#E3E3E3;fill-opacity:1;" />
  <text
     font-size="129.23"
     y="-29.9"
     x="239.33"
     font-family="'Gentium Book Basic'"
     line-height="125%"
     word-spacing="0"
     letter-spacing="0"
     id="text221"
     style="fill:#E3E3E3;fill-opacity:1;">
    <tspan
       y="-29.9"
       x="239.33"
       id="tspan223"
       style="fill:#E3E3E3;fill-opacity:1;" />
  </text>
  <text
     transform="scale(4.0128.2492)"
     font-size="46.954"
     y="-469.13"
     x="256.72"
     font-family="Arial"
     text-anchor="middle"
     id="text225"
     style="fill:#E3E3E3;fill-opacity:1;" />
  <text
     font-size="129.23"
     y="-246.37"
     x="1337.38"
     font-family="'Gentium Book Basic'"
     line-height="125%"
     word-spacing="0"
     letter-spacing="0"
     id="text227"
     style="fill:#E3E3E3;fill-opacity:1;">
    <tspan
       y="-246.37"
       x="1337.38"
       id="tspan229"
       style="fill:#E3E3E3;fill-opacity:1;" />
  </text>
  <text
     transform="scale(4.0128.2492)"
     font-size="46.954"
     y="-1337.8"
     x="530.36"
     font-family="Arial"
     text-anchor="middle"
     id="text231"
     style="fill:#E3E3E3;fill-opacity:1;" />
  <text
     font-size="129.23"
     y="-326.37"
     x="1918.65"
     font-family="'Gentium Book Basic'"
     line-height="125%"
     word-spacing="0"
     letter-spacing="0"
     id="text233"
     style="fill:#E3E3E3;fill-opacity:1;">
    <tspan
       y="-326.37"
       x="1918.65"
       id="tspan235"
       style="fill:#E3E3E3;fill-opacity:1;" />
  </text>
  <text
     transform="scale(4.0128.2492)"
     font-size="46.954"
     y="-1658.83"
     x="675.21"
     font-family="Arial"
     text-anchor="middle"
     id="text237"
     style="fill:#E3E3E3;fill-opacity:1;" />
  <text
     font-size="129.23"
     y="-798.77"
     x="1529.53"
     font-family="'Gentium Book Basic'"
     line-height="125%"
     word-spacing="0"
     letter-spacing="0"
     id="text239"
     style="fill:#E3E3E3;fill-opacity:1;">
    <tspan
       y="-798.77"
       x="1529.53"
       id="tspan241"
       style="fill:#E3E3E3;fill-opacity:1;" />
  </text>
  <text
     transform="scale(4.0128.2492)"
     font-size="46.954"
     y="-3554.48"
     x="578.24"
     font-family="Arial"
     text-anchor="middle"
     id="text243"
     style="fill:#E3E3E3;fill-opacity:1;" />
  <text
     font-size="129.23"
     y="-878.78"
     x="2110.79"
     font-family="'Gentium Book Basic'"
     line-height="125%"
     word-spacing="0"
     letter-spacing="0"
     id="text245"
     style="fill:#E3E3E3;fill-opacity:1;">
    <tspan
       y="-878.78"
       x="2110.79"
       id="tspan247"
       style="fill:#E3E3E3;fill-opacity:1;" />
  </text>
  <text
     transform="scale(4.0128.2492)"
     font-size="46.954"
     y="-3875.52"
     x="723.09"
     font-family="Arial"
     text-anchor="middle"
     id="text249"
     style="fill:#E3E3E3;fill-opacity:1;" />
  <g
     font-family="'Gentium Book Basic'"
     line-height="125%"
     word-spacing="0"
     letter-spacing="0"
     id="g251"
     style="fill:#E3E3E3;fill-opacity:1">
    <text
       y="535.94"
       x="277.99"
       font-size="208.33"
       id="text253"
       style="fill:#E3E3E3;fill-opacity:1">
      <tspan
         y="535.94"
         x="277.99"
         id="tspan255"
         style="fill:#E3E3E3;fill-opacity:1" />
    </text>
    <text
       y="231.36"
       x="729.64"
       font-size="129.23"
       id="text257"
       style="fill:#E3E3E3;fill-opacity:1">
      <tspan
         y="231.36"
         x="729.64"
         id="tspan259"
         style="fill:#E3E3E3;fill-opacity:1" />
    </text>
  </g>
  <text
     transform="scale(4.0128.2492)"
     font-size="46.954"
     y="579.26"
     x="378.91"
     font-family="Arial"
     text-anchor="middle"
     id="text261"
     style="fill:#E3E3E3;fill-opacity:1;" />
  <text
     font-size="129.23"
     y="151.36"
     x="1310.91"
     font-family="'Gentium Book Basic'"
     line-height="125%"
     word-spacing="0"
     letter-spacing="0"
     id="text263"
     style="fill:#E3E3E3;fill-opacity:1;">
    <tspan
       y="151.36"
       x="1310.91"
       id="tspan265"
       style="fill:#E3E3E3;fill-opacity:1;" />
  </text>
  <text
     transform="scale(4.0128.2492)"
     font-size="46.954"
     y="258.22"
     x="523.76"
     font-family="Arial"
     text-anchor="middle"
     id="text267"
     style="fill:#E3E3E3;fill-opacity:1;" />
  <text
     font-size="129.23"
     y="-29.9"
     x="239.33"
     font-family="'Gentium Book Basic'"
     line-height="125%"
     word-spacing="0"
     letter-spacing="0"
     id="text269"
     style="fill:#E3E3E3;fill-opacity:1;">
    <tspan
       y="-29.9"
       x="239.33"
       id="tspan271"
       style="fill:#E3E3E3;fill-opacity:1;" />
  </text>
  <text
     transform="scale(4.0128.2492)"
     font-size="46.954"
     y="-469.13"
     x="256.72"
     font-family="Arial"
     text-anchor="middle"
     id="text273"
     style="fill:#E3E3E3;fill-opacity:1;" />
  <text
     font-size="129.23"
     y="-246.37"
     x="1337.38"
     font-family="'Gentium Book Basic'"
     line-height="125%"
     word-spacing="0"
     letter-spacing="0"
     id="text275"
     style="fill:#E3E3E3;fill-opacity:1;">
    <tspan
       y="-246.37"
       x="1337.38"
       id="tspan277"
       style="fill:#E3E3E3;fill-opacity:1;" />
  </text>
  <text
     transform="scale(4.0128.2492)"
     font-size="46.954"
     y="-1337.8"
     x="530.36"
     font-family="Arial"
     text-anchor="middle"
     id="text279"
     style="fill:#E3E3E3;fill-opacity:1;" />
  <text
     font-size="129.23"
     y="-326.37"
     x="1918.65"
     font-family="'Gentium Book Basic'"
     line-height="125%"
     word-spacing="0"
     letter-spacing="0"
     id="text281"
     style="fill:#E3E3E3;fill-opacity:1;">
    <tspan
       y="-326.37"
       x="1918.65"
       id="tspan283"
       style="fill:#E3E3E3;fill-opacity:1;" />
  </text>
  <text
     transform="scale(4.0128.2492)"
     font-size="46.954"
     y="-1658.83"
     x="675.21"
     font-family="Arial"
     text-anchor="middle"
     id="text285"
     style="fill:#E3E3E3;fill-opacity:1;" />
  <text
     font-size="129.23"
     y="-798.77"
     x="1529.53"
     font-family="'Gentium Book Basic'"
     line-height="125%"
     word-spacing="0"
     letter-spacing="0"
     id="text287"
     style="fill:#E3E3E3;fill-opacity:1;">
    <tspan
       y="-798.77"
       x="1529.53"
       id="tspan289"
       style="fill:#E3E3E3;fill-opacity:1;" />
  </text>
  <text
     transform="scale(4.0128.2492)"
     font-size="46.954"
     y="-3554.48"
     x="578.24"
     font-family="Arial"
     text-anchor="middle"
     id="text291"
     style="fill:#E3E3E3;fill-opacity:1;" />
  <text
     font-size="129.23"
     y="-878.78"
     x="2110.79"
     font-family="'Gentium Book Basic'"
     line-height="125%"
     word-spacing="0"
     letter-spacing="0"
     id="text293"
     style="fill:#E3E3E3;fill-opacity:1;">
    <tspan
       y="-878.78"
       x="2110.79"
       id="tspan295"
       style="fill:#E3E3E3;fill-opacity:1;" />
  </text>
  <text
     transform="scale(4.0128.2492)"
     font-size="46.954"
     y="-3875.52"
     x="723.09"
     font-family="Arial"
     text-anchor="middle"
     id="text297"
     style="fill:#E3E3E3;fill-opacity:1;" />
  <g
     font-family="'Gentium Book Basic'"
     line-height="125%"
     word-spacing="0"
     letter-spacing="0"
     id="g299"
     style="fill:#E3E3E3;fill-opacity:1">
    <text
       y="535.94"
       x="277.99"
       font-size="208.33"
       id="text301"
       style="fill:#E3E3E3;fill-opacity:1">
      <tspan
         y="535.94"
         x="277.99"
         id="tspan303"
         style="fill:#E3E3E3;fill-opacity:1" />
    </text>
    <text
       y="231.36"
       x="729.64"
       font-size="129.23"
       id="text305"
       style="fill:#E3E3E3;fill-opacity:1">
      <tspan
         y="231.36"
         x="729.64"
         id="tspan307"
         style="fill:#E3E3E3;fill-opacity:1" />
    </text>
  </g>
  <text
     transform="scale(4.0128.2492)"
     font-size="46.954"
     y="579.26"
     x="378.91"
     font-family="Arial"
     text-anchor="middle"
     id="text309"
     style="fill:#E3E3E3;fill-opacity:1;" />
  <text
     font-size="129.23"
     y="151.36"
     x="1310.91"
     font-family="'Gentium Book Basic'"
     line-height="125%"
     word-spacing="0"
     letter-spacing="0"
     id="text311"
     style="fill:#E3E3E3;fill-opacity:1;">
    <tspan
       y="151.36"
       x="1310.91"
       id="tspan313"
       style="fill:#E3E3E3;fill-opacity:1;" />
  </text>
  <text
     transform="scale(4.0128.2492)"
     font-size="46.954"
     y="258.22"
     x="523.76"
     font-family="Arial"
     text-anchor="middle"
     id="text315"
     style="fill:#E3E3E3;fill-opacity:1;" />
  <text
     font-size="129.23"
     y="-29.9"
     x="239.33"
     font-family="'Gentium Book Basic'"
     line-height="125%"
     word-spacing="0"
     letter-spacing="0"
     id="text317"
     style="fill:#E3E3E3;fill-opacity:1;">
    <tspan
       y="-29.9"
       x="239.33"
       id="tspan319"
       style="fill:#E3E3E3;fill-opacity:1;" />
  </text>
  <text
     transform="scale(4.0128.2492)"
     font-size="46.954"
     y="-469.13"
     x="256.72"
     font-family="Arial"
     text-anchor="middle"
     id="text321"
     style="fill:#E3E3E3;fill-opacity:1;" />
  <text
     font-size="129.23"
     y="-246.37"
     x="1337.38"
     font-family="'Gentium Book Basic'"
     line-height="125%"
     word-spacing="0"
     letter-spacing="0"
     id="text323"
     style="fill:#E3E3E3;fill-opacity:1;">
    <tspan
       y="-246.37"
       x="1337.38"
       id="tspan325"
       style="fill:#E3E3E3;fill-opacity:1;" />
  </text>
  <text
     transform="scale(4.0128.2492)"
     font-size="46.954"
     y="-1337.8"
     x="530.36"
     font-family="Arial"
     text-anchor="middle"
     id="text327"
     style="fill:#E3E3E3;fill-opacity:1;" />
  <text
     font-size="129.23"
     y="-326.37"
     x="1918.65"
     font-family="'Gentium Book Basic'"
     line-height="125%"
     word-spacing="0"
     letter-spacing="0"
     id="text329"
     style="fill:#E3E3E3;fill-opacity:1;">
    <tspan
       y="-326.37"
       x="1918.65"
       id="tspan331"
       style="fill:#E3E3E3;fill-opacity:1;" />
  </text>
  <text
     transform="scale(4.0128.2492)"
     font-size="46.954"
     y="-1658.83"
     x="675.21"
     font-family="Arial"
     text-anchor="middle"
     id="text333"
     style="fill:#E3E3E3;fill-opacity:1;" />
  <text
     font-size="129.23"
     y="-798.77"
     x="1529.53"
     font-family="'Gentium Book Basic'"
     line-height="125%"
     word-spacing="0"
     letter-spacing="0"
     id="text335"
     style="fill:#E3E3E3;fill-opacity:1;">
    <tspan
       y="-798.77"
       x="1529.53"
       id="tspan337"
       style="fill:#E3E3E3;fill-opacity:1;" />
  </text>
  <text
     transform="scale(4.0128.2492)"
     font-size="46.954"
     y="-3554.48"
     x="578.24"
     font-family="Arial"
     text-anchor="middle"
     id="text339"
     style="fill:#E3E3E3;fill-opacity:1;" />
  <text
     font-size="129.23"
     y="-878.78"
     x="2110.79"
     font-family="'Gentium Book Basic'"
     line-height="125%"
     word-spacing="0"
     letter-spacing="0"
     id="text341"
     style="fill:#E3E3E3;fill-opacity:1;">
    <tspan
       y="-878.78"
       x="2110.79"
       id="tspan343"
       style="fill:#E3E3E3;fill-opacity:1;" />
  </text>
  <text
     transform="scale(4.0128.2492)"
     font-size="46.954"
     y="-3875.52"
     x="723.09"
     font-family="Arial"
     text-anchor="middle"
     id="text345"
     style="fill:#E3E3E3;fill-opacity:1;" />
  <text
     font-size="208.33"
     y="535.94"
     x="277.99"
     font-family="'Gentium Book Basic'"
     line-height="125%"
     word-spacing="0"
     letter-spacing="0"
     id="text347"
     style="fill:#E3E3E3;fill-opacity:1;">
    <tspan
       y="535.94"
       x="277.99"
       id="tspan349"
       style="fill:#E3E3E3;fill-opacity:1;" />
  </text>
  <path
     style="fill:#E3E3E3;fill-opacity:1;stroke:#E3E3E3;stroke-opacity:1"
     d="M 253.05078 34.150391 C 132.16078 34.150391 34.150391 132.15078 34.150391 253.05078 C 34.150391 373.94078 132.15078 471.94922 253.05078 471.94922 C 373.94078 471.94922 471.94922 373.95078 471.94922 253.05078 C 471.94922 132.16078 373.95078 34.150391 253.05078 34.150391 z M 78.810547 120.56055 L 78.810547 120.56641 C 126.88055 185.21641 184.02039 227.58855 247.15039 250.43555 C 315.75039 275.26055 391.88814 277.06155 471.86914 257.68555 C 471.68214 266.68455 470.95684 275.54805 469.71484 284.24805 C 388.55484 302.54005 310.01414 300.19255 238.49414 274.31055 C 172.89414 250.57055 113.5903 207.0618 63.904297 142.8418 C 68.425297 135.0998 73.403547 127.65955 78.810547 120.56055 z "
     id="path351" />
  <text
     font-size="129.23"
     y="231.36"
     x="729.64"
     font-family="'Gentium Book Basic'"
     line-height="125%"
     word-spacing="0"
     letter-spacing="0"
     id="text369"
     style="fill:#E3E3E3;fill-opacity:1;">
    <tspan
       y="231.36"
       x="729.64"
       id="tspan371"
       style="fill:#E3E3E3;fill-opacity:1;" />
  </text>
  <text
     transform="scale(4.0128.2492)"
     font-size="46.954"
     y="579.26"
     x="378.91"
     font-family="Arial"
     text-anchor="middle"
     id="text373"
     style="fill:#E3E3E3;fill-opacity:1;" />
  <text
     font-size="129.23"
     y="151.36"
     x="1310.91"
     font-family="'Gentium Book Basic'"
     line-height="125%"
     word-spacing="0"
     letter-spacing="0"
     id="text375"
     style="fill:#E3E3E3;fill-opacity:1;">
    <tspan
       y="151.36"
       x="1310.91"
       id="tspan377"
       style="fill:#E3E3E3;fill-opacity:1;" />
  </text>
  <text
     transform="scale(4.0128.2492)"
     font-size="46.954"
     y="258.22"
     x="523.76"
     font-family="Arial"
     text-anchor="middle"
     id="text379"
     style="fill:#E3E3E3;fill-opacity:1;" />
  <text
     font-size="129.23"
     y="-29.9"
     x="239.33"
     font-family="'Gentium Book Basic'"
     line-height="125%"
     word-spacing="0"
     letter-spacing="0"
     id="text381"
     style="fill:#E3E3E3;fill-opacity:1;">
    <tspan
       y="-29.9"
       x="239.33"
       id="tspan383"
       style="fill:#E3E3E3;fill-opacity:1;" />
  </text>
  <text
     transform="scale(4.0128.2492)"
     font-size="46.954"
     y="-469.13"
     x="256.72"
     font-family="Arial"
     text-anchor="middle"
     id="text385"
     style="fill:#E3E3E3;fill-opacity:1;" />
  <text
     font-size="129.23"
     y="-246.37"
     x="1337.38"
     font-family="'Gentium Book Basic'"
     line-height="125%"
     word-spacing="0"
     letter-spacing="0"
     id="text387"
     style="fill:#E3E3E3;fill-opacity:1;">
    <tspan
       y="-246.37"
       x="1337.38"
       id="tspan389"
       style="fill:#E3E3E3;fill-opacity:1;" />
  </text>
  <text
     transform="scale(4.0128.2492)"
     font-size="46.954"
     y="-1337.8"
     x="530.36"
     font-family="Arial"
     text-anchor="middle"
     id="text391"
     style="fill:#E3E3E3;fill-opacity:1;" />
  <text
     font-size="129.23"
     y="-326.37"
     x="1918.65"
     font-family="'Gentium Book Basic'"
     line-height="125%"
     word-spacing="0"
     letter-spacing="0"
     id="text393"
     style="fill:#E3E3E3;fill-opacity:1;">
    <tspan
       y="-326.37"
       x="1918.65"
       id="tspan395"
       style="fill:#E3E3E3;fill-opacity:1;" />
  </text>
  <text
     transform="scale(4.0128.2492)"
     font-size="46.954"
     y="-1658.83"
     x="675.21"
     font-family="Arial"
     text-anchor="middle"
     id="text397"
     style="fill:#E3E3E3;fill-opacity:1;" />
  <text
     font-size="129.23"
     y="-798.77"
     x="1529.53"
     font-family="'Gentium Book Basic'"
     line-height="125%"
     word-spacing="0"
     letter-spacing="0"
     id="text399"
     style="fill:#E3E3E3;fill-opacity:1;">
    <tspan
       y="-798.77"
       x="1529.53"
       id="tspan401"
       style="fill:#E3E3E3;fill-opacity:1;" />
  </text>
  <text
     transform="scale(4.0128.2492)"
     font-size="46.954"
     y="-3554.48"
     x="578.24"
     font-family="Arial"
     text-anchor="middle"
     id="text403"
     style="fill:#E3E3E3;fill-opacity:1;" />
  <text
     font-size="129.23"
     y="-878.78"
     x="2110.79"
     font-family="'Gentium Book Basic'"
     line-height="125%"
     word-spacing="0"
     letter-spacing="0"
     id="text405"
     style="fill:#E3E3E3;fill-opacity:1;">
    <tspan
       y="-878.78"
       x="2110.79"
       id="tspan407"
       style="fill:#E3E3E3;fill-opacity:1;" />
  </text>
  <text
     transform="scale(4.0128.2492)"
     font-size="46.954"
     y="-3875.52"
     x="723.09"
     font-family="Arial"
     text-anchor="middle"
     id="text409"
     style="fill:#E3E3E3;fill-opacity:1;" />
  <text
     font-size="208.33"
     y="535.94"
     x="277.99"
     font-family="'Gentium Book Basic'"
     line-height="125%"
     word-spacing="0"
     letter-spacing="0"
     id="text411"
     style="fill:#E3E3E3;fill-opacity:1;">
    <tspan
       y="535.94"
       x="277.99"
       id="tspan413"
       style="fill:#E3E3E3;fill-opacity:1;" />
  </text>
</svg>
