<?xml version="1.0" encoding="UTF-8" standalone="no"?>
<svg
   xmlns:dc="http://purl.org/dc/elements/1.1/"
   xmlns:cc="http://creativecommons.org/ns#"
   xmlns:rdf="http://www.w3.org/1999/02/22-rdf-syntax-ns#"
   xmlns:svg="http://www.w3.org/2000/svg"
   xmlns="http://www.w3.org/2000/svg"
   xmlns:sodipodi="http://sodipodi.sourceforge.net/DTD/sodipodi-0.dtd"
   xmlns:inkscape="http://www.inkscape.org/namespaces/inkscape"
   height="512"
   viewBox="0 0 512 512"
   width="512"
   version="1.1"
   id="svg2"
   inkscape:version="0.91 r"
   sodipodi:docname="defcon.svg">
  <defs
     id="defs22" />
  <sodipodi:namedview
     pagecolor="#ffffff"
     bordercolor="#666666"
     borderopacity="1"
     objecttolerance="10"
     gridtolerance="10"
     guidetolerance="10"
     inkscape:pageopacity="0"
     inkscape:pageshadow="2"
     inkscape:window-width="1920"
     inkscape:window-height="1028"
     id="namedview20"
     showgrid="false"
     inkscape:zoom="0.4609375"
     inkscape:cx="-610.71187"
     inkscape:cy="256"
     inkscape:window-x="0"
     inkscape:window-y="0"
     inkscape:window-maximized="1"
     inkscape:current-layer="svg2" />
  <metadata
     id="metadata94">
    <rdf:RDF>
      <cc:Work
         rdf:about="">
        <dc:format>image/svg+xml</dc:format>
        <dc:type
           rdf:resource="http://purl.org/dc/dcmitype/StillImage" />
      </cc:Work>
    </rdf:RDF>
  </metadata>
  <path
     style="color:#000000;fill:#E3E3E3;fill-opacity:1"
     d="M 251.40625 89.544922 A 166.89 166.89 0 0 0 171.91016 111.84961 A 166.89 166.89 0 0 0 338.80078 400.90039 A 166.89 166.89 0 0 0 402.25 177.19922 A 166.89 166.89 0 0 0 251.40625 89.544922 z M 255.37891 116.37695 C 279.56141 116.36783 303.74344 122.60978 325.39844 135.11328 L 325.39453 135.11914 C 325.39656 135.12031 325.39836 135.12187 325.40039 135.12305 L 276.80078 219.16992 C 263.92378 211.77492 247.61908 211.13961 233.83008 219.09961 L 185.36133 135.15625 L 185.36328 135.15625 L 185.35742 135.14648 C 207.01242 122.64648 231.19641 116.38608 255.37891 116.37695 z M 255.93555 229.45898 C 256.31502 229.4674 256.69223 229.49513 257.07031 229.51953 C 257.13286 229.52358 257.19531 229.52677 257.25781 229.53125 C 257.62362 229.55742 257.98762 229.59375 258.35156 229.63477 C 258.44929 229.64579 258.54696 229.65783 258.64453 229.66992 C 259.0267 229.71723 259.40768 229.77044 259.78711 229.83398 C 259.78901 229.8343 259.79106 229.83366 259.79297 229.83398 C 259.80015 229.83519 259.80728 229.83668 259.81445 229.83789 C 261.02181 230.04136 262.21295 230.32856 263.38086 230.69336 C 263.47799 230.72371 263.57509 230.75371 263.67188 230.78516 C 264.03052 230.90164 264.38657 231.02478 264.74023 231.15625 C 264.75067 231.16013 264.76105 231.16408 264.77148 231.16797 C 264.79855 231.17807 264.82453 231.19099 264.85156 231.20117 C 265.98424 231.62798 267.08851 232.13106 268.1582 232.70898 C 268.22718 232.74626 268.29656 232.78242 268.36523 232.82031 C 268.7038 233.00707 269.03819 233.20065 269.36914 233.40234 C 269.42081 233.43384 269.47196 233.46619 269.52344 233.49805 C 270.5509 234.13381 271.53673 234.84147 272.47852 235.61914 C 272.53675 235.66722 272.59643 235.7131 272.6543 235.76172 C 272.9497 236.00989 273.23971 236.26535 273.52539 236.52734 C 273.58442 236.58147 273.64257 236.63669 273.70117 236.69141 C 274.60241 237.53296 275.45119 238.44399 276.24219 239.42188 C 276.27891 239.46727 276.31705 239.51096 276.35352 239.55664 C 276.58647 239.84851 276.81292 240.14758 277.03516 240.45117 C 277.11521 240.5605 277.19482 240.67041 277.27344 240.78125 C 277.49327 241.09123 277.70961 241.40486 277.91797 241.72656 C 277.92053 241.73052 277.92322 241.73432 277.92578 241.73828 C 277.94065 241.76127 277.95394 241.78555 277.96875 241.80859 C 278.20196 242.17146 278.43625 242.53264 278.6543 242.91016 C 282.60308 249.74947 283.21687 257.60541 280.99414 264.58203 C 280.99308 264.58536 280.99129 264.58847 280.99023 264.5918 C 280.86039 264.9988 280.72132 265.4021 280.57227 265.80273 C 280.57104 265.80602 280.56958 265.80921 280.56836 265.8125 C 280.41915 266.21308 280.26002 266.61046 280.0918 267.00391 C 280.09042 267.00713 280.08927 267.01045 280.08789 267.01367 C 279.91951 267.40707 279.74188 267.79808 279.55469 268.18359 C 279.55342 268.18621 279.55205 268.18879 279.55078 268.19141 C 279.3632 268.57739 279.16718 268.95862 278.96094 269.33594 C 278.93816 269.37765 278.91168 269.41738 278.88867 269.45898 C 276.60477 273.58888 273.20739 277.16955 268.82227 279.70117 C 255.94827 287.13417 239.45548 282.7128 232.02148 269.8418 C 228.3031 263.40154 227.55613 256.06426 229.34961 249.4082 C 229.46058 248.99573 229.58056 248.58461 229.71094 248.17773 C 229.71201 248.1744 229.71377 248.1713 229.71484 248.16797 C 230.08299 247.02217 230.53175 245.90237 231.05078 244.8125 C 231.08747 244.73538 231.12077 244.65688 231.1582 244.58008 C 231.15973 244.57694 231.16058 244.57345 231.16211 244.57031 C 231.27294 244.34316 231.39441 244.12069 231.51172 243.89648 C 231.59513 243.73723 231.67311 243.57567 231.75977 243.41797 C 231.77898 243.38296 231.80093 243.34938 231.82031 243.31445 C 234.11251 239.18252 237.51757 235.59813 241.90625 233.06445 C 242.1143 232.94433 242.32725 232.84246 242.53711 232.72852 C 242.77617 232.59878 243.0146 232.46748 243.25586 232.3457 C 243.52839 232.20807 243.803 232.07869 244.07812 231.95117 C 244.29493 231.85073 244.51218 231.75436 244.73047 231.66016 C 245.00586 231.54125 245.28104 231.42152 245.55859 231.3125 C 245.84851 231.1987 246.14157 231.09528 246.43359 230.99219 C 246.85433 230.84359 247.27669 230.7066 247.70117 230.58008 C 247.91719 230.51571 248.13277 230.45127 248.34961 230.39258 C 248.65373 230.31022 248.95817 230.23336 249.26367 230.16211 C 249.44695 230.11939 249.63076 230.08171 249.81445 230.04297 C 250.44618 229.90964 251.07974 229.79964 251.71484 229.71289 C 251.82752 229.69751 251.93999 229.67798 252.05273 229.66406 C 252.38536 229.62294 252.71785 229.59298 253.05078 229.56445 C 253.21361 229.55052 253.37622 229.53828 253.53906 229.52734 C 253.88248 229.50424 254.22518 229.48447 254.56836 229.47461 C 254.67905 229.47145 254.78975 229.47249 254.90039 229.4707 C 255.24557 229.46506 255.59112 229.45135 255.93555 229.45898 z M 212.4043 256.33008 C 212.40429 256.33138 212.4043 256.33268 212.4043 256.33398 L 212.4082 256.33398 L 212.41016 256.33984 C 212.39953 260.92609 213.06565 265.54847 214.52734 270.0332 C 214.81849 270.92541 215.13909 271.81143 215.49414 272.69141 C 215.496 272.69603 215.49814 272.70046 215.5 272.70508 C 215.677 273.1433 215.86149 273.58097 216.05469 274.01562 C 216.05646 274.01962 216.05877 274.02335 216.06055 274.02734 C 216.25367 274.46149 216.45455 274.89394 216.66406 275.32422 C 216.66624 275.32869 216.66774 275.33342 216.66992 275.33789 C 216.87963 275.76817 217.09984 276.19503 217.32617 276.62109 C 217.55484 277.05155 217.79123 277.48044 218.03711 277.90625 C 221.97011 284.71925 227.56569 289.95542 233.92969 293.60742 L 233.92578 293.61523 C 233.92907 293.61712 233.93226 293.61921 233.93555 293.62109 L 185.27734 377.65234 C 141.96734 352.65234 115.28711 306.43184 115.28711 256.42188 L 115.29297 256.42188 L 115.29297 256.41797 L 212.4043 256.33008 z M 395.38477 256.33789 L 395.39062 256.33984 L 395.39062 256.35352 C 395.39047 257.91174 395.36426 259.46719 395.3125 261.01758 C 395.31235 261.02212 395.31265 261.02671 395.3125 261.03125 C 395.26059 262.5816 395.18299 264.12651 395.08008 265.66797 C 391.98804 312.05301 365.94889 354.17349 325.3418 377.61328 L 276.89062 293.70312 C 276.89266 293.70195 276.89445 293.7004 276.89648 293.69922 L 276.89062 293.68945 C 289.815 286.22789 297.30485 273.0726 298.21875 259.21875 C 298.27938 258.2997 298.31205 257.37687 298.31445 256.45312 C 298.31446 256.44856 298.31444 256.44401 298.31445 256.43945 L 395.38477 256.33789 z "
     id="path90" />
</svg>
