<?xml version="1.0" encoding="UTF-8" standalone="no"?>
<svg
   xmlns:dc="http://purl.org/dc/elements/1.1/"
   xmlns:cc="http://creativecommons.org/ns#"
   xmlns:rdf="http://www.w3.org/1999/02/22-rdf-syntax-ns#"
   xmlns:svg="http://www.w3.org/2000/svg"
   xmlns="http://www.w3.org/2000/svg"
   xmlns:sodipodi="http://sodipodi.sourceforge.net/DTD/sodipodi-0.dtd"
   xmlns:inkscape="http://www.inkscape.org/namespaces/inkscape"
   height="512"
   viewBox="0 0 512 512"
   width="512"
   version="1.1"
   id="svg2"
   inkscape:version="0.91 r"
   sodipodi:docname="desura.svg">
  <defs
     id="defs16" />
  <sodipodi:namedview
     pagecolor="#ffffff"
     bordercolor="#666666"
     borderopacity="1"
     objecttolerance="10"
     gridtolerance="10"
     guidetolerance="10"
     inkscape:pageopacity="0"
     inkscape:pageshadow="2"
     inkscape:window-width="640"
     inkscape:window-height="480"
     id="namedview14"
     showgrid="false"
     inkscape:zoom="0.4609375"
     inkscape:cx="256"
     inkscape:cy="256"
     inkscape:window-x="0"
     inkscape:window-y="0"
     inkscape:window-maximized="0"
     inkscape:current-layer="svg2" />
  <metadata
     id="metadata72">
    <rdf:RDF>
      <cc:Work
         rdf:about="">
        <dc:format>image/svg+xml</dc:format>
        <dc:type
           rdf:resource="http://purl.org/dc/dcmitype/StillImage" />
      </cc:Work>
    </rdf:RDF>
  </metadata>
  <path
     id="path66"
     fill="#E3E3E3"
     d="m244.05 116.79c-0.273-0.124-12.959 10.537-28.23 23.806-22.11 19.216-28.18 24.15-29.587 24.15-0.974-0.001-16.655-1.475-35.03-3.402-18.373-1.927-33.521-3.377-33.668-3.231-0.29 0.294-25.666 84.21-26.02 86.04-0.15 0.786 10.01 9.796 34.858 30.946l35.03 29.757h12.583c6.895 0 13.799-0.286 15.474-0.487l3.061-0.332-36.899-30.606c-20.308-16.797-36.878-30.939-36.899-31.458-0.021-0.502 3.431-11.396 7.652-24.316s8.422-26.308 9.522-29.756c1.985-6.221 2.037-6.316 4.081-6.292 1.133 0 14.584 1.517 29.757 3.401l27.546 3.401 21.595-18.534c11.878-10.262 22.367-19.384 23.295-20.237l1.7-1.529 17 14.622c9.326 8.07 19.759 17.193 23.295 20.236l6.462 5.442 29.417-3.572c16.2-2 29.483-3.595 29.587-3.401 0.332 0.611 19.725 60.3 19.725 60.705 0 0.216-16.689 14.213-37.07 31.12l-37.07 30.777 3.231 0.332c1.727 0.216 8.673 0.471 15.474 0.487l12.413 0.162 34.858-29.762c19.19-16.307 34.931-29.864 35.03-30.26 0.146-0.603-25.386-86.6-25.846-87.06-0.079-0.124-15.292 1.454-33.838 3.401-18.545 1.941-34.418 3.501-35.37 3.4-1.217-0.139-9.95-7.221-29.25-23.978-15.07-13.08-27.614-23.876-27.887-23.971zm-0.34 51.863-15.644 15.814-15.474 15.984v13.774c-0.048 21.635 2.442 39.999 7.482 55.6 4.633 14.347 10.04 23.972 18.19 32.14 2.738 2.739 5.127 4.93 5.441 4.93 1.264 0 7.813-6.453 11.223-11.05 5.071-6.841 9.328-15.244 12.583-25.17 5.282-16.11 7.349-30.15 7.822-53.39l0.34-16.834-15.984-15.984-15.984-15.814m95.9 32.31c-0.16-0.155-9.249 0.778-20.235 2.041-10.986 1.253-20.374 2.38-20.745 2.38-0.435 0-0.68 2.958-0.68 8.333 0 28.319-10.19 62.45-25.336 85.02-3.509 5.228-3.85 6.214-2.381 5.272 9.81-6.303 79.7-65.42 79.41-67.17-0.318-1.914-9.734-35.577-10.03-35.879m-191.46 0.332c-0.263 0.286-2.579 8.63-5.271 18.531l-4.931 17.857 1.7 1.701c16.413 14.37 61.45 52.09 72.1 60.36 3.693 2.868 6.867 5.03 6.972 4.928 0.105-0.124-1.601-2.948-3.911-6.461-14.835-22.539-23.733-52.12-25.17-83.66-0.233-5.111-0.641-9.181-0.85-9.181s-9.305-1.132-20.235-2.383c-10.93-1.249-20.14-1.979-20.405-1.695zm59 115.96-37.07 0.155 36.899 18.873c20.224 10.322 36.879 18.602 37.07 18.534 0.19-0.124 16.873-8.448 37.07-18.704l36.729-18.702-36.899-0.155c-20.298-0.108-53.49-0.108-73.8 0.006z" />
</svg>
