<?xml version="1.0" encoding="UTF-8" standalone="no"?>
<svg
   xmlns:dc="http://purl.org/dc/elements/1.1/"
   xmlns:cc="http://creativecommons.org/ns#"
   xmlns:rdf="http://www.w3.org/1999/02/22-rdf-syntax-ns#"
   xmlns:svg="http://www.w3.org/2000/svg"
   xmlns="http://www.w3.org/2000/svg"
   xmlns:sodipodi="http://sodipodi.sourceforge.net/DTD/sodipodi-0.dtd"
   xmlns:inkscape="http://www.inkscape.org/namespaces/inkscape"
   height="512"
   viewBox="0 0 512 512"
   width="512"
   version="1.1"
   id="svg2"
   inkscape:version="0.91 r13725"
   sodipodi:docname="distributor-logo-elementaryos.svg">
  <defs
     id="defs17" />
  <sodipodi:namedview
     pagecolor="#ffffff"
     bordercolor="#666666"
     borderopacity="1"
     objecttolerance="10"
     gridtolerance="10"
     guidetolerance="10"
     inkscape:pageopacity="0"
     inkscape:pageshadow="2"
     inkscape:window-width="1920"
     inkscape:window-height="1022"
     id="namedview15"
     showgrid="false"
     inkscape:zoom="0.9099002"
     inkscape:cx="98.571825"
     inkscape:cy="208.92512"
     inkscape:window-x="0"
     inkscape:window-y="0"
     inkscape:window-maximized="1"
     inkscape:current-layer="svg2" />
  <metadata
     id="metadata28">
    <rdf:RDF>
      <cc:Work
         rdf:about="">
        <dc:format>image/svg+xml</dc:format>
        <dc:type
           rdf:resource="http://purl.org/dc/dcmitype/StillImage" />
        <dc:title></dc:title>
      </cc:Work>
    </rdf:RDF>
  </metadata>
  <g
     transform="matrix(0.57753037,0,0,0.57753037,26.158915,-128.52417)"
     style="fill:#E3E3E3;fill-opacity:1"
     id="g23">
    <path
       d="M 400,100 C 234.31,100 100,234.31 100,400 100,565.69 234.31,700 400,700 565.69,700 700,565.69 700,400 700,234.31 565.69,100 400,100 Z m 0,25 c 125.97,0 232.15,84.7 264.72,200.25 -28.05,57.852 -67.959,109.94 -116.56,152.03 -23.349,20.22 -48.841,38.25 -77,50.938 -28.16,12.692 -59.13,19.893 -89.97,18.13 -23.17,-1.329 -46.05,-7.782 -66.34,-19.03 53.77,-29.14 102.29,-67.983 142,-114.5 26.07,-30.533 48.875,-65.23 57.656,-104.41 4.391,-19.587 5.135,-40.1 1.031,-59.75 -4.104,-19.649 -13.189,-38.37 -26.938,-53 -13.432,-14.288 -31.06,-24.41 -49.969,-29.625 -18.904,-5.215 -39.02,-5.619 -58.31,-2.094 -38.582,7.05 -73.03,29.474 -100.66,57.31 -48.698,49.07 -78.8,118.31 -73.28,187.22 2.761,34.456 14.308,68.31 34.09,96.66 4.417,6.327 9.272,12.353 14.469,18.06 -28.824,10.09 -58.669,17.268 -88.94,21.313 -25.988,-41.993 -41,-91.49 -41,-144.5 0,-151.88 123.12,-275 275,-275 z m 1.75,55.56 c 19.331,0.026 38.794,5.879 54.22,17.531 13.897,10.499 24.19,25.434 30.03,41.844 5.837,16.409 7.335,34.23 5.344,51.53 -3.983,34.605 -21.44,66.34 -42.531,94.06 -37.34,49.09 -86.982,88.37 -142.19,115.88 -5.651,2.815 -11.391,5.491 -17.16,8.06 -12.01,-10.512 -22.308,-22.98 -30.16,-36.875 -16.399,-29.03 -21.807,-63.53 -18.625,-96.72 3.182,-33.19 14.573,-65.19 29.875,-94.81 17.742,-34.35 41.926,-66.89 75.78,-85.56 16.927,-9.336 36.07,-14.964 55.41,-14.938 z m 270.78,182.63 c 1.611,12.04 2.469,24.329 2.469,36.813 0,151.88 -123.12,275 -275,275 -85.3,0 -161.53,-38.83 -211.97,-99.78 31.13,-7.07 61.56,-17.228 90.75,-30.16 12.764,9.72 26.86,17.693 41.844,23.438 43.15,16.543 92.14,14.15 135.81,-0.969 43.671,-15.12 82.4,-42.25 116.16,-73.813 40.22,-37.595 74.12,-81.907 99.94,-130.53 z"
       transform="translate(0,252.36218)"
       style="fill:#E3E3E3;stroke:none"
       id="path25"
       inkscape:connector-curvature="0" />
  </g>
</svg>
