<svg xmlns="http://www.w3.org/2000/svg" width="48" height="48">
<defs>
<defs
     id="defs5">
  </defs>
  <path
     d="M 6.8688525,5.6074112 C 4.1784756,5.6074112 2,7.7558321 2,10.446209 l 0,26.778689 c 0,2.690376 2.1784755,4.868854 4.8688525,4.868852 l 34.2622955,0 c 2.690376,0 4.868854,-2.178474 4.868852,-4.868852 L 46,10.446209 C 46,7.7558321 43.821526,5.6074112 41.131148,5.6074112 l -34.2622955,0 z m 16.4098365,5.5601088 1.68306,0 c 0.602547,0 1.081967,0.47942 1.081967,1.081968 l 0,3.75683 c 0.708509,0.187943 1.366832,0.477821 1.983606,0.84153 l 2.554645,-2.554644 c 0.426065,-0.426066 1.106721,-0.426067 1.532787,0 l 1.202186,1.172131 c 0.426066,0.426066 0.426066,1.136775 0,1.562841 l -2.52459,2.52459 c 0.416526,0.678823 0.732677,1.431228 0.931694,2.224044 l 3.696721,0 c 0.602548,0 1.081967,0.509474 1.081967,1.112022 l 0,1.68306 c 0,0.602547 -0.479419,1.081967 -1.081967,1.081967 l -3.696721,0 c -0.193253,0.775004 -0.500155,1.497095 -0.90164,2.163935 l 2.494536,2.494535 c 0.426064,0.426066 0.426066,1.106721 0,1.532787 l -1.202186,1.202186 c -0.426067,0.426066 -1.106721,0.426066 -1.532787,0 l -2.494535,-2.494536 c -0.633178,0.381217 -1.312169,0.677256 -2.043716,0.871585 l 0,3.666667 c 0,0.60255 -0.479419,1.081967 -1.081967,1.081967 l -1.68306,0 c -0.602548,2e-6 -1.081968,-0.479419 -1.081968,-1.081967 l 0,-3.606558 c -0.849913,-0.198174 -1.652764,-0.51577 -2.374317,-0.961748 l -2.644808,2.644808 c -0.426066,0.426068 -1.106721,0.426067 -1.532787,0 l -1.202186,-1.202185 c -0.426065,-0.426066 -0.426066,-1.106721 0,-1.532787 l 2.674863,-2.674864 c -0.380809,-0.647573 -0.655107,-1.356213 -0.84153,-2.103825 l -3.696721,0 c -0.602548,0 -1.081967,-0.479419 -1.081967,-1.081967 l 0,-1.68306 c 0,-0.602548 0.479419,-1.112022 1.081967,-1.112022 l 3.696721,0 c 0.191261,-0.76192 0.508769,-1.47652 0.90164,-2.13388 l -2.734973,-2.734972 c -0.426065,-0.426067 -0.426066,-1.136776 0,-1.562842 l 1.202186,-1.172131 c 0.426066,-0.426066 1.10672,-0.426066 1.532787,0 l 2.734972,2.734973 c 0.70202,-0.423708 1.463041,-0.740051 2.284153,-0.931694 l 0,-3.726776 c 0,-0.602548 0.47942,-1.081968 1.081968,-1.081968 z m 0.84153,8.445356 c -2.201367,0 -3.997269,1.795901 -3.997268,3.997267 0,2.201367 1.7959,3.997268 3.997268,3.997268 2.201366,0 3.997268,-1.7959 3.997267,-3.997268 0,-2.201366 -1.795901,-3.997266 -3.997267,-3.997267 z"
     id="path-main"
      />
</defs>

<use id="1" style="fill:#E3E3E3" xlink:href="#path-main" />



</svg>
