<?xml version="1.0" encoding="UTF-8" standalone="no"?>
<svg
   xmlns:dc="http://purl.org/dc/elements/1.1/"
   xmlns:cc="http://creativecommons.org/ns#"
   xmlns:rdf="http://www.w3.org/1999/02/22-rdf-syntax-ns#"
   xmlns:svg="http://www.w3.org/2000/svg"
   xmlns="http://www.w3.org/2000/svg"
   xmlns:sodipodi="http://sodipodi.sourceforge.net/DTD/sodipodi-0.dtd"
   xmlns:inkscape="http://www.inkscape.org/namespaces/inkscape"
   height="512"
   viewBox="0 0 512 512"
   width="512"
   version="1.1"
   id="svg2"
   inkscape:version="0.91 r"
   sodipodi:docname="FreeMindWindowIcon.svg">
  <defs
     id="defs46" />
  <sodipodi:namedview
     pagecolor="#ffffff"
     bordercolor="#666666"
     borderopacity="1"
     objecttolerance="10"
     gridtolerance="10"
     guidetolerance="10"
     inkscape:pageopacity="0"
     inkscape:pageshadow="2"
     inkscape:window-width="1920"
     inkscape:window-height="1028"
     id="namedview44"
     showgrid="false"
     inkscape:zoom="1.84375"
     inkscape:cx="264.5981"
     inkscape:cy="247.21963"
     inkscape:window-x="0"
     inkscape:window-y="0"
     inkscape:window-maximized="1"
     inkscape:current-layer="svg2" />
  <metadata
     id="metadata86">
    <rdf:RDF>
      <cc:Work
         rdf:about="">
        <dc:format>image/svg+xml</dc:format>
        <dc:type
           rdf:resource="http://purl.org/dc/dcmitype/StillImage" />
      </cc:Work>
    </rdf:RDF>
  </metadata>
  <text
     sodipodi:linespacing="125%"
     x="-1160.48"
     y="549.52"
     line-height="125%"
     font-size="208.33"
     id="text6"
     font-family="Gentium Book Basic"
     word-spacing="0"
     letter-spacing="0">
    <tspan
       x="-1160.48"
       y="549.52"
       id="tspan8" />
  </text>
  <text
     x="28.534"
     y="1642.24"
     transform="scale(4.0128205,0.24920128)"
     font-size="75.7"
     id="text10"
     font-family="Arial"
     text-anchor="middle" />
  <path
     inkscape:connector-curvature="0"
     style="fill:#E3E3E3;fill-rule:evenodd"
     id="path66"
     d="m 270.0203,112.91023 c -6.13249,10.79537 -9.14208,17.43634 -10.62501,21.41128 -0.67752,1.81699 -0.95683,3.80445 -1.15201,3.80782 -0.19631,0.003 -0.49469,-1.92354 -1.15202,-3.68781 -1.48292,-3.98055 -4.49813,-10.62152 -10.62613,-21.41128 l -3.58504,1.78446 c 6.06855,10.68097 8.98504,17.11332 10.36925,20.82244 0.62368,1.6723 1.42348,2.84437 1.02414,3.33114 -0.39933,0.48678 -1.28662,0.11777 -3.07241,1.54669 -1.78579,1.42891 -3.83743,4.81725 -4.35231,9.04006 -9.91831,-0.14244 -13.19488,-0.34657 -13.31378,-0.35666 -0.95347,-0.95112 -2.12119,-1.97962 -4.09655,-3.45116 -2.36349,-1.75978 -5.45833,-3.75398 -8.57674,-5.71117 -3.1184,-1.95718 -6.28504,-3.82688 -9.21723,-5.1156 -2.93108,-1.28871 -6.96369,-1.83493 -8.06523,-1.54668 -1.10154,0.28713 0.16153,-0.0135 -0.12788,0 -0.2894,0.0135 -0.47449,-0.0146 -1.27989,0 -0.8054,0.0146 -2.60465,-0.0191 -4.48018,0 -3.75218,0.0381 -8.93007,0.13347 -15.10631,0.35667 -12.35022,0.44639 -28.58723,1.57808 -44.93642,4.28338 -16.34694,2.70529 -32.82176,6.92698 -45.70256,14.04014 -12.84714,7.09298 -22.29434,17.25801 -23.67967,31.05365 -0.005,0.0404 0.004,0.0785 0,0.11889 -0.0101,0.10318 -0.0404,0.32526 0,0.71333 0.0471,0.45313 0.23668,1.07337 0.51151,1.78446 0.55189,1.42106 1.66352,3.37601 3.96867,5.59228 4.60918,4.4404 13.78603,10.27271 32.64228,17.01462 0,0 3.36406,1.32124 6.14482,3.33115 1.39095,1.00495 2.52838,2.22412 3.07242,3.21225 0.54516,0.98812 0.6405,1.5164 0,2.49891 l 0,0.11889 c 0,0 -0.44982,0.66735 -0.63939,1.54669 -0.18957,0.87933 -0.21761,2.07495 0.12788,3.56892 0.6921,2.98793 2.96585,6.918 8.83361,11.779 0.002,0.001 0.40494,0.30508 0.51263,0.35667 0.10656,0.0516 0.19069,0.0976 0.25575,0.11889 0.129,0.0437 0.19069,-0.0135 0.25575,0 0.13012,0.028 0.17836,0.1088 0.25576,0.11889 0.1548,0.0202 0.21537,-0.0157 0.38363,0 0.33652,0.0325 0.88953,0.0628 1.40889,0.11889 1.0376,0.11328 2.40723,0.25348 3.8408,0.59445 2.86601,0.68193 5.72081,2.09065 6.9132,4.16448 0.64163,1.11711 1.63324,1.37284 2.55979,1.66557 0.92767,0.29162 1.93161,0.45986 3.07241,0.59445 2.28047,0.27031 5.02758,0.42509 7.68047,0.47556 2.65289,0.0516 5.21043,0.0224 7.04109,0.11889 0.62704,0.0325 1.01516,0.0707 1.40889,0.11889 0.10544,0.69875 0.25575,2.02448 0.25575,4.28337 0,1.38181 -0.1032,2.85559 -0.38475,3.92671 -0.28043,1.07113 -0.68538,1.65884 -0.89626,1.78446 l -0.25576,0.11889 -0.12787,0.11889 c 0,0 -2.70673,2.5707 -3.7118,6.90119 -1.00619,4.32936 -0.19742,10.57777 6.01695,17.2524 6.12015,6.57255 17.33518,15.17856 27.1346,23.20134 4.90195,4.01195 9.44495,7.87361 12.6744,11.06567 1.61417,1.59604 2.87835,2.99915 3.7118,4.16449 0.83456,1.16534 1.15201,2.07944 1.15201,2.26563 -0.0303,0.22993 -1.61753,12.8277 -2.43303,25.81915 -0.41055,6.55573 -0.62143,13.12605 -0.25575,18.32353 0.18284,2.59874 0.45991,4.85987 1.02414,6.6634 0.28267,0.90177 0.63714,1.66445 1.15201,2.38003 0.516,0.71558 1.23839,1.40872 2.30403,1.66557 4.62152,1.11375 9.55825,-1.15861 13.44167,-4.0456 3.88342,-2.88699 6.97715,-6.38076 7.16896,-10.1168 0.30062,-5.85473 -3.87781,-10.44319 -4.3523,-10.94678 -0.11218,-0.40266 -0.75044,-2.90269 -1.15202,-6.06784 -0.21649,-1.70819 -0.40382,-3.42984 -0.25575,-4.87782 0.14807,-1.44911 0.6764,-2.52808 1.02414,-2.85559 0.4857,-0.45761 1.15874,-0.61127 2.4319,-0.59557 1.27316,0.0157 2.94902,0.22096 4.73706,0.59557 1.78691,0.37349 3.73199,0.9141 5.63107,1.07113 1.90021,0.15702 3.86884,-0.0437 5.63108,-1.07113 3.78471,-2.20506 7.60307,-7.04587 11.26215,-11.42234 1.83066,-2.18823 2.5452,-3.63734 4.99281,-5.59228 2.44649,-1.95494 5.05338,1.27077 8.57785,5.3545 3.66244,4.37647 7.4808,9.33617 11.26215,11.54123 1.76335,1.02738 3.73199,1.10926 5.63107,0.95224 1.90021,-0.15703 3.84529,-0.57875 5.63108,-0.95224 1.78691,-0.37349 3.46277,-0.69763 4.73593,-0.71333 1.27316,-0.0157 1.94732,0.25572 2.43303,0.71333 0.34774,0.32751 0.74707,1.28759 0.89626,2.7367 0.14807,1.4491 0.0886,3.28852 -0.12788,4.99671 -0.4184,3.29413 -1.22156,5.98035 -1.27989,6.18673 -0.62929,0.67744 -4.52056,5.0999 -4.22443,10.82677 0.19182,3.73267 3.28555,7.22645 7.16897,10.1168 3.88342,2.88699 8.69227,5.15934 13.31379,4.0456 1.06564,-0.25685 1.91703,-0.94999 2.43302,-1.66557 0.516,-0.71558 0.87046,-1.59715 1.15202,-2.49892 0.56423,-1.8024 0.84129,-3.94578 1.02414,-6.54339 0.3668,-5.19748 0.15479,-11.88668 -0.25576,-18.44242 -0.81437,-12.99145 -2.52949,-25.46921 -2.55978,-25.70026 0,-0.18058 0.31745,-1.0958 1.15201,-2.26563 0.83457,-1.16534 2.09876,-2.56845 3.7118,-4.16448 3.22946,-3.19207 7.77133,-7.05373 12.67441,-11.06568 9.80502,-8.02278 21.14793,-16.74768 27.26696,-23.32023 6.21437,-6.67462 7.02314,-12.80415 6.01695,-17.13351 -1.00619,-4.32937 -3.71292,-6.90119 -3.71292,-6.90119 l -0.25576,-0.11889 -0.12787,-0.11889 c -0.21089,-0.12674 -0.74371,-0.71445 -1.02414,-1.78446 -0.28043,-1.07112 -0.38475,-2.5449 -0.38475,-3.92671 0,-2.20954 0.2737,-3.53975 0.38475,-4.28337 0.39372,-0.0482 0.78184,-0.0864 1.40777,-0.11889 1.83066,-0.0965 4.3882,-0.0673 7.04108,-0.11889 2.65289,-0.0516 5.4,-0.20638 7.68047,-0.47556 1.1408,-0.13571 2.14475,-0.30283 3.07242,-0.59557 0.92767,-0.29161 1.91815,-0.66735 2.55978,-1.78446 1.19127,-2.07383 4.04719,-3.36366 6.91321,-4.0456 1.43245,-0.34096 2.8032,-0.48116 3.8408,-0.59556 0.51823,-0.0572 0.94337,-0.0875 1.27989,-0.11889 0.16826,-0.0157 0.35783,-0.0987 0.51263,-0.11889 0.0763,-0.0101 0.12563,0.028 0.25575,0 0.0651,-0.0135 0.12563,-0.0752 0.25575,-0.11889 0.0651,-0.0224 0.14919,-0.0673 0.25576,-0.11889 0.10656,-0.0516 0.51038,-0.23666 0.51263,-0.23778 5.86776,-4.861 8.1415,-8.79107 8.83248,-11.77901 0.34662,-1.49396 0.18958,-2.8096 0,-3.68893 -0.18957,-0.87933 -0.51263,-1.54668 -0.51263,-1.54668 -0.63938,-0.98252 -0.54403,-1.62968 0,-2.61781 0.54516,-0.98924 1.6826,-2.08841 3.07242,-3.09336 2.71346,-1.96167 5.85766,-3.26609 6.01695,-3.33114 0,-0.002 0.12787,-0.11889 0.12787,-0.11889 18.72388,-6.71163 28.05442,-12.58992 32.64228,-17.01462 2.30516,-2.21964 3.41679,-4.05233 3.96868,-5.47339 0.27594,-0.71109 0.33764,-1.33134 0.38475,-1.78446 0.0415,-0.39705 0.0101,-0.74026 0,-0.83223 l 0,-0.11889 c -1.38982,-13.79451 -10.70801,-23.8429 -23.55516,-30.93587 -12.88417,-7.11317 -29.35562,-11.45375 -45.70256,-14.15904 -16.34695,-2.70529 -32.5862,-3.71809 -44.93642,-4.16449 -6.17512,-0.2232 -11.35301,-0.31853 -15.10631,-0.35667 -1.87666,-0.0191 -3.67479,0.0146 -4.48131,0 -0.8054,-0.0146 -0.99048,-0.10543 -1.27989,-0.11888 -0.28941,-0.0135 0.97366,0.28712 -0.12788,0 -1.10153,-0.28713 -5.13302,0.37685 -8.06522,1.66557 -2.93108,1.28871 -6.22671,3.15953 -9.34512,5.11672 -3.1184,1.95719 -6.08537,3.95138 -8.44885,5.71117 -1.9361,1.44237 -3.0152,2.39349 -3.96867,3.33114 -0.0931,0.008 -3.52672,0.21198 -13.57291,0.35667 -0.51712,-4.22057 -2.46668,-7.51806 -4.22443,-8.92342 -1.75775,-1.40536 -2.34553,-0.87821 -2.75272,-1.36835 -0.40719,-0.49014 0.0594,-1.78222 0.70445,-3.5106 1.38197,-3.708 4.30182,-10.13923 10.36925,-20.82132" />
</svg>
