<?xml version="1.0" encoding="UTF-8" standalone="no"?>
<svg
   xmlns:dc="http://purl.org/dc/elements/1.1/"
   xmlns:cc="http://creativecommons.org/ns#"
   xmlns:rdf="http://www.w3.org/1999/02/22-rdf-syntax-ns#"
   xmlns:svg="http://www.w3.org/2000/svg"
   xmlns="http://www.w3.org/2000/svg"
   xmlns:sodipodi="http://sodipodi.sourceforge.net/DTD/sodipodi-0.dtd"
   xmlns:inkscape="http://www.inkscape.org/namespaces/inkscape"
   height="512"
   viewBox="0 0 512 512"
   width="512"
   version="1.1"
   id="svg2"
   inkscape:version="0.91 r"
   sodipodi:docname="frostwire.svg">
  <defs
     id="defs22" />
  <sodipodi:namedview
     pagecolor="#ffffff"
     bordercolor="#666666"
     borderopacity="1"
     objecttolerance="10"
     gridtolerance="10"
     guidetolerance="10"
     inkscape:pageopacity="0"
     inkscape:pageshadow="2"
     inkscape:window-width="647"
     inkscape:window-height="480"
     id="namedview20"
     showgrid="false"
     inkscape:zoom="0.4609375"
     inkscape:cx="218.0339"
     inkscape:cy="256"
     inkscape:window-x="0"
     inkscape:window-y="0"
     inkscape:window-maximized="0"
     inkscape:current-layer="svg2" />
  <metadata
     id="metadata86">
    <rdf:RDF>
      <cc:Work
         rdf:about="">
        <dc:format>image/svg+xml</dc:format>
        <dc:type
           rdf:resource="http://purl.org/dc/dcmitype/StillImage" />
      </cc:Work>
    </rdf:RDF>
  </metadata>
  <g
     id="g66"
     transform="matrix(0.97689107,0,0,0.97689107,10.766811,1.1875709)"
     style="fill:#E3E3E3;fill-rule:evenodd;stroke:none;stroke-width:8;stroke-linecap:round;stroke-linejoin:round">
    <path
       id="path68"
       d="m 151.39,406.88 c -8.935,14.656 -29.669,7.851 -18.08,-14.891 20.362,-43.618 66.15,-152.37 90.94,-205.99 7.224,-16.238 26.451,-5.79 20.73,7.838 -28.745,64.17 -67.34,160.52 -93.6,213.04 z"
       inkscape:connector-curvature="0"
       style="stroke:none" />
    <path
       id="path70"
       d="m 275.89,341.7 c -7.841,12.544 -28.575,3.626 -16.982,-19.12 20.362,-43.618 66.15,-152.37 90.94,-205.99 7.224,-16.238 26.451,-5.79 20.73,7.838 -28.745,64.17 -68.44,164.74 -94.69,217.27 z"
       inkscape:connector-curvature="0"
       style="stroke:none" />
    <path
       id="path72"
       d="m 228.04,333.5 c -7.841,16.769 -27.48,8.907 -15.887,-13.835 20.362,-43.618 28.932,-69.977 53.727,-123.6 7.224,-16.238 26.451,-5.79 20.73,7.838 -28.745,64.17 -32.32,77.07 -58.57,129.6 z"
       inkscape:connector-curvature="0"
       style="stroke:none" />
    <path
       id="path74"
       d="m 1.972,297.11 c 1.063,7.621 5.58,25.31 7.02,30.671 42.51,-9.05 75.97,-25.844 113.86,-48.933 10.779,8.169 17.551,15.172 26.17,23.646 2.802,-4.981 9.578,-19.02 12.04,-22.718 -9.02,-8.483 -12.758,-13.453 -19.937,-18.468 8.637,-5.969 8.759,-7.66 29.399,-25.23 -4.312,-7.861 -6.674,-15.578 -10.986,-23.24 -9.988,10.358 -17.542,18.681 -39.08,32.452 C 89.773,229.72 62.186,214 6.938,199.87 c -2.661,9.383 -4.03,15 -5.122,25.453 23.457,7.558 68.792,19.401 94.38,36.683 -18.925,12.864 -44.867,25.334 -94.21,35.11 z"
       inkscape:connector-curvature="0"
       style="stroke:none" />
    <path
       id="path76"
       d="m 185.85,226.1 c 3.548,-7.779 5.784,-13.02 11.08,-24.61 -20.307,-38.682 -23.22,-55.16 -41.99,-88.11 -8,-13.13 -26.01,-3.759 -19.11,8.759 18.971,36.998 30.352,63.3 50.01,103.96 z"
       inkscape:connector-curvature="0"
       style="stroke:none" />
    <path
       id="path78"
       d="m 500.25,224.01 c -1.063,-7.621 -5.58,-25.31 -7.02,-30.671 -42.51,9.05 -75.97,25.844 -113.86,48.933 -10.779,-8.169 -17.551,-15.172 -26.17,-23.646 -2.802,4.981 -9.578,19.02 -12.04,22.718 9.02,8.483 12.758,13.453 19.937,18.468 -8.637,5.969 -8.759,7.66 -29.399,25.23 4.312,7.861 6.674,15.578 10.986,23.24 9.988,-10.358 17.542,-18.681 39.08,-32.452 30.693,15.566 56.37,31.75 111.62,45.885 3.139,-9.844 4.984,-15.924 6.078,-26.375 -23.457,-7.558 -67.836,-18.94 -93.42,-36.22 18.925,-12.864 44.867,-25.334 94.21,-35.11 z"
       inkscape:connector-curvature="0"
       style="stroke:none" />
    <path
       id="path80"
       d="m 315.45,289.96 c -3.548,7.779 -5.784,13.02 -11.08,24.61 20.307,38.682 23.22,55.16 41.99,88.11 8,13.13 26.01,3.759 19.11,-8.759 -18.971,-36.998 -30.352,-63.3 -50.01,-103.96 z"
       inkscape:connector-curvature="0"
       style="stroke:none" />
  </g>
</svg>
