<?xml version="1.0" encoding="UTF-8" standalone="no"?>
<svg
   xmlns:dc="http://purl.org/dc/elements/1.1/"
   xmlns:cc="http://creativecommons.org/ns#"
   xmlns:rdf="http://www.w3.org/1999/02/22-rdf-syntax-ns#"
   xmlns:svg="http://www.w3.org/2000/svg"
   xmlns="http://www.w3.org/2000/svg"
   xmlns:sodipodi="http://sodipodi.sourceforge.net/DTD/sodipodi-0.dtd"
   xmlns:inkscape="http://www.inkscape.org/namespaces/inkscape"
   height="512"
   viewBox="0 0 512 512"
   width="512"
   version="1.1"
   id="svg2"
   inkscape:version="0.91 r"
   sodipodi:docname="giteye.svg">
  <defs
     id="defs15" />
  <sodipodi:namedview
     pagecolor="#ffffff"
     bordercolor="#666666"
     borderopacity="1"
     objecttolerance="10"
     gridtolerance="10"
     guidetolerance="10"
     inkscape:pageopacity="0"
     inkscape:pageshadow="2"
     inkscape:window-width="647"
     inkscape:window-height="480"
     id="namedview13"
     showgrid="false"
     inkscape:zoom="0.4609375"
     inkscape:cx="256"
     inkscape:cy="256"
     inkscape:window-x="0"
     inkscape:window-y="0"
     inkscape:window-maximized="0"
     inkscape:current-layer="svg2" />
  <metadata
     id="metadata72">
    <rdf:RDF>
      <cc:Work
         rdf:about="">
        <dc:format>image/svg+xml</dc:format>
        <dc:type
           rdf:resource="http://purl.org/dc/dcmitype/StillImage" />
      </cc:Work>
    </rdf:RDF>
  </metadata>
  <path
     style="fill:#E3E3E3;fill-rule:evenodd;fill-opacity:1"
     d="M 253.05078 34.150391 C 132.16078 34.150391 34.150391 132.15078 34.150391 253.05078 C 34.150391 373.94078 132.15078 471.94922 253.05078 471.94922 C 373.94078 471.94922 471.94922 373.95078 471.94922 253.05078 C 471.94922 132.16078 373.95078 34.150391 253.05078 34.150391 z M 197.24805 123.76758 C 221.58905 123.76758 241.31836 143.49889 241.31836 167.83789 C 241.31836 187.01989 229.03383 203.35992 211.92383 209.41992 L 211.92383 243.83789 C 213.92283 244.54589 215.88719 245.34822 217.74219 246.32422 L 275.73633 188.33008 C 272.51833 182.21008 270.66406 175.23189 270.66406 167.83789 C 270.66406 143.49689 290.39538 123.76758 314.73438 123.76758 C 339.07537 123.76758 358.80469 143.49889 358.80469 167.83789 C 358.80469 192.17889 339.07337 211.9082 314.73438 211.9082 C 307.35238 211.9082 300.40697 210.09867 294.29297 206.88867 L 236.25195 264.92773 C 239.46595 271.04473 241.32422 277.97914 241.32422 285.36914 C 241.32422 304.55014 229.03969 320.84039 211.92969 326.90039 L 211.92969 388.23047 L 182.53516 388.23047 L 182.53516 326.90039 C 165.42816 320.84539 153.18945 304.54914 153.18945 285.36914 L 153.17773 285.36914 C 153.17773 266.18814 165.41344 249.89789 182.52344 243.83789 L 182.52344 209.41992 C 165.41644 203.36492 153.17773 187.01789 153.17773 167.83789 C 153.17773 143.49689 172.90905 123.76758 197.24805 123.76758 z "
     id="path6" />
</svg>
