<?xml version="1.0" encoding="UTF-8" standalone="no"?>
<svg
   xmlns:dc="http://purl.org/dc/elements/1.1/"
   xmlns:cc="http://creativecommons.org/ns#"
   xmlns:rdf="http://www.w3.org/1999/02/22-rdf-syntax-ns#"
   xmlns:svg="http://www.w3.org/2000/svg"
   xmlns="http://www.w3.org/2000/svg"
   xmlns:sodipodi="http://sodipodi.sourceforge.net/DTD/sodipodi-0.dtd"
   xmlns:inkscape="http://www.inkscape.org/namespaces/inkscape"
   version="1.1"
   viewBox="0 0 512 512"
   id="svg2"
   inkscape:version="0.91 r13725"
   sodipodi:docname="gnome-nibbles.svg">
  <defs
     id="defs16" />
  <sodipodi:namedview
     pagecolor="#ffffff"
     bordercolor="#666666"
     borderopacity="1"
     objecttolerance="10"
     gridtolerance="10"
     guidetolerance="10"
     inkscape:pageopacity="0"
     inkscape:pageshadow="2"
     inkscape:window-width="1680"
     inkscape:window-height="997"
     id="namedview14"
     showgrid="false"
     inkscape:zoom="0.4609375"
     inkscape:cx="256"
     inkscape:cy="256"
     inkscape:window-x="0"
     inkscape:window-y="35"
     inkscape:window-maximized="1"
     inkscape:current-layer="svg2" />
  <metadata
     id="metadata5414">
    <rdf:RDF>
      <cc:Work
         rdf:about="">
        <dc:format>image/svg+xml</dc:format>
        <dc:type
           rdf:resource="http://purl.org/dc/dcmitype/StillImage" />
      </cc:Work>
    </rdf:RDF>
  </metadata>
  <path
     inkscape:connector-curvature="0"
     id="path5408"
     d="M 53.46555,202.96611 C 44.850093,136.58423 90.627454,52.445763 163.1114,52.445763 c 211.28703,0 24.44108,255.267817 41.80789,273.412697 16.96061,16.9606 47.23641,-10.6002 67.45713,-41.40169 17.29961,-26.9709 31.46604,-55.58455 63.21586,-40.01132 35.38027,17.41908 35.58338,50.88033 53.07116,87.25969 17.48627,36.31365 35.31305,56.24165 53.07113,69.75996 60.68603,66.06827 -50.28892,78.17978 -83.48135,23.9841 -34.51261,-48.42368 -17.55499,-82.55547 -83.14237,-7.361 C 171.15489,547.88008 69.543554,342.82056 53.608917,202.96312"
     style="fill:#E3E3E3" />
</svg>
