<svg xmlns="http://www.w3.org/2000/svg" width="48" height="48">
<defs>
<defs
     id="defs4" />
  <g
     id="layer1">
    <rect
       width="2.9999988"
       height="42"
       x="23.000002"
       y="3"
       id="path-main"
        />
  </g>
</defs>

<use id="1" style="fill:#E3E3E3" xlink:href="#path-main" />



</svg>
