<?xml version="1.0" encoding="UTF-8" standalone="no"?>
<svg
   xmlns:dc="http://purl.org/dc/elements/1.1/"
   xmlns:cc="http://creativecommons.org/ns#"
   xmlns:rdf="http://www.w3.org/1999/02/22-rdf-syntax-ns#"
   xmlns:svg="http://www.w3.org/2000/svg"
   xmlns="http://www.w3.org/2000/svg"
   xmlns:sodipodi="http://sodipodi.sourceforge.net/DTD/sodipodi-0.dtd"
   xmlns:inkscape="http://www.inkscape.org/namespaces/inkscape"
   version="1.1"
   viewBox="0 0 512 512"
   id="svg2"
   inkscape:version="0.91 r13725"
   sodipodi:docname="gnome-lightsoff.svg">
  <defs
     id="defs19" />
  <sodipodi:namedview
     pagecolor="#ffffff"
     bordercolor="#666666"
     borderopacity="1"
     objecttolerance="10"
     gridtolerance="10"
     guidetolerance="10"
     inkscape:pageopacity="0"
     inkscape:pageshadow="2"
     inkscape:window-width="1680"
     inkscape:window-height="997"
     id="namedview17"
     showgrid="false"
     inkscape:zoom="0.4609375"
     inkscape:cx="256"
     inkscape:cy="256"
     inkscape:window-x="0"
     inkscape:window-y="35"
     inkscape:window-maximized="1"
     inkscape:current-layer="svg2" />
  <metadata
     id="metadata5372">
    <rdf:RDF>
      <cc:Work
         rdf:about="">
        <dc:format>image/svg+xml</dc:format>
        <dc:type
           rdf:resource="http://purl.org/dc/dcmitype/StillImage" />
      </cc:Work>
    </rdf:RDF>
  </metadata>
  <path
     style="fill-opacity:0.06700003;fill-rule:evenodd"
     d="M 256,1 C 115.17,1 1,115.17 1,256 1,396.83 115.17,511 256,511 396.83,511 511,396.83 511,256 511,115.17 396.83,1 256,1 m 8.827,44.931 c 120.9,0 218.9,98 218.9,218.9 0,120.9 -98,218.9 -218.9,218.9 -120.9,0 -218.93,-98 -218.93,-218.9 0,-120.9 98.03,-218.9 218.93,-218.9"
     id="path5308"
     inkscape:connector-curvature="0" />
  <path
     inkscape:connector-curvature="0"
     id="path5366"
     d="m 85.991617,52.14678 c -18.748703,0 -33.839837,15.091134 -33.839837,33.839837 l 0,111.854113 c 0,18.7487 15.091134,33.83983 33.839837,33.83983 l 111.854113,0 c 18.7487,0 33.83983,-15.09113 33.83983,-33.83983 l 0,-111.854113 c 0,-18.748703 -15.09113,-33.839837 -33.83983,-33.839837 l -111.854113,0 m 228.162653,0 c -18.7487,0 -33.83983,15.091134 -33.83983,33.839837 l 0,111.854113 c 0,18.7487 15.09113,33.83983 33.83983,33.83983 l 111.85411,0 c 18.74871,0 33.83984,-15.09113 33.83984,-33.83983 l 0,-111.854113 c 0,-18.748703 -15.09113,-33.839837 -33.83984,-33.839837 l -111.85411,0 M 85.991617,280.30944 c -18.748703,0 -33.839837,15.09113 -33.839837,33.83983 l 0,111.85411 c 0,18.74871 15.091134,33.83984 33.839837,33.83984 l 111.854113,0 c 18.7487,0 33.83983,-15.09113 33.83983,-33.83984 l 0,-111.85411 c 0,-18.7487 -15.09113,-33.83983 -33.83983,-33.83983 l -111.854113,0 m 228.162653,0 c -18.7487,0 -33.83983,15.09113 -33.83983,33.83983 l 0,111.85411 c 0,18.74871 15.09113,33.83984 33.83983,33.83984 l 111.85411,0 c 18.74871,0 33.83984,-15.09113 33.83984,-33.83984 l 0,-111.85411 c 0,-18.7487 -15.09113,-33.83983 -33.83984,-33.83983 l -111.85411,0"
     style="fill:#E3E3E3" />
</svg>
