<svg xmlns="http://www.w3.org/2000/svg" width="48" height="48">
<defs>
<defs
     id="defs3">
  </defs>
  <path
     d="m 23.511071,2.6908044 c -7.907423,0 -14.3437496,6.4050773 -14.3437496,14.3124986 10e-8,3.531421 1.2810946,6.778908 3.4062496,9.28125 l -3.4062496,1.03125 -6.71875,6.25 c -0.4775011,0.445667 -0.8742225,2.688277 0.46875,4.03125 1.5827084,1.582709 3.5992856,0.931569 4.03125,0.46875 l 6.2499996,-6.71875 1.0625,-3.40625 c 2.499932,2.116298 5.726799,3.40625 9.25,3.40625 7.907423,1e-6 14.3125,-6.436327 14.3125,-14.34375 10e-7,-7.907421 -6.405077,-14.3124986 -14.3125,-14.3124986 z m 0,3.59375 c 5.930567,0 10.750001,4.7881816 10.75,10.7187486 0,5.930567 -4.819433,10.749999 -10.75,10.75 -5.930567,0 -10.75,-4.819433 -10.75,-10.75 0,-5.930567 4.819433,-10.7187485 10.75,-10.7187486 z"
     id="path-main" />
</defs>

<use id="1" style="fill:#E3E3E3" xlink:href="#path-main" />



</svg>
