<svg xmlns="http://www.w3.org/2000/svg" width="48" height="48">
<defs>
<defs
     id="defs1330">
  </defs>
  <path
     id="path-main"
     d="M 23.750618,3.3868337 2,26.501762 l 5.1346026,0 L 7.1955126,45 41.781313,44.93909 41.637709,26.398041 l 4.362288,0.04281 -9.097649,-9.236425 0.0088,-11.8434783 -6.865071,-0.0089 0.03082,4.5451136 -6.326299,-6.5103289 z" />
</defs>

<use id="1" style="fill:#E3E3E3" xlink:href="#path-main" />



</svg>
