<svg xmlns="http://www.w3.org/2000/svg" width="48" height="48">
<defs>
  <path
     d="M 12.848984,13.78987 C 6.8535819,13.78987 2,18.655532 2,24.650935 2,30.646337 6.8535819,35.512 12.848984,35.512 c 5.995403,0 10.861065,-4.865663 10.861065,-10.861065 0,-5.995403 -4.865662,-10.861065 -10.861065,-10.861065 z m 22.302032,0 c -5.995402,0 -10.861065,4.865662 -10.861065,10.861065 0,5.995402 4.865663,10.861065 10.861065,10.861065 C 41.146416,35.512 46,30.646337 46,24.650935 46,18.655532 41.146416,13.78987 35.151016,13.78987 z"
     id="path-main"
      />
</defs>

<use id="1" style="fill:#E3E3E3" xlink:href="#path-main" />



</svg>
