<svg xmlns="http://www.w3.org/2000/svg" width="48" height="48">
<defs>
  <path
     d="M 5.2144541,2 C 3.4298977,2 2,3.4446354 2,5.2211838 L 2,32.018692 c 0,1.776548 1.4298973,3.255451 3.2144541,3.255451 l 37.5365279,0 C 44.535537,35.274143 46,33.79524 46,32.018692 L 46,5.2211838 C 46,3.4446353 44.535537,2 42.750982,2 L 5.2144541,2 z m 4.0439909,6.4766355 29.48311,0 c 0.44341,0 0.794973,0.337693 0.794973,0.788162 l 0,18.7445485 c 0,0.45047 -0.351562,0.788162 -0.794973,0.788162 l -29.48311,0 c -0.44341,0 -0.794973,-0.337692 -0.794973,-0.788162 l 0,-18.7445485 c 0,-0.450469 0.351563,-0.788162 0.794973,-0.788162 z m 9.36685,28.3738315 c -1.566093,0 -2.67571,1.198458 -2.972506,2.672897 l -2.384917,0 c -1.784558,0 -3.249019,1.444636 -3.249019,3.221184 0,1.776549 1.464461,3.255452 3.249019,3.255452 l 5.357423,0 10.714846,0 5.391987,0 c 1.784557,0 3.214455,-1.478902 3.214455,-3.255452 0,-1.776548 -1.429898,-3.221184 -3.214455,-3.221184 l -2.384917,0 c -0.296796,-1.474439 -1.440977,-2.672897 -3.00707,-2.672897 l -10.714846,0 z"
     id="path-main" />
</defs>

<use id="1" style="fill:#E3E3E3" xlink:href="#path-main" />



</svg>
