<?xml version="1.0" encoding="UTF-8" standalone="no"?>
<svg
   xmlns:dc="http://purl.org/dc/elements/1.1/"
   xmlns:cc="http://creativecommons.org/ns#"
   xmlns:rdf="http://www.w3.org/1999/02/22-rdf-syntax-ns#"
   xmlns:svg="http://www.w3.org/2000/svg"
   xmlns="http://www.w3.org/2000/svg"
   xmlns:sodipodi="http://sodipodi.sourceforge.net/DTD/sodipodi-0.dtd"
   xmlns:inkscape="http://www.inkscape.org/namespaces/inkscape"
   viewBox="0 0 512 512"
   id="svg2"
   version="1.1"
   inkscape:version="0.91 r"
   sodipodi:docname="intel.svg">
  <metadata
     id="metadata264">
    <rdf:RDF>
      <cc:Work
         rdf:about="">
        <dc:format>image/svg+xml</dc:format>
        <dc:type
           rdf:resource="http://purl.org/dc/dcmitype/StillImage" />
      </cc:Work>
    </rdf:RDF>
  </metadata>
  <defs
     id="defs262" />
  <sodipodi:namedview
     pagecolor="#ffffff"
     bordercolor="#666666"
     borderopacity="1"
     objecttolerance="10"
     gridtolerance="10"
     guidetolerance="10"
     inkscape:pageopacity="0"
     inkscape:pageshadow="2"
     inkscape:window-width="647"
     inkscape:window-height="480"
     id="namedview260"
     showgrid="false"
     inkscape:zoom="0.4609375"
     inkscape:cx="256"
     inkscape:cy="256"
     inkscape:window-x="0"
     inkscape:window-y="0"
     inkscape:window-maximized="0"
     inkscape:current-layer="svg2" />
  <text
     font-size="129.23"
     y="231.36"
     x="729.64"
     font-family="Gentium Book Basic"
     line-height="125%"
     word-spacing="0"
     letter-spacing="0"
     id="text18">
    <tspan
       y="231.36"
       x="729.64"
       id="tspan20" />
  </text>
  <text
     transform="scale(4.0128.2492)"
     font-size="46.954"
     y="579.25"
     x="378.91"
     font-family="Arial"
     text-anchor="middle"
     id="text22" />
  <text
     font-size="129.23"
     y="151.36"
     x="1310.91"
     font-family="Gentium Book Basic"
     line-height="125%"
     word-spacing="0"
     letter-spacing="0"
     id="text24">
    <tspan
       y="151.36"
       x="1310.91"
       id="tspan26" />
  </text>
  <text
     transform="scale(4.0128.2492)"
     font-size="46.954"
     y="258.22"
     x="523.76"
     font-family="Arial"
     text-anchor="middle"
     id="text28" />
  <text
     font-size="129.23"
     y="-29.901"
     x="239.33"
     font-family="Gentium Book Basic"
     line-height="125%"
     word-spacing="0"
     letter-spacing="0"
     id="text30">
    <tspan
       y="-29.901"
       x="239.33"
       id="tspan32" />
  </text>
  <text
     transform="scale(4.0128.2492)"
     font-size="46.954"
     y="-469.14"
     x="256.72"
     font-family="Arial"
     text-anchor="middle"
     id="text34" />
  <text
     font-size="129.23"
     y="-246.37"
     x="1337.38"
     font-family="Gentium Book Basic"
     line-height="125%"
     word-spacing="0"
     letter-spacing="0"
     id="text36">
    <tspan
       y="-246.37"
       x="1337.38"
       id="tspan38" />
  </text>
  <text
     transform="scale(4.0128.2492)"
     font-size="46.954"
     y="-1337.8"
     x="530.36"
     font-family="Arial"
     text-anchor="middle"
     id="text40" />
  <text
     font-size="129.23"
     y="-326.38"
     x="1918.65"
     font-family="Gentium Book Basic"
     line-height="125%"
     word-spacing="0"
     letter-spacing="0"
     id="text42">
    <tspan
       y="-326.38"
       x="1918.65"
       id="tspan44" />
  </text>
  <text
     transform="scale(4.0128.2492)"
     font-size="46.954"
     y="-1658.84"
     x="675.21"
     font-family="Arial"
     text-anchor="middle"
     id="text46" />
  <text
     font-size="129.23"
     y="-798.78"
     x="1529.53"
     font-family="Gentium Book Basic"
     line-height="125%"
     word-spacing="0"
     letter-spacing="0"
     id="text48">
    <tspan
       y="-798.78"
       x="1529.53"
       id="tspan50" />
  </text>
  <text
     transform="scale(4.0128.2492)"
     font-size="46.954"
     y="-3554.49"
     x="578.24"
     font-family="Arial"
     text-anchor="middle"
     id="text52" />
  <text
     font-size="129.23"
     y="-878.78"
     x="2110.79"
     font-family="Gentium Book Basic"
     line-height="125%"
     word-spacing="0"
     letter-spacing="0"
     id="text54">
    <tspan
       y="-878.78"
       x="2110.79"
       id="tspan56" />
  </text>
  <text
     transform="scale(4.0128.2492)"
     font-size="46.954"
     y="-3875.52"
     x="723.09"
     font-family="Arial"
     text-anchor="middle"
     id="text58" />
  <g
     font-family="Gentium Book Basic"
     line-height="125%"
     word-spacing="0"
     letter-spacing="0"
     id="g60">
    <text
       y="535.94"
       x="277.99"
       font-size="208.33"
       id="text62">
      <tspan
         y="535.94"
         x="277.99"
         id="tspan64" />
    </text>
    <text
       y="270.87"
       x="-1745.96"
       font-size="129.23"
       id="text66">
      <tspan
         y="270.87"
         x="-1745.96"
         id="tspan68" />
    </text>
  </g>
  <text
     transform="scale(4.0128.2492)"
     font-size="46.954"
     y="737.79"
     x="-238.01"
     font-family="Arial"
     text-anchor="middle"
     id="text70" />
  <text
     font-size="129.23"
     y="190.87"
     x="-1164.69"
     font-family="Gentium Book Basic"
     line-height="125%"
     word-spacing="0"
     letter-spacing="0"
     id="text72">
    <tspan
       y="190.87"
       x="-1164.69"
       id="tspan74" />
  </text>
  <text
     transform="scale(4.0128.2492)"
     font-size="46.954"
     y="416.76"
     x="-93.17"
     font-family="Arial"
     text-anchor="middle"
     id="text76" />
  <text
     font-size="129.23"
     y="9.608"
     x="-2236.27"
     font-family="Gentium Book Basic"
     line-height="125%"
     word-spacing="0"
     letter-spacing="0"
     id="text78">
    <tspan
       y="9.608"
       x="-2236.27"
       id="tspan80" />
  </text>
  <text
     transform="scale(4.0128.2492)"
     font-size="46.954"
     y="-310.6"
     x="-360.2"
     font-family="Arial"
     text-anchor="middle"
     id="text82" />
  <text
     font-size="129.23"
     y="-206.86"
     x="-1138.22"
     font-family="Gentium Book Basic"
     line-height="125%"
     word-spacing="0"
     letter-spacing="0"
     id="text84">
    <tspan
       y="-206.86"
       x="-1138.22"
       id="tspan86" />
  </text>
  <text
     transform="scale(4.0128.2492)"
     font-size="46.954"
     y="-1179.26"
     x="-86.57"
     font-family="Arial"
     text-anchor="middle"
     id="text88" />
  <text
     font-size="129.23"
     y="-286.87"
     x="-556.95"
     font-family="Gentium Book Basic"
     line-height="125%"
     word-spacing="0"
     letter-spacing="0"
     id="text90">
    <tspan
       y="-286.87"
       x="-556.95"
       id="tspan92" />
  </text>
  <text
     transform="scale(4.0128.2492)"
     font-size="46.954"
     y="-1500.3"
     x="58.28"
     font-family="Arial"
     text-anchor="middle"
     id="text94" />
  <text
     font-size="129.23"
     y="-759.27"
     x="-946.07"
     font-family="Gentium Book Basic"
     line-height="125%"
     word-spacing="0"
     letter-spacing="0"
     id="text96">
    <tspan
       y="-759.27"
       x="-946.07"
       id="tspan98" />
  </text>
  <text
     transform="scale(4.0128.2492)"
     font-size="46.954"
     y="-3395.95"
     x="-38.686"
     font-family="Arial"
     text-anchor="middle"
     id="text100" />
  <text
     font-size="129.23"
     y="-839.27"
     x="-364.81"
     font-family="Gentium Book Basic"
     line-height="125%"
     word-spacing="0"
     letter-spacing="0"
     id="text102">
    <tspan
       y="-839.27"
       x="-364.81"
       id="tspan104" />
  </text>
  <text
     transform="scale(4.0128.2492)"
     font-size="46.954"
     y="-3716.98"
     x="106.16"
     font-family="Arial"
     text-anchor="middle"
     id="text106" />
  <g
     font-family="Gentium Book Basic"
     line-height="125%"
     word-spacing="0"
     letter-spacing="0"
     id="g108">
    <text
       y="575.45"
       x="-2197.61"
       font-size="208.33"
       id="text110">
      <tspan
         y="575.45"
         x="-2197.61"
         id="tspan112" />
    </text>
    <text
       y="525.1"
       x="-1144.61"
       font-size="129.23"
       id="text114">
      <tspan
         y="525.1"
         x="-1144.61"
         id="tspan116" />
    </text>
  </g>
  <text
     transform="scale(4.0128.2492)"
     font-size="46.954"
     y="1757.96"
     x="-88.16"
     font-family="Arial"
     text-anchor="middle"
     id="text118" />
  <text
     font-size="129.23"
     y="445.1"
     x="-563.34"
     font-family="Gentium Book Basic"
     line-height="125%"
     word-spacing="0"
     letter-spacing="0"
     id="text120">
    <tspan
       y="445.1"
       x="-563.34"
       id="tspan122" />
  </text>
  <text
     transform="scale(4.0128.2492)"
     font-size="46.954"
     y="1436.93"
     x="56.693"
     font-family="Arial"
     text-anchor="middle"
     id="text124" />
  <text
     font-size="129.23"
     y="263.84"
     x="-1634.92"
     font-family="Gentium Book Basic"
     line-height="125%"
     word-spacing="0"
     letter-spacing="0"
     id="text126">
    <tspan
       y="263.84"
       x="-1634.92"
       id="tspan128" />
  </text>
  <text
     transform="scale(4.0128.2492)"
     font-size="46.954"
     y="709.58"
     x="-210.35"
     font-family="Arial"
     text-anchor="middle"
     id="text130" />
  <text
     font-size="129.23"
     y="47.37"
     x="-536.87"
     font-family="Gentium Book Basic"
     line-height="125%"
     word-spacing="0"
     letter-spacing="0"
     id="text132">
    <tspan
       y="47.37"
       x="-536.87"
       id="tspan134" />
  </text>
  <text
     transform="scale(4.0128.2492)"
     font-size="46.954"
     y="-159.09"
     x="63.29"
     font-family="Arial"
     text-anchor="middle"
     id="text136" />
  <text
     font-size="129.23"
     y="-32.643"
     x="44.4"
     font-family="Gentium Book Basic"
     line-height="125%"
     word-spacing="0"
     letter-spacing="0"
     id="text138">
    <tspan
       y="-32.643"
       x="44.4"
       id="tspan140" />
  </text>
  <text
     transform="scale(4.0128.2492)"
     font-size="46.954"
     y="-480.13"
     x="208.14"
     font-family="Arial"
     text-anchor="middle"
     id="text142" />
  <text
     font-size="129.23"
     y="-505.04"
     x="-344.72"
     font-family="Gentium Book Basic"
     line-height="125%"
     word-spacing="0"
     letter-spacing="0"
     id="text144">
    <tspan
       y="-505.04"
       x="-344.72"
       id="tspan146" />
  </text>
  <text
     transform="scale(4.0128.2492)"
     font-size="46.954"
     y="-2375.78"
     x="111.17"
     font-family="Arial"
     text-anchor="middle"
     id="text148" />
  <text
     font-size="129.23"
     y="-585.04"
     x="236.54"
     font-family="Gentium Book Basic"
     line-height="125%"
     word-spacing="0"
     letter-spacing="0"
     id="text150">
    <tspan
       y="-585.04"
       x="236.54"
       id="tspan152" />
  </text>
  <text
     transform="scale(4.0128.2492)"
     font-size="46.954"
     y="-2696.8"
     x="256.02"
     font-family="Arial"
     text-anchor="middle"
     id="text154" />
  <g
     font-family="Gentium Book Basic"
     line-height="125%"
     word-spacing="0"
     letter-spacing="0"
     id="g156">
    <text
       y="829.68"
       x="-1596.26"
       font-size="208.33"
       id="text158">
      <tspan
         y="829.68"
         x="-1596.26"
         id="tspan160" />
    </text>
    <text
       y="246.55"
       x="1403.27"
       font-size="129.23"
       id="text162">
      <tspan
         y="246.55"
         x="1403.27"
         id="tspan164" />
    </text>
  </g>
  <text
     transform="scale(4.0128.2492)"
     font-size="46.954"
     y="640.19"
     x="546.78"
     font-family="Arial"
     text-anchor="middle"
     id="text166" />
  <text
     font-size="129.23"
     y="166.55"
     x="1984.54"
     font-family="Gentium Book Basic"
     line-height="125%"
     word-spacing="0"
     letter-spacing="0"
     id="text168">
    <tspan
       y="166.55"
       x="1984.54"
       id="tspan170" />
  </text>
  <text
     transform="scale(4.0128.2492)"
     font-size="46.954"
     y="319.16"
     x="691.63"
     font-family="Arial"
     text-anchor="middle"
     id="text172" />
  <text
     font-size="129.23"
     y="-14.715"
     x="912.96"
     font-family="Gentium Book Basic"
     line-height="125%"
     word-spacing="0"
     letter-spacing="0"
     id="text174">
    <tspan
       y="-14.715"
       x="912.96"
       id="tspan176" />
  </text>
  <text
     transform="scale(4.0128.2492)"
     font-size="46.954"
     y="-408.2"
     x="424.59"
     font-family="Arial"
     text-anchor="middle"
     id="text178" />
  <text
     font-size="129.23"
     y="-231.18"
     x="2011.01"
     font-family="Gentium Book Basic"
     line-height="125%"
     word-spacing="0"
     letter-spacing="0"
     id="text180">
    <tspan
       y="-231.18"
       x="2011.01"
       id="tspan182" />
  </text>
  <text
     transform="scale(4.0128.2492)"
     font-size="46.954"
     y="-1276.86"
     x="698.23"
     font-family="Arial"
     text-anchor="middle"
     id="text184" />
  <text
     font-size="129.23"
     y="-311.19"
     x="2592.28"
     font-family="Gentium Book Basic"
     line-height="125%"
     word-spacing="0"
     letter-spacing="0"
     id="text186">
    <tspan
       y="-311.19"
       x="2592.28"
       id="tspan188" />
  </text>
  <text
     transform="scale(4.0128.2492)"
     font-size="46.954"
     y="-1597.9"
     x="843.08"
     font-family="Arial"
     text-anchor="middle"
     id="text190" />
  <text
     font-size="129.23"
     y="-783.59"
     x="2203.16"
     font-family="Gentium Book Basic"
     line-height="125%"
     word-spacing="0"
     letter-spacing="0"
     id="text192">
    <tspan
       y="-783.59"
       x="2203.16"
       id="tspan194" />
  </text>
  <text
     transform="scale(4.0128.2492)"
     font-size="46.954"
     y="-3493.55"
     x="746.11"
     font-family="Arial"
     text-anchor="middle"
     id="text196" />
  <text
     font-size="129.23"
     y="-863.59"
     x="2784.42"
     font-family="Gentium Book Basic"
     line-height="125%"
     word-spacing="0"
     letter-spacing="0"
     id="text198">
    <tspan
       y="-863.59"
       x="2784.42"
       id="tspan200" />
  </text>
  <text
     transform="scale(4.0128.2492)"
     font-size="46.954"
     y="-3814.58"
     x="890.96"
     font-family="Arial"
     text-anchor="middle"
     id="text202" />
  <g
     font-family="Gentium Book Basic"
     line-height="125%"
     word-spacing="0"
     letter-spacing="0"
     id="g204">
    <text
       y="551.13"
       x="951.62"
       font-size="208.33"
       id="text206">
      <tspan
         y="551.13"
         x="951.62"
         id="tspan208" />
    </text>
    <text
       y="246.55"
       x="1403.27"
       font-size="129.23"
       id="text210">
      <tspan
         y="246.55"
         x="1403.27"
         id="tspan212" />
    </text>
  </g>
  <text
     transform="scale(4.0128.2492)"
     font-size="46.954"
     y="640.19"
     x="546.78"
     font-family="Arial"
     text-anchor="middle"
     id="text214" />
  <text
     font-size="129.23"
     y="166.55"
     x="1984.54"
     font-family="Gentium Book Basic"
     line-height="125%"
     word-spacing="0"
     letter-spacing="0"
     id="text216">
    <tspan
       y="166.55"
       x="1984.54"
       id="tspan218" />
  </text>
  <text
     transform="scale(4.0128.2492)"
     font-size="46.954"
     y="319.16"
     x="691.63"
     font-family="Arial"
     text-anchor="middle"
     id="text220" />
  <text
     font-size="129.23"
     y="-14.715"
     x="912.96"
     font-family="Gentium Book Basic"
     line-height="125%"
     word-spacing="0"
     letter-spacing="0"
     id="text222">
    <tspan
       y="-14.715"
       x="912.96"
       id="tspan224" />
  </text>
  <text
     transform="scale(4.0128.2492)"
     font-size="46.954"
     y="-408.2"
     x="424.59"
     font-family="Arial"
     text-anchor="middle"
     id="text226" />
  <text
     font-size="129.23"
     y="-231.18"
     x="2011.01"
     font-family="Gentium Book Basic"
     line-height="125%"
     word-spacing="0"
     letter-spacing="0"
     id="text228">
    <tspan
       y="-231.18"
       x="2011.01"
       id="tspan230" />
  </text>
  <text
     transform="scale(4.0128.2492)"
     font-size="46.954"
     y="-1276.85"
     x="698.23"
     font-family="Arial"
     text-anchor="middle"
     id="text232" />
  <text
     font-size="129.23"
     y="-311.19"
     x="2592.28"
     font-family="Gentium Book Basic"
     line-height="125%"
     word-spacing="0"
     letter-spacing="0"
     id="text234">
    <tspan
       y="-311.19"
       x="2592.28"
       id="tspan236" />
  </text>
  <text
     transform="scale(4.0128.2492)"
     font-size="46.954"
     y="-1597.89"
     x="843.08"
     font-family="Arial"
     text-anchor="middle"
     id="text238" />
  <text
     font-size="129.23"
     y="-783.59"
     x="2203.16"
     font-family="Gentium Book Basic"
     line-height="125%"
     word-spacing="0"
     letter-spacing="0"
     id="text240">
    <tspan
       y="-783.59"
       x="2203.16"
       id="tspan242" />
  </text>
  <text
     transform="scale(4.0128.2492)"
     font-size="46.954"
     y="-3493.53"
     x="746.11"
     font-family="Arial"
     text-anchor="middle"
     id="text244" />
  <text
     font-size="129.23"
     y="-863.59"
     x="2784.42"
     font-family="Gentium Book Basic"
     line-height="125%"
     word-spacing="0"
     letter-spacing="0"
     id="text246">
    <tspan
       y="-863.59"
       x="2784.42"
       id="tspan248" />
  </text>
  <text
     transform="scale(4.0128.2492)"
     font-size="46.954"
     y="-3814.56"
     x="890.96"
     font-family="Arial"
     text-anchor="middle"
     id="text250" />
  <text
     font-size="208.33"
     y="551.13"
     x="951.62"
     font-family="Gentium Book Basic"
     line-height="125%"
     word-spacing="0"
     letter-spacing="0"
     id="text252">
    <tspan
       y="551.13"
       x="951.62"
       id="tspan254" />
  </text>
  <path
     d="m301.63 146.66c-46.02 0.614-97.4 13.915-138.82 39.21v6.397c94.53-48.793 228.66-48.49 240.86 21.41 4.113 23.16-8.859 47.25-32.09 61.1v18.14c27.96-10.259 56.55-43.47 48.27-84.17-8.757-42.686-59.06-62.882-118.23-62.09m41.27 51.11v76.62c0 8.997 4.286 16.82 17.11 18.06v-94.68h-17.11m32.711 0.262c-0.522 0-1.014 0.052-1.493 0.182-0.479 0.132-0.93 0.325-1.352 0.565-0.417 0.24-0.806 0.531-1.15 0.868s-0.643 0.716-0.888 1.13c-0.245 0.408-0.43 0.842-0.565 1.312s-0.201 0.963-0.201 1.473 0.062 0.998 0.201 1.473c0.135 0.47 0.319 0.919 0.565 1.332 0.245 0.408 0.543 0.773 0.888 1.11 0.349 0.332 0.733 0.627 1.15 0.868 0.417 0.24 0.872 0.432 1.352 0.565 0.486 0.132 0.976 0.182 1.493 0.182 0.522 0 1.033-0.052 1.513-0.182 0.485-0.133 0.935-0.325 1.352-0.565 0.423-0.24 0.811-0.536 1.15-0.868 0.344-0.337 0.622-0.702 0.868-1.11 0.245-0.413 0.449-0.862 0.585-1.332 0.135-0.475 0.201-0.963 0.201-1.473 0-0.766-0.147-1.49-0.444-2.159-0.292-0.674-0.694-1.255-1.211-1.756-0.511-0.5-1.128-0.9-1.816-1.191-0.683-0.291-1.417-0.424-2.2-0.424m0.001 0.726c0.454 0 0.894 0.041 1.312 0.161 0.423 0.113 0.826 0.275 1.191 0.485s0.686 0.471 0.989 0.767c0.303 0.291 0.573 0.612 0.787 0.968 0.214 0.352 0.37 0.737 0.485 1.15 0.12 0.408 0.182 0.832 0.182 1.271 0 0.444-0.062 0.878-0.182 1.292-0.115 0.408-0.271 0.792-0.485 1.15-0.214 0.357-0.485 0.673-0.787 0.968-0.303 0.291-0.624 0.537-0.989 0.747-0.365 0.205-0.768 0.367-1.191 0.485-0.417 0.113-0.858 0.182-1.312 0.182-0.678 0-1.302-0.133-1.897-0.383s-1.125-0.595-1.574-1.029c-0.443-0.439-0.788-0.952-1.049-1.534-0.255-0.587-0.383-1.208-0.383-1.877 0-0.663 0.128-1.295 0.383-1.877 0.26-0.582 0.605-1.079 1.049-1.513 0.448-0.439 0.979-0.779 1.574-1.029 0.595-0.255 1.219-0.383 1.897-0.383m-236.71 1.352v16.285h17.11v-16.285h-17.11m234.47 0.283v6.377h1.01v-2.583h1.251l1.554 2.583h1.15l-1.735-2.684c0.443-0.093 0.798-0.314 1.069-0.625 0.272-0.316 0.404-0.73 0.404-1.251 0-0.566-0.189-1.01-0.585-1.332-0.392-0.321-0.955-0.485-1.695-0.485h-2.422zm1.01 0.747h1.332c0.423 0 0.744 0.103 0.989 0.282 0.25 0.184 0.383 0.455 0.383 0.807 0 0.383-0.103 0.688-0.322 0.908-0.219 0.214-0.552 0.322-0.968 0.322h-1.413v-2.321zm-135.49 6.235v66.45c0 9.559 5.871 19.231 19.756 19.231h10.01v-14.206h-6.901c-4.046 0-5.913-2.144-5.913-6.05v-33.24h12.814v-13.783h-12.814v-18.404h-16.951m-112.08 1.998c-27.4 24.12-42.29 54.608-33.7 90.63 10.959 46.22 69.38 72.4 158.55 63.69 35.31-3.409 81.52-14.832 113.59-32.529v-25.14c-29.14 17.452-77.34 31.88-117.51 35.597-65.32 6.05-133.38-3.463-142.91-54.707-4.732-25.23 6.78-52.01 21.976-68.63v-8.899m177.6 15.256c-17.872 0-31.46 12.538-31.46 34.729 0 25.95 15.571 34.85 31.823 34.85 12.454 0 19.488-4.03 26.21-10.675l-10.453-10.09c-4.359 4.311-8.103 6.437-15.639 6.437-9.59 0-15.05-6.432-15.05-15.15h43.08v-6.135c0-19.276-10.393-33.962-28.514-33.962m-165.51 1.15v50.03c0 9 4.285 16.821 17.11 18.06v-68.09h-17.11m32.25 0v67.38h16.931v-53.597h14.09c4.981 0 7.02 2.454 7.02 6.457v47.14h17.01v-47.2c0-9.591-5.116-20.18-19.998-20.18h-35.05m132.52 12.935c8.718 0 12.02 7.05 12.39 14.408h-26.21c0.185-3.01 0.555-4.874 1.675-7.325 1.869-4.067 6.358-7.083 12.148-7.083"
     fill="#E3E3E3"
     id="path258" />
</svg>
