<svg xmlns="http://www.w3.org/2000/svg" width="48" height="48">
<defs>
  <path
     d="M 9 2 C 7.3316193 2 6 3.3484075 6 5.03125 L 6 42.96875 C 6 44.651592 7.3316193 46 9 46 L 39 46 C 40.66838 46 42 44.651592 42 42.96875 L 42 19.40625 L 24.75 2 L 9 2 z M 29.5 2 L 42 14.5625 L 42 5.03125 C 42 3.3484075 40.66838 2 39 2 L 29.5 2 z M 19.90625 16.40625 L 20.8125 16.40625 L 33.9375 16.40625 L 35.1875 16.40625 L 35.1875 17.65625 L 35.1875 20.90625 L 32.71875 20.90625 L 32.71875 18.875 L 21.78125 18.875 L 17.5625 34.59375 L 16.375 39.0625 L 15.15625 34.59375 L 12.9375 26.28125 L 11.84375 26.28125 L 11.84375 23.8125 L 13.90625 23.8125 L 14.875 23.8125 L 15.09375 24.71875 L 16.375 29.46875 L 19.625 17.3125 L 19.90625 16.40625 z M 23.65625 23.1875 L 27.5625 27.09375 L 31.46875 23.1875 L 33.25 24.9375 L 29.34375 28.84375 L 33.25 32.75 L 31.46875 34.53125 L 27.5625 30.625 L 23.65625 34.53125 L 21.90625 32.75 L 25.8125 28.84375 L 21.90625 24.9375 L 23.65625 23.1875 z "
     id="path-main" />
</defs>

<use id="1" style="fill:#E3E3E3" xlink:href="#path-main" />



</svg>
