<?xml version="1.0" encoding="UTF-8" standalone="no"?>
<svg
   xmlns:dc="http://purl.org/dc/elements/1.1/"
   xmlns:cc="http://creativecommons.org/ns#"
   xmlns:rdf="http://www.w3.org/1999/02/22-rdf-syntax-ns#"
   xmlns:svg="http://www.w3.org/2000/svg"
   xmlns="http://www.w3.org/2000/svg"
   xmlns:sodipodi="http://sodipodi.sourceforge.net/DTD/sodipodi-0.dtd"
   xmlns:inkscape="http://www.inkscape.org/namespaces/inkscape"
   height="512"
   viewBox="0 0 512 512"
   width="512"
   version="1.1"
   id="svg2"
   inkscape:version="0.91 r"
   sodipodi:docname="LightZone.svg">
  <defs
     id="defs17" />
  <sodipodi:namedview
     pagecolor="#ffffff"
     bordercolor="#666666"
     borderopacity="1"
     objecttolerance="10"
     gridtolerance="10"
     guidetolerance="10"
     inkscape:pageopacity="0"
     inkscape:pageshadow="2"
     inkscape:window-width="1920"
     inkscape:window-height="1028"
     id="namedview15"
     showgrid="false"
     inkscape:zoom="1.3037281"
     inkscape:cx="172.48005"
     inkscape:cy="244.919"
     inkscape:window-x="0"
     inkscape:window-y="0"
     inkscape:window-maximized="1"
     inkscape:current-layer="svg2" />
  <metadata
     id="metadata28">
    <rdf:RDF>
      <cc:Work
         rdf:about="">
        <dc:format>image/svg+xml</dc:format>
        <dc:type
           rdf:resource="http://purl.org/dc/dcmitype/StillImage" />
        <dc:title />
      </cc:Work>
    </rdf:RDF>
  </metadata>
  <path
     inkscape:connector-curvature="0"
     style="fill:#E3E3E3"
     d="m 202.59068,106.32468 c 31.12,0 61.731,27.705 78.59,70.779 -15.358,8.164 -29.575,18.502 -41.18,30.16 -42.816,43.09 -53.22,103.55 -25.659,143.26 -3.916,0.659 -7.842,1.103 -11.747,1.103 -49.802,0 -90.33,-51.27 -90.33,-114.29 0,-60.58 39.458,-131.02 90.33,-131.02 m 23.746,248.7 c -29.51,-36.806 -19.236,-96.41 22.782,-138.68 11.785,-11.86 26.366,-22.386 42.18,-30.421 l 1.42,-0.723 -0.337,-0.67 c 20.897,-10.381 43.41,-16.12 63.57,-16.12 20.87,0 38.22,6.267 50.14,18.13 16.627,16.526 22.348,43.07 16.09,74.74 -6,30.389 -22.17,60.64 -44.38,82.976 -25.01,25.16 -57.27,39.581 -88.5,39.581 -22.841,0 -42.634,-7.676 -57.25,-22.21 -1.5,-1.473 -2.952,-3.182 -4.419,-4.939 l -1.296,-1.671"
     id="path1153" />
</svg>
