<?xml version="1.0" encoding="UTF-8" standalone="no"?>
<svg xmlns:dc="http://purl.org/dc/elements/1.1/" xmlns:cc="http://creativecommons.org/ns#" xmlns:rdf="http://www.w3.org/1999/02/22-rdf-syntax-ns#" xmlns:svg="http://www.w3.org/2000/svg" xmlns="http://www.w3.org/2000/svg" xmlns:sodipodi="http://sodipodi.sourceforge.net/DTD/sodipodi-0.dtd" xmlns:inkscape="http://www.inkscape.org/namespaces/inkscape" height="512" viewBox="0 0 512 512" width="512" version="1.1" id="svg2" inkscape:version="0.91 r" sodipodi:docname="distributor-logo-linux-mint.svg">
<defs id="defs15" />
<sodipodi:namedview pagecolor="#ffffff" bordercolor="#666666" borderopacity="1" objecttolerance="10" gridtolerance="10" guidetolerance="10" inkscape:pageopacity="0" inkscape:pageshadow="2" inkscape:window-width="640" inkscape:window-height="480" id="namedview13" showgrid="false" inkscape:zoom="0.4609375" inkscape:cx="218.0339" inkscape:cy="256" inkscape:window-x="0" inkscape:window-y="0" inkscape:window-maximized="0" inkscape:current-layer="svg2" />
<metadata id="metadata72">
<rdf:RDF>
<cc:Work rdf:about="">
<dc:format>image/svg+xml</dc:format>
<dc:type rdf:resource="http://purl.org/dc/dcmitype/StillImage" />
</cc:Work>
</rdf:RDF>
</metadata>
<path id="path66" d="m 41.083585,50.721356 0,295.600524 c 0,31.36362 11.475896,58.84319 33.803724,81.07931 19.083937,18.83759 41.969201,31.12087 67.754901,33.87745 l 210.85296,0 c 32.36699,0 60.5946,-12.08008 83.5428,-35.44185 l 0.22297,0 c 19.5155,-20.05135 30.87451,-44.06766 33.65448,-71.10668 l 0,-32.91004 -0.14925,-128.58686 c 0,-25.59329 -9.49072,-48.25019 -27.47418,-66.41526 -17.99965,-18.17946 -40.39401,-27.549705 -65.5971,-27.549705 -24.73917,0 -46.3801,9.215605 -63.88345,26.059025 -17.453,-16.81645 -38.93209,-26.059025 -63.66048,-26.059025 -25.21028,0 -47.60465,9.373835 -65.5971,27.549705 -17.98166,18.16148 -27.40045,40.82197 -27.40045,66.41526 l 0,129.40503 58.59684,0 0,-129.40503 c 0,-9.80899 3.27086,-17.42063 10.27472,-24.49641 7.02723,-7.09737 14.45726,-10.35025 24.1242,-10.35025 9.86474,0 17.23002,3.2349 24.27344,10.35025 7.00386,7.07578 10.201,14.68742 10.201,24.49641 l 0,129.40503 58.59684,0 0,-129.40503 c 0,-9.80899 3.27086,-17.42063 10.27472,-24.49641 7.04162,-7.11355 14.33318,-10.35025 24.19792,-10.35025 9.66155,0 17.17069,3.25109 24.19792,10.35025 7.00386,7.07578 10.12547,14.68742 10.12547,24.49641 l 0.2985,151.15385 c 0,1.90066 -0.0953,3.78873 -0.2985,5.65883 -0.0126,0.0971 0.0126,0.19959 0,0.29849 -0.0809,0.71387 -0.18701,1.45292 -0.29849,2.1596 -0.24635,1.52125 -0.588,2.98316 -0.96741,4.46664 -6.76471,26.39169 -34.25507,46.75232 -68.42023,46.75232 l -126.71676,-0.44594 0,0.0737 -62.61754,-0.29849 c -30.44475,0 -56.439041,-29.52589 -56.439041,-67.60745 l 0,-284.721626 -55.469828,0" inkscape:connector-curvature="0" style="fill:#E3E3E3;fill-rule:evenodd" />
</svg>
