<?xml version="1.0" encoding="UTF-8" standalone="no"?>
<svg
   xmlns:dc="http://purl.org/dc/elements/1.1/"
   xmlns:cc="http://creativecommons.org/ns#"
   xmlns:rdf="http://www.w3.org/1999/02/22-rdf-syntax-ns#"
   xmlns:svg="http://www.w3.org/2000/svg"
   xmlns="http://www.w3.org/2000/svg"
   xmlns:sodipodi="http://sodipodi.sourceforge.net/DTD/sodipodi-0.dtd"
   xmlns:inkscape="http://www.inkscape.org/namespaces/inkscape"
   viewBox="0 0 512 512"
   id="svg2"
   version="1.1"
   inkscape:version="0.91 r"
   sodipodi:docname="ms-word.svg">
  <metadata
     id="metadata28">
    <rdf:RDF>
      <cc:Work
         rdf:about="">
        <dc:format>image/svg+xml</dc:format>
        <dc:type
           rdf:resource="http://purl.org/dc/dcmitype/StillImage" />
      </cc:Work>
    </rdf:RDF>
  </metadata>
  <defs
     id="defs26" />
  <sodipodi:namedview
     pagecolor="#ffffff"
     bordercolor="#666666"
     borderopacity="1"
     objecttolerance="10"
     gridtolerance="10"
     guidetolerance="10"
     inkscape:pageopacity="0"
     inkscape:pageshadow="2"
     inkscape:window-width="640"
     inkscape:window-height="480"
     id="namedview24"
     showgrid="false"
     inkscape:zoom="0.4609375"
     inkscape:cx="256"
     inkscape:cy="256"
     inkscape:window-x="0"
     inkscape:window-y="0"
     inkscape:window-maximized="0"
     inkscape:current-layer="svg2" />
  <path
     style="fill:#E3E3E3;fill-rule:evenodd"
     inkscape:connector-curvature="0"
     id="path22"
     d="m 277.45,119.57 -162.17,28.617 0,215.96 162.17,28.27 0,-272.85 m 6.177,31.386 0,28.199 c 0,-0.215 0.166,-0.381 0.381,-0.381 l 93.64,0 c 0.215,0 0.398,0.166 0.398,0.381 l 0,11.263 c 0,0.215 -0.183,0.381 -0.398,0.381 l -93.64,0 c -0.215,0 -0.381,-0.166 -0.381,-0.381 l 0,24.17 c 0,-0.215 0.166,-0.381 0.381,-0.381 l 93.64,0 c 0.215,0 0.398,0.166 0.398,0.381 l 0,11.263 c 0,0.215 -0.183,0.381 -0.398,0.381 l -93.64,0 c -0.215,0 -0.381,-0.166 -0.381,-0.381 l 0,24.171 c 0,-0.215 0.166,-0.381 0.381,-0.381 l 93.64,0 c 0.215,0 0.398,0.166 0.398,0.381 l 0,11.264 c 0,0.215 -0.183,0.381 -0.398,0.381 l -93.64,0 c -0.215,0 -0.381,-0.166 -0.381,-0.381 l 0,24.17 c 0,-0.215 0.166,-0.381 0.381,-0.381 l 93.64,0 c 0.215,0 0.398,0.166 0.398,0.381 l 0,11.264 c 0,0.215 -0.183,0.381 -0.398,0.381 l -93.64,0 c -0.215,0 -0.381,-0.166 -0.381,-0.381 l 0,24.171 c 0,-0.215 0.166,-0.381 0.381,-0.381 l 93.64,0 c 0.215,0 0.398,0.166 0.398,0.381 l 0,11.264 c 0,0.215 -0.183,0.381 -0.398,0.381 l -93.64,0 c -0.215,0 -0.381,-0.166 -0.381,-0.381 l 0,28.199 112.48,0 c 0.341,0 0.623,-0.283 0.623,-0.623 l 0,-208.18 c 0,-0.34 -0.283,-0.606 -0.623,-0.606 l -112.49,0 m -139.47,64.83 10.381,0 17.09,61.681 c 0.71,2.58 1.163,5.276 1.35,8.08 l 0.277,0 c 0.187,-1.981 0.775,-4.678 1.747,-8.08 l 17.769,-61.681 9.03,0 17.04,62.13 c 0.598,2.131 1.05,4.648 1.35,7.526 l 0.225,0 c 0.15,-1.944 0.646,-4.536 1.505,-7.751 l 16.437,-61.906 10.208,0 -22.717,80.42 -11.04,0 -16.541,-58.774 c -0.71,-2.505 -1.148,-5.23 -1.298,-8.184 l -0.225,0 c -0.224,2.766 -0.706,5.463 -1.453,8.08 l -16.662,58.878 -10.935,0 -23.548,-80.42" />
</svg>
