<svg xmlns="http://www.w3.org/2000/svg" width="48" height="48">
<defs>
  <path
     d="M 2.46875 2.46875 L 2.46875 45.53125 L 45.53125 45.53125 L 45.53125 2.46875 L 2.46875 2.46875 z M 34.0625 3.375 L 37.75 3.375 L 37.75 8.46875 L 34.0625 8.46875 L 34.0625 3.375 z M 40.15625 3.375 L 43.84375 3.375 L 43.84375 8.46875 L 40.15625 8.46875 L 40.15625 3.375 z M 21.875 3.4375 L 25.5625 3.4375 L 25.5625 8.53125 L 21.875 8.53125 L 21.875 3.4375 z M 28.03125 3.4375 L 31.71875 3.4375 L 31.71875 8.53125 L 28.03125 8.53125 L 28.03125 3.4375 z M 4.125 3.5 L 7.8125 3.5 L 7.8125 8.5625 L 4.125 8.5625 L 4.125 3.5 z M 10.03125 3.5 L 13.71875 3.5 L 13.71875 8.5625 L 10.03125 8.5625 L 10.03125 3.5 z M 15.78125 3.5 L 19.46875 3.5 L 19.46875 8.5625 L 15.78125 8.5625 L 15.78125 3.5 z M 3.34375 9.34375 L 44.65625 9.34375 L 44.65625 38.96875 L 3.34375 38.96875 L 3.34375 9.34375 z M 23.46875 12.125 C 17.114619 12.125 11.96875 17.302118 11.96875 23.65625 C 11.96875 30.010382 17.114618 35.156249 23.46875 35.15625 C 29.822881 35.15625 34.968751 30.010382 34.96875 23.65625 C 34.96875 17.302118 29.822881 12.125 23.46875 12.125 z M 20.21875 18.84375 C 20.23734 18.83302 20.28011 18.84517 20.3125 18.84375 C 21.316374 18.79981 28.71875 23.084798 28.71875 23.75 C 28.71875 24.436659 20.813315 28.99958 20.21875 28.65625 C 19.624185 28.312921 19.624186 19.18708 20.21875 18.84375 z M 34.03125 39.6875 L 37.71875 39.6875 L 37.71875 44.75 L 34.03125 44.75 L 34.03125 39.6875 z M 40.125 39.6875 L 43.8125 39.6875 L 43.8125 44.75 L 40.125 44.75 L 40.125 39.6875 z M 21.84375 39.75 L 25.53125 39.75 L 25.53125 44.8125 L 21.84375 44.8125 L 21.84375 39.75 z M 28 39.75 L 31.6875 39.75 L 31.6875 44.8125 L 28 44.8125 L 28 39.75 z M 4.09375 39.8125 L 7.78125 39.8125 L 7.78125 44.875 L 4.09375 44.875 L 4.09375 39.8125 z M 10.03125 39.8125 L 13.6875 39.8125 L 13.6875 44.875 L 10.03125 44.875 L 10.03125 39.8125 z M 15.75 39.8125 L 19.4375 39.8125 L 19.4375 44.875 L 15.75 44.875 L 15.75 39.8125 z "
     id="path-main" />
</defs>

<use id="1" style="fill:#E3E3E3" xlink:href="#path-main" />



</svg>
