<svg xmlns="http://www.w3.org/2000/svg" width="48" height="48">
<defs>
<defs
     id="defs3">
  </defs>
  <path
     id="path-main"
     d="m 6.323924,2.6838593 c -0.075476,0.00157 -0.1379955,0.038166 -0.2047695,0.068256 l -3.822363,1.842925 C 2.0321789,4.7335098 1.9231097,5.0793548 2.0578938,5.3458621 l 1.0921037,2.1842072 c 0.022873,0.051405 0.1823399,0.2196526 0.273026,0.2730259 L 4.7540249,9.0317119 4.8564096,9.1340966 12.808289,26.266473 c -1.154705,1.109411 -1.606246,2.736217 -0.921462,4.197774 l 3.651722,7.815367 c 0.887369,1.893952 3.302111,2.62133 5.289877,1.706412 0.729669,-0.252183 1.310412,-0.739899 1.911182,-1.194488 1.076303,-1.107101 1.448263,-2.747914 0.784949,-4.163646 L 19.872835,26.812525 C 19.174057,25.3211 17.513292,24.596746 15.879831,24.798959 13.19687,19.047331 10.546369,13.279398 7.8596948,7.5300693 l 0.034128,-1.877053 C 7.9178278,5.5437 7.8995028,5.4453003 7.8596948,5.3458621 L 6.8358476,3.0251417 C 6.7779988,2.8905683 6.6993521,2.80518 6.5628216,2.7521158 6.4945542,2.7255831 6.3994003,2.68229 6.323924,2.6838593 z M 22.910249,3.2981677 C 22.37687,3.3186717 21.848718,3.4005993 21.34035,3.5029371 l -0.03413,0 c -0.381646,0.078162 -0.762062,0.1861109 -1.126232,0.3071542 -0.526763,0.1750864 -1.018624,0.3908093 -1.501642,0.6484366 l 0.716693,3.4128238 C 18.874932,8.256552 18.385859,8.7070109 17.995782,9.2364814 L 14.617086,8.5539165 c -0.280012,0.5289987 -0.535979,1.0575463 -0.716693,1.6381555 -0.251038,0.806553 -0.409815,1.679034 -0.443667,2.559618 l 3.344568,1.126232 c 0.07605,0.647036 0.220575,1.289437 0.477795,1.877053 l -2.32072,2.593746 c 0.303265,0.481964 0.64404,0.944284 1.023847,1.36513 l 0.682565,0.648437 c 0.423977,0.388134 0.877966,0.748204 1.365129,1.057975 l 2.593747,-2.32072 c 0.31178,0.138995 0.61546,0.250145 0.95559,0.341282 0.321861,0.08624 0.668295,0.168404 0.989719,0.20477 l 1.092104,3.310439 c 0.533379,-0.02051 1.06153,-0.102428 1.569899,-0.204769 l 0.03413,0 c 0.381647,-0.07816 0.762063,-0.186111 1.126232,-0.307155 0.526763,-0.175086 1.018625,-0.390809 1.501643,-0.648436 L 27.176281,18.38285 c 0.520108,-0.385199 1.009181,-0.835659 1.399258,-1.36513 l 3.378696,0.682565 c 0.28001,-0.528999 0.535979,-1.057546 0.716693,-1.638156 0.251036,-0.806553 0.409815,-1.679034 0.443667,-2.559618 l -3.344568,-1.126232 c -0.07605,-0.647036 -0.220575,-1.289437 -0.477795,-1.877053 L 31.612952,7.90548 C 31.309683,7.423516 30.968909,6.9611971 30.589103,6.5403505 L 29.906538,5.891914 C 29.482561,5.5037792 29.028572,5.1437093 28.541408,4.8339385 L 25.947662,7.1546587 C 25.635881,7.0156636 25.332202,6.9045136 24.992071,6.8133765 24.670211,6.7271341 24.323777,6.644973 24.002352,6.608607 L 22.910249,3.2981677 z m 0.136513,7.6447253 c 0.123963,-0.01384 0.248679,-0.0075 0.37541,0 0.144835,0.0086 0.298092,0.02925 0.443667,0.06826 1.164599,0.31205 1.847826,1.531529 1.535771,2.696131 -0.312053,1.164606 -1.531532,1.847823 -2.696131,1.535771 -1.164598,-0.312051 -1.847824,-1.531528 -1.535771,-2.696131 0.238918,-0.891649 1.009307,-1.507165 1.877054,-1.604028 z m 16.381555,1.74054 c -2.209447,0.0012 -4.378241,1.101178 -5.631159,3.10567 -1.25787,2.012416 -1.185193,4.395957 -0.20477,6.381981 L 22.193556,40.054283 c -0.985999,1.577457 -0.519485,3.655443 1.057975,4.64144 1.577458,0.985999 3.68957,0.485354 4.675569,-1.092103 L 39.291804,25.788678 c 2.224432,0.02059 4.436256,-0.948279 5.699417,-2.969157 1.431906,-2.290848 1.29727,-5.167249 -0.136513,-7.269315 -0.03201,-0.04744 -0.05729,-0.06713 -0.102385,-0.102385 -0.122089,-0.09615 -0.290612,-0.163414 -0.443667,-0.136513 -0.153052,0.0269 -0.293426,0.141012 -0.375411,0.273026 l -2.457233,3.856491 -1.604028,0.511924 -1.331001,-0.853206 -0.238898,-1.638156 2.423106,-3.890619 c 0.09892,-0.152728 0.105792,-0.344665 0.03413,-0.511924 -0.07166,-0.16726 -0.196597,-0.273424 -0.375411,-0.307154 -0.314719,-0.04598 -0.639955,-0.06843 -0.955591,-0.06826 z" />
</defs>

<use id="1" style="fill:#E3E3E3" xlink:href="#path-main" />



</svg>
