<svg xmlns="http://www.w3.org/2000/svg" width="48" height="48">
<defs>
<defs
     id="defs2162">
  </defs>
  <path
     id="path-main"
   d="m 32.524858,2.1875 c 0,0 -1.282878,2.6205492 -1.98451,3.74559 C 17.710534,2.5579688 1.0572312,6.974637 2.2256319,31.754458 10.744973,8.8779992 23.826273,10.83294 25.898011,14.020912 c -0.160682,1.052009 -1.893546,3.714196 -2.232575,4.706848 4.610714,0.187507 8.761633,-0.547242 17.080967,2.452864 C 39.643841,11.242769 32.524858,2.1875 32.524858,2.1875 z m 13.21826,14.120542 c -8.519342,22.87646 -21.60064,20.921518 -23.672379,17.733546 0.160682,-1.052009 1.89355,-3.747343 2.232575,-4.739995 C 19.6926,29.114087 15.541681,29.881982 7.2223465,26.881876 8.324909,36.819731 15.408454,45.875 15.408454,45.875 c 0,0 1.318316,-2.62055 2.019948,-3.74559 12.829814,3.37512 29.483117,-1.041547 28.314716,-25.821368 z"
/>
</defs>

<use id="1" style="fill:#E3E3E3" xlink:href="#path-main" />



</svg>
