<?xml version="1.0" encoding="UTF-8" standalone="no"?>
<svg xmlns:dc="http://purl.org/dc/elements/1.1/" xmlns:cc="http://creativecommons.org/ns#" xmlns:rdf="http://www.w3.org/1999/02/22-rdf-syntax-ns#" xmlns:svg="http://www.w3.org/2000/svg" xmlns="http://www.w3.org/2000/svg" xmlns:sodipodi="http://sodipodi.sourceforge.net/DTD/sodipodi-0.dtd" xmlns:inkscape="http://www.inkscape.org/namespaces/inkscape" height="512" viewBox="0 0 512 512" width="512" version="1.1" id="svg2" inkscape:version="0.91 r" sodipodi:docname="cpuinfo.svg">
<defs id="defs13" />
<sodipodi:namedview pagecolor="#ffffff" bordercolor="#666666" borderopacity="1" objecttolerance="10" gridtolerance="10" guidetolerance="10" inkscape:pageopacity="0" inkscape:pageshadow="2" inkscape:window-width="640" inkscape:window-height="480" id="namedview11" showgrid="false" inkscape:zoom="0.4609375" inkscape:cx="218.0339" inkscape:cy="256" inkscape:window-x="0" inkscape:window-y="0" inkscape:window-maximized="0" inkscape:current-layer="svg2" />
<metadata id="metadata72">
<rdf:RDF>
<cc:Work rdf:about="">
<dc:format>image/svg+xml</dc:format>
<dc:type rdf:resource="http://purl.org/dc/dcmitype/StillImage" />
</cc:Work>
</rdf:RDF>
</metadata>
<path id="path66" d="m 173.75187,24.71822 c -7.84004,0 -14.17634,6.336039 -14.17634,14.176337 l 0,61.953203 c 0,7.84003 6.33604,14.09301 14.17634,14.09301 7.84003,0 14.17633,-6.25457 14.17633,-14.09301 l 0,-61.953203 c 0,-7.840034 -6.33604,-14.176337 -14.17633,-14.176337 z m 78.6913,0 c -7.84004,0 -14.09302,6.336039 -14.09302,14.176337 l 0,61.953203 c 0,7.84003 6.25457,14.09301 14.09302,14.09301 7.84003,0 14.17633,-6.25457 14.17633,-14.09301 l 0,-61.953203 c 0,-7.840034 -6.33604,-14.176337 -14.17633,-14.176337 z m 78.7323,0 c -7.84004,0 -14.17634,6.336039 -14.17634,14.176337 l 0,61.953203 c 0,7.84003 6.33604,14.09301 14.17634,14.09301 7.84003,0 14.09301,-6.25457 14.09301,-14.09301 l 0,-61.953203 c 0,-7.840034 -6.25457,-14.176337 -14.09301,-14.176337 z M 172.43065,135.31587 c -21.55878,0 -38.8907,17.41524 -38.8907,38.97401 l 0,160.94024 c 0,21.55878 17.33854,38.93302 38.8907,38.93302 l 160.06736,0 c 21.55877,0 38.89069,-17.37821 38.89069,-38.93302 l 0,-160.94024 c 0,-21.55877 -17.33853,-38.97401 -38.89069,-38.97401 l -160.06736,0 z m 57.73693,24.96299 51.66117,0 0,38.8497 -51.66117,0 0,-38.8497 z m -191.729042,1.57383 c -7.840034,0 -14.176337,6.25457 -14.176337,14.09302 0,7.84003 6.336038,14.17633 14.176337,14.17633 l 61.953202,0 c 7.84003,0 14.09301,-6.33603 14.09301,-14.17633 0,-7.84004 -6.25457,-14.09302 -14.09301,-14.09302 l -61.953202,0 z m 373.248042,0 c -7.84003,0 -14.17633,6.25457 -14.17633,14.09302 0,7.84003 6.33604,14.17633 14.17633,14.17633 l 61.9532,0 c 7.84004,0 14.09302,-6.33603 14.09302,-14.17633 0,-7.84004 -6.25457,-14.09302 -14.09302,-14.09302 l -61.9532,0 z m -181.519,60.30002 51.66117,0 0,127.41907 -51.66117,0 0,-127.41907 z M 38.438538,240.54928 c -7.840034,0 -14.176337,6.33604 -14.176337,14.17634 0,7.84003 6.336038,14.09301 14.176337,14.09301 l 61.953202,0 c 7.84003,0 14.09301,-6.25457 14.09301,-14.09301 0,-7.84004 -6.25457,-14.17634 -14.09301,-14.17634 l -61.953202,0 z m 373.248042,0 c -7.84003,0 -14.17633,6.33604 -14.17633,14.17634 0,7.84003 6.33604,14.09301 14.17633,14.09301 l 61.9532,0 c 7.84004,0 14.09302,-6.25457 14.09302,-14.09301 0,-7.84004 -6.25457,-14.17634 -14.09302,-14.17634 l -61.9532,0 z m -373.248042,78.6913 c -7.840034,0 -14.176337,6.33604 -14.176337,14.17634 0,7.84003 6.336038,14.17633 14.176337,14.17633 l 61.953202,0 c 7.84003,0 14.09301,-6.33603 14.09301,-14.17633 0,-7.84004 -6.25457,-14.17634 -14.09301,-14.17634 l -61.953202,0 z m 373.248042,0 c -7.84003,0 -14.17633,6.33604 -14.17633,14.17634 0,7.84003 6.33604,14.17633 14.17633,14.17633 l 61.9532,0 c 7.84004,0 14.09302,-6.33603 14.09302,-14.17633 0,-7.84004 -6.25457,-14.17634 -14.09302,-14.17634 l -61.9532,0 z M 173.7479,397.07223 c -7.84004,0 -14.17634,6.33604 -14.17634,14.17634 l 0,61.95319 c 0,7.84004 6.33604,14.09302 14.17634,14.09302 7.84003,0 14.17634,-6.25457 14.17634,-14.09302 l 0,-61.95319 c 0,-7.84004 -6.33604,-14.17634 -14.17634,-14.17634 z m 78.6913,0 c -7.84004,0 -14.09302,6.33604 -14.09302,14.17634 l 0,61.95319 c 0,7.84004 6.25457,14.09302 14.09302,14.09302 7.84003,0 14.17634,-6.25457 14.17634,-14.09302 l 0,-61.95319 c 0,-7.84004 -6.33604,-14.17634 -14.17634,-14.17634 z m 78.7323,0 c -7.84004,0 -14.17634,6.33604 -14.17634,14.17634 l 0,61.95319 c 0,7.84004 6.33604,14.09302 14.17634,14.09302 7.84003,0 14.09301,-6.25457 14.09301,-14.09302 l 0,-61.95319 c 0,-7.84004 -6.25457,-14.17634 -14.09301,-14.17634 z" inkscape:connector-curvature="0" style="fill:#E3E3E3" />
</svg>
