<?xml version="1.0" encoding="UTF-8" standalone="no"?>
<svg
   xmlns:dc="http://purl.org/dc/elements/1.1/"
   xmlns:cc="http://creativecommons.org/ns#"
   xmlns:rdf="http://www.w3.org/1999/02/22-rdf-syntax-ns#"
   xmlns:svg="http://www.w3.org/2000/svg"
   xmlns="http://www.w3.org/2000/svg"
   xmlns:sodipodi="http://sodipodi.sourceforge.net/DTD/sodipodi-0.dtd"
   xmlns:inkscape="http://www.inkscape.org/namespaces/inkscape"
   viewBox="0 0 512 512"
   id="svg2"
   version="1.1"
   inkscape:version="0.91 r"
   sodipodi:docname="gtk-theme-config.svg">
  <metadata
     id="metadata32">
    <rdf:RDF>
      <cc:Work
         rdf:about="">
        <dc:format>image/svg+xml</dc:format>
        <dc:type
           rdf:resource="http://purl.org/dc/dcmitype/StillImage" />
      </cc:Work>
    </rdf:RDF>
  </metadata>
  <defs
     id="defs30" />
  <sodipodi:namedview
     pagecolor="#ffffff"
     bordercolor="#666666"
     borderopacity="1"
     objecttolerance="10"
     gridtolerance="10"
     guidetolerance="10"
     inkscape:pageopacity="0"
     inkscape:pageshadow="2"
     inkscape:window-width="640"
     inkscape:window-height="480"
     id="namedview28"
     showgrid="false"
     inkscape:zoom="0.4609375"
     inkscape:cx="256"
     inkscape:cy="256"
     inkscape:window-x="0"
     inkscape:window-y="0"
     inkscape:window-maximized="0"
     inkscape:current-layer="svg2" />
  <path
     d="m332.61 124.42l-18.781 36.719-40.75 6.281 29.09 29.19-6.594 40.688 36.75-18.656 36.656 18.844-6.375-40.719 29.25-29-40.688-6.531-18.563-36.812m-158.91 3c-29.575 0-53.56 23.956-53.56 53.53 0 29.575 23.987 53.56 53.56 53.56 29.575 0 53.56-23.987 53.56-53.56 0-29.575-23.987-53.53-53.56-53.53m109.88 153.06c-2.587 0-4.656 2.069-4.656 4.656v97.78c0 2.587 2.069 4.656 4.656 4.656h97.78c2.587 0 4.656-2.069 4.656-4.656v-97.78c0-2.587-2.069-4.656-4.656-4.656h-97.78m-109.87 6.906l-27.25 46.09-26.312 46.656 53.56 0.531 53.56-0.531-26.33-46.66-27.25-46.09"
     fill="#E3E3E3"
     id="path26" />
</svg>
