<?xml version="1.0" encoding="UTF-8" standalone="no"?>
<svg
   xmlns:dc="http://purl.org/dc/elements/1.1/"
   xmlns:cc="http://creativecommons.org/ns#"
   xmlns:rdf="http://www.w3.org/1999/02/22-rdf-syntax-ns#"
   xmlns:svg="http://www.w3.org/2000/svg"
   xmlns="http://www.w3.org/2000/svg"
   xmlns:sodipodi="http://sodipodi.sourceforge.net/DTD/sodipodi-0.dtd"
   xmlns:inkscape="http://www.inkscape.org/namespaces/inkscape"
   width="512"
   height="512"
   viewBox="0 0 135.46666 135.46667"
   version="1.1"
   id="svg2"
   inkscape:version="0.91 r"
   sodipodi:docname="preferences-desktop-display-color.svg">
  <defs
     id="defs26" />
  <sodipodi:namedview
     pagecolor="#ffffff"
     bordercolor="#666666"
     borderopacity="1"
     objecttolerance="10"
     gridtolerance="10"
     guidetolerance="10"
     inkscape:pageopacity="0"
     inkscape:pageshadow="2"
     inkscape:window-width="1920"
     inkscape:window-height="1028"
     id="namedview24"
     showgrid="false"
     inkscape:zoom="1.84375"
     inkscape:cx="209.27195"
     inkscape:cy="349.21445"
     inkscape:window-x="0"
     inkscape:window-y="0"
     inkscape:window-maximized="1"
     inkscape:current-layer="layer1" />
  <metadata
     id="metadata8511">
    <rdf:RDF>
      <cc:Work
         rdf:about="">
        <dc:format>image/svg+xml</dc:format>
        <dc:type
           rdf:resource="http://purl.org/dc/dcmitype/StillImage" />
      </cc:Work>
    </rdf:RDF>
  </metadata>
  <g
     inkscape:label="Layer 1"
     inkscape:groupmode="layer"
     id="layer1"
     transform="translate(0,-161.53332)">
    <g
       style="fill-rule:evenodd"
       transform="matrix(0.26458334,0,0,0.26458334,-7e-6,159.94582)"
       id="g5014" />
    <path
       id="path5141"
       d="m 67.86562,198.18605 0,29.88998 -37.271855,0 0,-19.35691 c 0,-5.87111 3.7592,-10.53386 8.466666,-10.53386 l 28.807835,0"
       inkscape:connector-curvature="0"
       style="color:#000000;fill:#E3E3E3;fill-opacity:0.56172842" />
    <path
       id="path5143"
       d="m 67.86562,198.14121 0,29.88998 37.2745,0 0,-19.35691 c 0,-5.87111 -3.7592,-10.53386 -8.466668,-10.53386 l -28.805186,0"
       inkscape:connector-curvature="0"
       style="color:#000000;fill:#E3E3E3;fill-opacity:0.40740739" />
    <path
       id="path5145"
       d="m 67.86562,257.96601 0,-29.88998 37.2745,0 0,19.35692 c 0,5.8711 -3.7592,10.53386 -8.466666,10.53386 l -28.805188,0"
       inkscape:connector-curvature="0"
       style="color:#000000;fill:#E3E3E3;fill-opacity:0.72839504" />
    <path
       id="path5147"
       d="m 67.86562,257.96601 0,-29.88998 -37.271855,0 0,19.35692 c 0,5.8711 3.7592,10.53386 8.466666,10.53386 l 28.807835,0"
       inkscape:connector-curvature="0"
       style="color:#000000;fill:#E3E3E3;fill-opacity:0.6506024" />
  </g>
</svg>
