<?xml version="1.0" encoding="UTF-8" standalone="no"?>
<svg
   xmlns:dc="http://purl.org/dc/elements/1.1/"
   xmlns:cc="http://creativecommons.org/ns#"
   xmlns:rdf="http://www.w3.org/1999/02/22-rdf-syntax-ns#"
   xmlns:svg="http://www.w3.org/2000/svg"
   xmlns="http://www.w3.org/2000/svg"
   xmlns:sodipodi="http://sodipodi.sourceforge.net/DTD/sodipodi-0.dtd"
   xmlns:inkscape="http://www.inkscape.org/namespaces/inkscape"
   height="512"
   viewBox="0 0 512 512"
   width="512"
   version="1.1"
   id="svg2"
   inkscape:version="0.91 r13725"
   sodipodi:docname="qdbusviewer.svg">
  <defs
     id="defs19" />
  <sodipodi:namedview
     pagecolor="#ffffff"
     bordercolor="#666666"
     borderopacity="1"
     objecttolerance="10"
     gridtolerance="10"
     guidetolerance="10"
     inkscape:pageopacity="0"
     inkscape:pageshadow="2"
     inkscape:window-width="640"
     inkscape:window-height="480"
     id="namedview17"
     showgrid="false"
     inkscape:zoom="0.4609375"
     inkscape:cx="256"
     inkscape:cy="256"
     inkscape:window-x="0"
     inkscape:window-y="31"
     inkscape:window-maximized="0"
     inkscape:current-layer="svg2" />
  <metadata
     id="metadata78">
    <rdf:RDF>
      <cc:Work
         rdf:about="">
        <dc:format>image/svg+xml</dc:format>
        <dc:type
           rdf:resource="http://purl.org/dc/dcmitype/StillImage" />
      </cc:Work>
    </rdf:RDF>
  </metadata>
  <g
     style="fill:#E3E3E3"
     transform="matrix(1.2885826,0,0,1.2885826,-96.894085,-770.17561)"
     id="g68">
    <path
       style="fill-rule:evenodd"
       inkscape:connector-curvature="0"
       d="m 157.58,676.08 c -61.43,0 -61.698,66.15 -61.698,66.15 l 0,75.22 c 0,14.15 9.712,33.01 19.16,42.44 16.706,16.673 28.26,14.28 28.26,14.28 0,0 0.157,4.649 4.882,18.796 4.725,14.15 18.626,23.678 32.802,23.678 14.176,0 19.16,-4.882 19.16,-4.882 l 0,-18.796 c 0,0 -4.83,0.169 -14.28,-4.546 -9.452,-4.716 -9.429,-14.25 -9.429,-14.25 0,0 14.08,-4.649 28.26,-18.796 14.176,-14.15 14.311,-37.928 14.311,-37.928 l 0,-70.7 c 0,0 0.006,-70.67 -61.42,-70.67 m 93.58,9.734 -14.311,37.592 -9.429,0 0,18.827 9.429,0 0,99.2 c 0,0 0.083,23.343 23.709,23.343 23.626,0 28.29,-9.398 28.29,-9.398 l 0,-18.16 c -0.443,1.326 -2.341,4.211 -9.429,4.211 -9.451,0 -13.975,-9.398 -13.975,-9.398 l 0,-89.8 23.404,0 0,-18.81 -23.404,0 0,-37.592 -14.28,0 m -90.65,13.945 c 23.631,0 23.709,23.343 23.709,23.343 l 0,94.35 c 0,0 -0.083,33.05 -23.709,33.05 -23.631,0 -23.709,-33.05 -23.709,-33.05 l 0,-89.5 c 0,0 0.083,-28.19 23.709,-28.19"
       id="path70" />
    <path
       inkscape:connector-curvature="0"
       d="m 321.03,718.5 -21.875,45.96 23.21,40.3 0,-18.841 64.36,-3.496 0,-63.49 -65.7,17.505 0,-17.942 m 74.49,49.38 1.408,20.71 -68.952,3.812 3.496,50.67 68.66,9.857 1.457,21.293 50.26,-50.01 -56.33,-56.33"
       id="path72" />
  </g>
</svg>
