<?xml version="1.0" encoding="UTF-8" standalone="no"?>
<svg
   xmlns:dc="http://purl.org/dc/elements/1.1/"
   xmlns:cc="http://creativecommons.org/ns#"
   xmlns:rdf="http://www.w3.org/1999/02/22-rdf-syntax-ns#"
   xmlns:svg="http://www.w3.org/2000/svg"
   xmlns="http://www.w3.org/2000/svg"
   xmlns:sodipodi="http://sodipodi.sourceforge.net/DTD/sodipodi-0.dtd"
   xmlns:inkscape="http://www.inkscape.org/namespaces/inkscape"
   height="512"
   viewBox="0 0 512 512"
   width="512"
   version="1.1"
   id="svg2"
   inkscape:version="0.91 r"
   sodipodi:docname="qmmp.svg">
  <defs
     id="defs15" />
  <sodipodi:namedview
     pagecolor="#ffffff"
     bordercolor="#666666"
     borderopacity="1"
     objecttolerance="10"
     gridtolerance="10"
     guidetolerance="10"
     inkscape:pageopacity="0"
     inkscape:pageshadow="2"
     inkscape:window-width="647"
     inkscape:window-height="480"
     id="namedview13"
     showgrid="false"
     inkscape:zoom="0.4609375"
     inkscape:cx="256"
     inkscape:cy="256"
     inkscape:window-x="0"
     inkscape:window-y="0"
     inkscape:window-maximized="0"
     inkscape:current-layer="svg2" />
  <metadata
     id="metadata72">
    <rdf:RDF>
      <cc:Work
         rdf:about="">
        <dc:format>image/svg+xml</dc:format>
        <dc:type
           rdf:resource="http://purl.org/dc/dcmitype/StillImage" />
      </cc:Work>
    </rdf:RDF>
  </metadata>
  <path
     id="path66"
     d="m266.56 140.03c-5.467 9.625-8.15 15.546-9.472 19.09-0.604 1.62-0.853 3.392-1.027 3.395-0.175 0.003-0.441-1.715-1.027-3.288-1.322-3.549-4.01-9.47-9.473-19.09l-3.196 1.591c5.41 9.523 8.01 15.258 9.244 18.565 0.556 1.491 1.269 2.536 0.913 2.97s-1.147 0.105-2.739 1.379-3.421 4.295-3.88 8.06c-8.842-0.127-11.763-0.309-11.869-0.318-0.85-0.848-1.891-1.765-3.652-3.077-2.107-1.569-4.866-3.347-7.646-5.092s-5.603-3.412-8.217-4.561c-2.613-1.149-6.208-1.636-7.19-1.379-0.982 0.256 0.144-0.012-0.114 0s-0.423-0.013-1.141 0-2.322-0.017-3.994 0c-3.345 0.034-7.961 0.119-13.467 0.318-11.01 0.398-25.485 1.407-40.06 3.819-14.573 2.412-29.26 6.176-40.743 12.518-11.453 6.324-19.875 15.387-21.11 27.687-0.004 0.036 0.004 0.07 0 0.106-0.009 0.092-0.036 0.29 0 0.636 0.042 0.404 0.211 0.957 0.456 1.591 0.492 1.267 1.483 3.01 3.538 4.986 4.109 3.959 12.29 9.159 29.1 15.17 0 0 2.999 1.178 5.478 2.97 1.24 0.896 2.254 1.983 2.739 2.864 0.486 0.881 0.571 1.352 0 2.228v0.106s-0.401 0.595-0.57 1.379-0.194 1.85 0.114 3.182c0.617 2.664 2.644 6.168 7.875 10.502 0.002 0.001 0.361 0.272 0.457 0.318 0.095 0.046 0.17 0.087 0.228 0.106 0.115 0.039 0.17-0.012 0.228 0 0.116 0.025 0.159 0.097 0.228 0.106 0.138 0.018 0.192-0.014 0.342 0 0.3 0.029 0.793 0.056 1.256 0.106 0.925 0.101 2.146 0.226 3.424 0.53 2.555 0.608 5.1 1.864 6.163 3.713 0.572 0.996 1.456 1.224 2.282 1.485 0.827 0.26 1.722 0.41 2.739 0.53 2.033 0.241 4.482 0.379 6.847 0.424 2.365 0.046 4.645 0.02 6.277 0.106 0.559 0.029 0.905 0.063 1.256 0.106 0.094 0.623 0.228 1.805 0.228 3.819 0 1.232-0.092 2.546-0.343 3.501-0.25 0.955-0.611 1.479-0.799 1.591l-0.228 0.106-0.114 0.106s-2.413 2.292-3.309 6.153c-0.897 3.86-0.176 9.431 5.364 15.382 5.456 5.86 15.454 13.533 24.19 20.686 4.37 3.577 8.42 7.02 11.299 9.866 1.439 1.423 2.566 2.674 3.309 3.713 0.744 1.039 1.027 1.854 1.027 2.02-0.027 0.205-1.442 11.437-2.169 23.02-0.366 5.845-0.554 11.703-0.228 16.337 0.163 2.317 0.41 4.333 0.913 5.941 0.252 0.804 0.568 1.484 1.027 2.122 0.46 0.638 1.104 1.256 2.054 1.485 4.12 0.993 8.521-1.033 11.983-3.607s6.22-5.689 6.391-9.02c0.268-5.22-3.457-9.311-3.88-9.76-0.1-0.359-0.669-2.588-1.027-5.41-0.193-1.523-0.36-3.058-0.228-4.349 0.132-1.292 0.603-2.254 0.913-2.546 0.433-0.408 1.033-0.545 2.168-0.531s2.629 0.197 4.223 0.531c1.593 0.333 3.327 0.815 5.02 0.955 1.694 0.14 3.449-0.039 5.02-0.955 3.374-1.966 6.778-6.282 10.04-10.184 1.632-1.951 2.269-3.243 4.451-4.986 2.181-1.743 4.505 1.133 7.647 4.774 3.265 3.902 6.669 8.324 10.04 10.29 1.572 0.916 3.327 0.989 5.02 0.849 1.694-0.14 3.428-0.516 5.02-0.849 1.593-0.333 3.087-0.622 4.222-0.636s1.736 0.228 2.169 0.636c0.31 0.292 0.666 1.148 0.799 2.44 0.132 1.292 0.079 2.932-0.114 4.455-0.373 2.937-1.089 5.332-1.141 5.516-0.561 0.604-4.03 4.547-3.766 9.653 0.171 3.328 2.929 6.443 6.391 9.02 3.462 2.574 7.749 4.6 11.869 3.607 0.95-0.229 1.709-0.847 2.169-1.485s0.776-1.424 1.027-2.228c0.503-1.607 0.75-3.518 0.913-5.834 0.327-4.634 0.138-10.598-0.228-16.443-0.726-11.583-2.255-22.708-2.282-22.914 0-0.161 0.283-0.977 1.027-2.02 0.744-1.039 1.871-2.29 3.309-3.713 2.879-2.846 6.928-6.289 11.299-9.866 8.741-7.153 18.853-14.932 24.308-20.792 5.54-5.951 6.261-11.416 5.364-15.276s-3.31-6.153-3.31-6.153l-0.228-0.106-0.114-0.106c-0.188-0.113-0.663-0.637-0.913-1.591-0.25-0.955-0.343-2.269-0.343-3.501 0-1.97 0.244-3.156 0.343-3.819 0.351-0.043 0.697-0.077 1.255-0.106 1.632-0.086 3.912-0.06 6.277-0.106s4.814-0.184 6.847-0.424c1.017-0.121 1.912-0.27 2.739-0.531 0.827-0.26 1.71-0.595 2.282-1.591 1.062-1.849 3.608-2.999 6.163-3.607 1.277-0.304 2.499-0.429 3.424-0.531 0.462-0.051 0.841-0.078 1.141-0.106 0.15-0.014 0.319-0.088 0.457-0.106 0.068-0.009 0.112 0.025 0.228 0 0.058-0.012 0.112-0.067 0.228-0.106 0.058-0.02 0.133-0.06 0.228-0.106s0.455-0.211 0.457-0.212c5.231-4.334 7.258-7.838 7.874-10.502 0.309-1.332 0.169-2.505 0-3.289s-0.457-1.379-0.457-1.379c-0.57-0.876-0.485-1.453 0-2.334 0.486-0.882 1.5-1.862 2.739-2.758 2.419-1.749 5.222-2.912 5.364-2.97 0-0.002 0.114-0.106 0.114-0.106 16.692-5.984 25.01-11.225 29.1-15.17 2.055-1.979 3.046-3.613 3.538-4.88 0.246-0.634 0.301-1.187 0.343-1.591 0.037-0.354 0.009-0.66 0-0.742v-0.106c-1.239-12.299-9.546-21.258-20.999-27.582-11.486-6.342-26.17-10.212-40.743-12.624s-29.05-3.315-40.06-3.713c-5.505-0.199-10.121-0.284-13.467-0.318-1.673-0.017-3.276 0.013-3.995 0-0.718-0.013-0.883-0.094-1.141-0.106s0.868 0.256-0.114 0-4.576 0.336-7.19 1.485c-2.613 1.149-5.551 2.817-8.331 4.562s-5.425 3.523-7.532 5.092c-1.726 1.286-2.688 2.134-3.538 2.97-0.083 0.007-3.144 0.189-12.1 0.318-0.461-3.763-2.199-6.703-3.766-7.956s-2.091-0.783-2.454-1.22 0.053-1.589 0.628-3.13c1.232-3.306 3.835-9.04 9.244-18.564"
     fill-rule="evenodd"
     fill="#E3E3E3" />
</svg>
