<?xml version="1.0" encoding="UTF-8" standalone="no"?>
<svg
   xmlns:dc="http://purl.org/dc/elements/1.1/"
   xmlns:cc="http://creativecommons.org/ns#"
   xmlns:rdf="http://www.w3.org/1999/02/22-rdf-syntax-ns#"
   xmlns:svg="http://www.w3.org/2000/svg"
   xmlns="http://www.w3.org/2000/svg"
   xmlns:sodipodi="http://sodipodi.sourceforge.net/DTD/sodipodi-0.dtd"
   xmlns:inkscape="http://www.inkscape.org/namespaces/inkscape"
   viewBox="0 0 512 512"
   id="svg2"
   version="1.1"
   inkscape:version="0.91 r13725"
   sodipodi:docname="rygel.svg">
  <metadata
     id="metadata26">
    <rdf:RDF>
      <cc:Work
         rdf:about="">
        <dc:format>image/svg+xml</dc:format>
        <dc:type
           rdf:resource="http://purl.org/dc/dcmitype/StillImage" />
      </cc:Work>
    </rdf:RDF>
  </metadata>
  <defs
     id="defs24" />
  <sodipodi:namedview
     pagecolor="#ffffff"
     bordercolor="#666666"
     borderopacity="1"
     objecttolerance="10"
     gridtolerance="10"
     guidetolerance="10"
     inkscape:pageopacity="0"
     inkscape:pageshadow="2"
     inkscape:window-width="1680"
     inkscape:window-height="997"
     id="namedview22"
     showgrid="false"
     inkscape:zoom="0.4609375"
     inkscape:cx="-82.440678"
     inkscape:cy="256"
     inkscape:window-x="0"
     inkscape:window-y="35"
     inkscape:window-maximized="1"
     inkscape:current-layer="svg2" />
  <path
     d="m 162.75561,5.620339 -19.19445,8.625412 c 11.04499,15.146504 16.81618,44.965085 24.24481,98.925939 -8.44023,28.17186 -9.7472,32.8687 -6.44916,50.43326 6.61445,35.23012 35.95554,57.16095 68.0728,53.07627 5.01823,-0.63818 9.74414,-1.90536 14.14255,-3.80767 23.75661,-10.27366 38.14097,-37.76908 31.93821,-67.36881 C 268.95407,114.20625 242.01573,95.406651 205.49394,89.087572 185.09505,72.253021 168.39671,48.479575 164.85227,29.872805 162.84743,19.465992 161.52668,11.76342 162.75408,5.6279911 M 495.97105,136.34063 c -15.1465,11.04499 -44.96508,16.81618 -98.92594,24.24481 -28.17186,-8.44023 -32.8687,-9.7472 -50.43325,-6.44916 -35.23013,6.61444 -57.16096,35.95554 -53.07628,68.0728 0.63971,5.01822 1.90536,9.74414 3.80767,14.14255 10.27367,23.75661 37.76908,38.14097 67.36881,31.93821 31.29849,-6.5563 50.09656,-33.49464 56.41717,-70.01643 16.83455,-20.39889 40.52995,-37.09723 59.13672,-40.64167 10.40681,-2.00484 18.10938,-3.32559 24.24481,-2.0982 L 495.9634,136.3391 M 158.2317,241.01939 c -3.60565,0.15304 -7.25569,0.62288 -10.95776,1.3988 -31.29849,6.55629 -50.020041,33.49464 -56.339119,70.01643 -16.834551,20.39888 -40.607998,37.16916 -59.214768,40.71972 -10.406813,2.00484 -18.109385,3.24753 -24.2448137,2.02014 L 16.0226,374.36893 c 15.146504,-11.04499 44.965085,-16.81618 98.92594,-24.24481 28.17186,8.44023 32.94675,9.7472 50.50365,6.44916 35.23013,-6.61445 57.08444,-35.95554 52.99823,-68.0728 -0.63971,-5.01823 -1.90536,-9.74415 -3.80767,-14.14255 -8.98965,-20.78608 -31.17912,-34.41136 -56.41717,-33.33701 M 303.3088,294.9527 c -1.98035,0.0551 -3.97601,0.2112 -5.98392,0.46678 -5.01822,0.63818 -9.74414,1.90536 -14.14255,3.80767 -23.75661,10.27367 -38.14097,37.76908 -31.9382,67.36881 6.55629,31.29849 33.49463,50.09809 70.01642,56.41717 20.39889,16.83455 37.16916,40.52995 40.71972,59.13672 2.00484,10.40681 3.24754,18.10938 2.02015,24.24481 l 19.19445,-8.54736 c -11.045,-15.1465 -16.81619,-44.96508 -24.24482,-98.92594 8.44023,-28.17186 9.74721,-32.8687 6.4507,-50.43326 -6.20124,-33.03244 -32.38356,-54.37559 -62.09042,-53.54152"
     id="path20"
     inkscape:connector-curvature="0"
     style="fill:#E3E3E3" />
</svg>
