<svg xmlns="http://www.w3.org/2000/svg" width="48" height="48">
<defs>
<defs
     id="defs2385">
  </defs>
  <path
     id="path-main"
     d="M 13.00566,40.623649 2.4936947,35.55023 2.5545093,23.306613 2.615324,11.062997 5.4022978,9.8444382 C 17.588316,4.5163015 23.742061,1.9683824 24.408048,1.9752291 c 0.429972,0.00442 5.359371,1.9796883 10.954222,4.3894843 l 10.172455,4.3814466 0,12.529086 0,12.529086 -10.172455,4.941985 c -6.185618,3.005096 -10.50014,4.943702 -11.008548,4.946367 -0.520024,0.0028 -4.809923,-1.913518 -11.348057,-5.069035 z m 16.180202,-7.998354 c 2.400677,-1.225505 4.844649,-2.519896 5.431048,-2.876422 l 1.066177,-0.648228 -1.219201,-0.646785 -1.219201,-0.646785 -4.452708,2.129718 c -5.329594,2.549131 -4.047571,2.54364 -9.22157,0.03949 -4.94392,-2.392798 -4.346858,-2.229879 -5.872893,-1.60251 -1.596465,0.656324 -1.884796,0.422666 4.455186,3.610372 6.78479,3.411351 5.726958,3.349879 11.033162,0.641152 z m 1.717244,-7.594743 c 2.472216,-1.342572 2.541544,-1.488114 1.024176,-2.150068 -0.716581,-0.31261 -1.867236,-0.814753 -2.557012,-1.115872 l -1.254138,-0.547491 0,2.517153 0,2.517154 0.627069,-0.194225 c 0.344888,-0.106819 1.316845,-0.568817 2.159905,-1.026651 z m -4.603785,-3.893056 c 2.262927,-1.1159 2.300804,-0.981774 -0.691466,-2.44846 -3.03118,-1.485758 -3.016326,-1.293931 -0.209024,-2.69954 l 2.299254,-1.151231 -1.792182,-0.82459 -1.792182,-0.824592 -4.060464,1.785211 c -5.650487,2.484278 -5.621021,2.128852 -0.396823,4.786702 5.198153,2.644597 4.404724,2.480188 6.642887,1.3765 z m -7.659516,-7.553468 5.712682,-2.591137 3.066286,1.37108 c 1.686458,0.754093 4.132304,1.876403 5.435214,2.494021 1.302911,0.617617 2.74517,1.12498 3.205021,1.127473 0.935595,0.0051 9.1919,-3.98064 8.851365,-4.272975 -0.35749,-0.306892 -20.184369,-8.7234074 -20.549828,-8.7234074 -0.271848,0 -10.893945,4.571386 -18.3090409,7.8795834 -2.0354847,0.908118 -1.9036285,1.089249 2.3854462,3.276916 4.7758407,2.435946 3.4310837,2.509959 10.2028547,-0.561554 z"
/>
</defs>

<use id="1" style="fill:#E3E3E3" xlink:href="#path-main" />



</svg>
