<?xml version="1.0" encoding="UTF-8" standalone="no"?>
<svg
   xmlns:dc="http://purl.org/dc/elements/1.1/"
   xmlns:cc="http://creativecommons.org/ns#"
   xmlns:rdf="http://www.w3.org/1999/02/22-rdf-syntax-ns#"
   xmlns:svg="http://www.w3.org/2000/svg"
   xmlns="http://www.w3.org/2000/svg"
   xmlns:sodipodi="http://sodipodi.sourceforge.net/DTD/sodipodi-0.dtd"
   xmlns:inkscape="http://www.inkscape.org/namespaces/inkscape"
   height="512"
   viewBox="0 0 512 512"
   width="512"
   version="1.1"
   id="svg2"
   inkscape:version="0.91 r13725"
   sodipodi:docname="sbackup-conf.svg">
  <defs
     id="defs23" />
  <sodipodi:namedview
     pagecolor="#ffffff"
     bordercolor="#666666"
     borderopacity="1"
     objecttolerance="10"
     gridtolerance="10"
     guidetolerance="10"
     inkscape:pageopacity="0"
     inkscape:pageshadow="2"
     inkscape:window-width="1920"
     inkscape:window-height="1019"
     id="namedview21"
     showgrid="false"
     inkscape:zoom="1.5232544"
     inkscape:cx="361.52102"
     inkscape:cy="354.415"
     inkscape:window-x="0"
     inkscape:window-y="13"
     inkscape:window-maximized="1"
     inkscape:current-layer="svg2" />
  <metadata
     id="metadata86">
    <rdf:RDF>
      <cc:Work
         rdf:about="">
        <dc:format>image/svg+xml</dc:format>
        <dc:type
           rdf:resource="http://purl.org/dc/dcmitype/StillImage" />
        <dc:title></dc:title>
      </cc:Work>
    </rdf:RDF>
  </metadata>
  <path
     style="color:#000000;fill:#E3E3E3"
     inkscape:connector-curvature="0"
     d="m 237.80499,79.538353 c 62.90277,0 126.99413,71.789977 158.01016,121.963657 l 15.80293,-67.87468 c 0.25017,-0.14544 0.5585,-0.15901 0.82417,-0.26761 3.52746,-3.74659 11.09822,-1.47575 12.0814,3.58758 l 25.26816,147.35425 c 0.89398,4.13832 -2.92435,8.61406 -7.14024,8.55588 l -39.67701,-9.62331 c -13.72975,83.60017 -78.1777,149.25363 -165.16957,149.25363 -96.73069,0 -175.732957,-79.11861 -175.732957,-176.33411 0,-97.21355 79.004207,-176.605588 175.732957,-176.605588 z m -21.4091,53.513027 c -9.22878,0.12216 -19.12652,1.27601 -29.10782,4.96637 -53.57397,19.80775 -91.163164,57.2344 -91.163164,118.12232 0,78.81803 64.904444,142.3782 143.326874,142.3782 71.60603,0 153.72638,-46.11783 163.44191,-115.33474 l -101.9412,-27.05897 c -5.10988,-0.15903 -8.54812,-7.19648 -5.4919,-11.31347 l 59.39372,-9.42667 c -0.68456,-2.67808 -40.4123,-50.244 -61.83366,-70.10693 -23.85267,-22.11736 -46.17747,-30.1392 -76.64027,-32.24356"
     id="path68"
     sodipodi:nodetypes="ccccccccsscccsssccccsc" />
  <path
     inkscape:connector-curvature="0"
     style="color:#000000;fill:#E3E3E3"
     id="path18-3"
     d="m 211.03763,173.85349 c -3.65769,0 -6.6024,2.87728 -6.6024,6.45123 l 0,15.2731 c -5.55638,1.36821 -10.80432,3.51826 -15.59742,6.32021 l -11.04906,-10.79611 c -2.5871,-2.52786 -6.74992,-2.52786 -9.33143,0 l -10.84678,10.59848 c -2.5871,2.52784 -2.5871,6.59536 0,9.11775 l 11.04906,10.7961 c -2.86759,4.68229 -5.06691,9.81116 -6.4683,15.24035 l -15.63095,0 c -3.6577,0 -6.60239,2.87728 -6.60239,6.45123 l 0,15.00992 c 0,3.57396 2.94469,6.45124 6.60239,6.45124 l 15.63095,0 c 1.40028,5.42917 3.60071,10.55697 6.4683,15.24034 l -11.04906,10.7961 c -2.5871,2.52787 -2.5871,6.59537 0,9.11778 l 10.84678,10.59847 c 2.5871,2.52785 6.74992,2.52785 9.33143,0 l 11.04906,-10.79612 c 4.79198,2.80197 10.04104,4.95091 15.59742,6.32021 l 0,15.27309 c 0,3.57396 2.94471,6.45124 6.6024,6.45124 l 15.36163,0 c 3.6577,0 6.60241,-2.87728 6.60241,-6.45124 l 0,-15.27309 c 5.55637,-1.36821 10.80432,-3.51824 15.59742,-6.32021 l 11.04906,10.79612 c 2.58709,2.52785 6.74992,2.52785 9.33143,0 l 10.84679,-10.59847 c 2.58709,-2.52785 2.58709,-6.59537 0,-9.11778 l -11.04907,-10.7961 c 2.86759,-4.68227 5.06691,-9.81117 6.46828,-15.24034 l 15.63097,0 c 3.65769,0 6.60239,-2.87728 6.60239,-6.45124 l 0,-15.00992 c 0,-3.57395 -2.9447,-6.45123 -6.60239,-6.45123 l -15.63097,0 c -1.40026,-5.42919 -3.60069,-10.55698 -6.46828,-15.24035 l 11.04907,-10.7961 c 2.58709,-2.52785 2.58709,-6.59536 0,-9.11775 l -10.84679,-10.59848 c -2.5871,-2.52786 -6.74992,-2.52786 -9.33143,0 l -11.04906,10.79611 c -4.79198,-2.80195 -10.04105,-4.9509 -15.59742,-6.32021 l 0,-15.2731 c 0,-3.57395 -2.94471,-6.45123 -6.60241,-6.45123 l -15.36163,0 z m 7.68082,50.65553 c 14.87215,0 26.92141,11.76792 26.92141,26.30506 0,14.53165 -12.04368,26.30505 -26.92141,26.30505 -14.87214,0 -26.92141,-11.76794 -26.92141,-26.30505 0,-14.53167 12.04366,-26.30506 26.92141,-26.30506 z" />
</svg>
