<?xml version="1.0" encoding="UTF-8" standalone="no"?>
<svg
   xmlns:dc="http://purl.org/dc/elements/1.1/"
   xmlns:cc="http://creativecommons.org/ns#"
   xmlns:rdf="http://www.w3.org/1999/02/22-rdf-syntax-ns#"
   xmlns:svg="http://www.w3.org/2000/svg"
   xmlns="http://www.w3.org/2000/svg"
   xmlns:sodipodi="http://sodipodi.sourceforge.net/DTD/sodipodi-0.dtd"
   xmlns:inkscape="http://www.inkscape.org/namespaces/inkscape"
   height="512"
   viewBox="0 0 512 512"
   width="512"
   version="1.1"
   id="svg2"
   inkscape:version="0.91 r13725"
   sodipodi:docname="sbackup.svg">
  <defs
     id="defs23" />
  <sodipodi:namedview
     pagecolor="#ffffff"
     bordercolor="#666666"
     borderopacity="1"
     objecttolerance="10"
     gridtolerance="10"
     guidetolerance="10"
     inkscape:pageopacity="0"
     inkscape:pageshadow="2"
     inkscape:window-width="1920"
     inkscape:window-height="1019"
     id="namedview21"
     showgrid="false"
     inkscape:zoom="1.5232544"
     inkscape:cx="361.52102"
     inkscape:cy="354.415"
     inkscape:window-x="0"
     inkscape:window-y="13"
     inkscape:window-maximized="1"
     inkscape:current-layer="svg2" />
  <metadata
     id="metadata86">
    <rdf:RDF>
      <cc:Work
         rdf:about="">
        <dc:format>image/svg+xml</dc:format>
        <dc:type
           rdf:resource="http://purl.org/dc/dcmitype/StillImage" />
        <dc:title></dc:title>
      </cc:Work>
    </rdf:RDF>
  </metadata>
  <path
     style="color:#000000;fill:#E3E3E3"
     inkscape:connector-curvature="0"
     d="m 237.3123,74.759044 c 64.60631,0 130.4334,73.734196 162.28941,125.266686 l 16.23091,-69.71286 c 0.25694,-0.14938 0.57362,-0.16332 0.84649,-0.27486 3.62299,-3.84806 11.39878,-1.51572 12.40859,3.68473 l 25.95247,151.34492 c 0.91819,4.2504 -3.00355,8.84735 -7.33361,8.78759 l -40.75155,-9.88392 c -14.10158,85.86424 -80.29492,153.29573 -169.64271,153.29573 -99.35036,0 -180.49218,-81.26131 -180.49218,-181.10961 0,-99.84631 81.14381,-181.388445 180.49218,-181.388445 z m -21.9889,54.962266 c -9.47872,0.12547 -19.64451,1.31057 -29.89613,5.10087 -55.02486,20.34419 -93.632053,58.78444 -93.632053,121.32133 0,80.95259 66.662193,146.2341 147.208473,146.2341 73.54527,0 157.88961,-47.3668 167.86826,-118.45825 L 302.16996,256.12758 c -5.24826,-0.16334 -8.77962,-7.39138 -5.64062,-11.61986 l 61.00222,-9.68197 c -0.70309,-2.7506 -41.50675,-51.60471 -63.50824,-72.00557 -24.49865,-22.71634 -47.42806,-30.95543 -78.71585,-33.11679"
     id="path68"
     sodipodi:nodetypes="ccccccccsscccsssccccsc" />
</svg>
