<?xml version="1.0" encoding="UTF-8" standalone="no"?>
<svg
   xmlns:dc="http://purl.org/dc/elements/1.1/"
   xmlns:cc="http://creativecommons.org/ns#"
   xmlns:rdf="http://www.w3.org/1999/02/22-rdf-syntax-ns#"
   xmlns:svg="http://www.w3.org/2000/svg"
   xmlns="http://www.w3.org/2000/svg"
   xmlns:sodipodi="http://sodipodi.sourceforge.net/DTD/sodipodi-0.dtd"
   xmlns:inkscape="http://www.inkscape.org/namespaces/inkscape"
   height="512"
   viewBox="0 0 512 512"
   width="512"
   version="1.1"
   id="svg2"
   inkscape:version="0.91 r"
   sodipodi:docname="smtube.svg">
  <defs
     id="defs19" />
  <sodipodi:namedview
     pagecolor="#ffffff"
     bordercolor="#666666"
     borderopacity="1"
     objecttolerance="10"
     gridtolerance="10"
     guidetolerance="10"
     inkscape:pageopacity="0"
     inkscape:pageshadow="2"
     inkscape:window-width="640"
     inkscape:window-height="480"
     id="namedview17"
     showgrid="false"
     inkscape:zoom="0.4609375"
     inkscape:cx="256"
     inkscape:cy="256"
     inkscape:window-x="0"
     inkscape:window-y="0"
     inkscape:window-maximized="0"
     inkscape:current-layer="svg2" />
  <metadata
     id="metadata78">
    <rdf:RDF>
      <cc:Work
         rdf:about="">
        <dc:format>image/svg+xml</dc:format>
        <dc:type
           rdf:resource="http://purl.org/dc/dcmitype/StillImage" />
      </cc:Work>
    </rdf:RDF>
  </metadata>
  <g
     id="g6"
     transform="translate(-580.83)"
     fill="#E3E3E3">
    <path
       id="path8"
       d="m1003.7 78.53v4h4.156c-1.37-1.351-2.755-2.681-4.156-4m0 29.03v28.594h40.781v-7.531c-4.477-7.285-9.335-14.312-14.531-21.06h-26.25m0 53.625v28.656h40.781v-28.656h-40.781m0 53.688v28.594h40.781v-28.594h-40.781m0 53.625v28.625h40.781v-28.625h-40.781m0 53.656v28.625h40.781v-28.625h-40.781m0 53.656v28.625h26.25c5.196-6.751 10.05-13.778 14.531-21.06v-7.563h-40.781m0 53.656v4c1.402-1.319 2.786-2.649 4.156-4h-4.156" />
    <path
       id="path10"
       d="m669.93 78.53c-1.402 1.319-2.786 2.649-4.156 4h4.156v-4m-26.25 29.03c-5.196 6.751-10.05 13.778-14.531 21.06v7.531h40.781v-28.594h-26.25m-14.531 53.625v28.656h40.781v-28.656h-40.781m0 53.688v28.594h40.78v-28.59h-40.781m0 53.625v28.625h40.781v-28.625h-40.781m0 53.656v28.625h40.781v-28.625h-40.781m0 53.656v7.563c4.477 7.285 9.335 14.312 14.531 21.06h26.25v-28.625h-40.781m36.625 53.656c1.37 1.351 2.755 2.681 4.156 4v-4h-4.156" />
  </g>
  <path
     id="path72"
     fill="#E3E3E3"
     d="m175.58 166.4c-19.331 0-34.901 13.13-34.901 29.441v120.33c0 16.311 15.57 29.441 34.901 29.441h160.84c19.331 0 34.901-13.13 34.901-29.441v-120.33c0-16.311-15.57-29.441-34.901-29.441h-160.84m49.374 30.565a13.01 13.01 0 0 1 7.4714 1.8287l76.83 46.06a13.01 13.01 0 0 1 0 22.31l-76.83 46.06a13.01 13.01 0 0 1 -19.697 -11.155v-92.11a13.01 13.01 0 0 1 12.226 -12.984" />
</svg>
