<svg xmlns="http://www.w3.org/2000/svg" width="48" height="48">
<defs>
<defs
     id="defs4">
    <inkscape:perspective
       sodipodi:type="inkscape:persp3d"
       inkscape:vp_x="0 : 24 : 1"
       inkscape:vp_y="0 : 1000 : 0"
       inkscape:vp_z="48 : 24 : 1"
       inkscape:persp3d-origin="24 : 16 : 1"
       id="perspective32" />
    <linearGradient
       inkscape:collect="always"
       xlink:href="#linearGradient4321"
       id="linearGradient2839"
       gradientUnits="userSpaceOnUse"
       x1="-12"
       y1="24"
       x2="60"
       y2="24"
       gradientTransform="matrix(0.91666667,0,0,0.91666667,2,2)" />
  </defs>
  <path
     id="path-main"
     d="M 11.753553,2 C 6.3501608,2 2,6.3679167 2,11.793364 L 2,36.206636 C 2,41.632083 6.3501608,46 11.753553,46 l 24.492894,0 C 41.649839,46 46,41.632083 46,36.206636 L 46,11.793364 C 46,6.3679167 41.649839,2 36.246447,2 L 11.753553,2 z M 9.7693092,8.555102 C 38.912599,9.542856 39.225613,38.277551 39.225613,38.277551 c 0,0 -2.436995,0 -5.745941,0 C 31.333333,13.583669 9.6910533,14.302042 9.6910533,14.302042 c 0,0.0449 0.089439,-2.424491 0.078256,-5.74694 z M 9.7357683,18.612246 C 29.142271,19.195915 29.23171,38.187754 29.23171,38.187754 c 0,0 -2.414638,-0.0898 -5.768299,-0.0449 C 22.613826,24.089797 9.7357683,24.314288 9.7357683,24.314288 c 0,-0.0449 0.044724,-3.54694 0,-5.702042 z M 13.670734,30.19872 c 2.195013,0 3.976876,1.789141 3.976876,3.993119 0,2.203969 -1.781863,3.99311 -3.976876,3.99311 -2.195022,0 -3.9768848,-1.789141 -3.9768848,-3.99311 0,-2.203978 1.7818628,-3.993119 3.9768848,-3.993119 z" />
</defs>

<use id="1" style="fill:#E3E3E3" xlink:href="#path-main" />



</svg>
