<?xml version="1.0" encoding="UTF-8" standalone="no"?>
<svg xmlns:dc="http://purl.org/dc/elements/1.1/" xmlns:cc="http://creativecommons.org/ns#" xmlns:rdf="http://www.w3.org/1999/02/22-rdf-syntax-ns#" xmlns:svg="http://www.w3.org/2000/svg" xmlns="http://www.w3.org/2000/svg" xmlns:xlink="http://www.w3.org/1999/xlink" xmlns:sodipodi="http://sodipodi.sourceforge.net/DTD/sodipodi-0.dtd" xmlns:inkscape="http://www.inkscape.org/namespaces/inkscape" height="512" width="512" version="1.1" viewBox="0 0 512 512" id="svg2" inkscape:version="0.91 r" sodipodi:docname="hardinfo.svg">
<sodipodi:namedview pagecolor="#ffffff" bordercolor="#666666" borderopacity="1" objecttolerance="10" gridtolerance="10" guidetolerance="10" inkscape:pageopacity="0" inkscape:pageshadow="2" inkscape:window-width="640" inkscape:window-height="480" id="namedview45" showgrid="false" inkscape:zoom="0.4609375" inkscape:cx="218.0339" inkscape:cy="256" inkscape:window-x="0" inkscape:window-y="0" inkscape:window-maximized="0" inkscape:current-layer="svg2" />
<metadata id="metadata10">
<rdf:RDF>
<cc:Work rdf:about="">
<dc:format>image/svg+xml</dc:format>
<dc:type rdf:resource="http://purl.org/dc/dcmitype/StillImage" />
</cc:Work>
</rdf:RDF>
</metadata>
<defs id="defs8">
<linearGradient y2="7.02" x2="0" gradientTransform="scale(1.0059 .99417)" y1="92.54" gradientUnits="userSpaceOnUse" id="ButtonShadow-5">
<stop id="stop3750-0" />
<stop offset="1" stop-opacity="0.588" id="stop3752-8" />
</linearGradient>
<filter color-interpolation-filters="sRGB" id="filter3174-8">
<feGaussianBlur stdDeviation="1.71" id="feGaussianBlur3176-5" />
</filter>
<linearGradient id="linearGradient3737">
<stop stop-color="#fff" id="stop3739" />
<stop offset="1" stop-opacity="0" stop-color="#fff" id="stop3741" />
</linearGradient>
<filter x="-0.192" y="-0.192" color-interpolation-filters="sRGB" width="1.384" height="1.384" id="filter3794">
<feGaussianBlur stdDeviation="5.28" id="feGaussianBlur3796" />
</filter>
<linearGradient y2="138.66" x2="0" y1="20.221" gradientUnits="userSpaceOnUse" xlink:href="#linearGradient3737" id="linearGradient3613" />
<clipPath id="clipPath3613">
<rect fill="#E3E3E3" x="6" y="6" width="84" height="84" rx="6" id="rect3615" />
</clipPath>
<clipPath id="clipPath3613-1">
<rect fill="#E3E3E3" x="6" y="6" width="84" height="84" rx="6" id="rect3615-9" />
</clipPath>
<clipPath id="clipPath3613-2">
<rect fill="#E3E3E3" x="6" y="6" width="84" height="84" rx="6" id="rect3615-3" />
</clipPath>
<clipPath id="clipPath3613-8">
<rect fill="#E3E3E3" x="6" y="6" width="84" height="84" rx="6" id="rect3615-8" />
</clipPath>
<clipPath id="clipPath3613-9">
<rect fill="#E3E3E3" x="6" y="6" width="84" height="84" rx="6" id="rect3615-1" />
</clipPath>
<linearGradient y1="92.54" gradientTransform="scale(1.0059 .99417)" x2="0" gradientUnits="userSpaceOnUse" xlink:href="#ButtonShadow-5" y2="7.02" id="linearGradient9267" />
<clipPath id="clipPath3613-7">
<rect fill="#E3E3E3" x="6" y="6" width="84" height="84" rx="6" id="rect3615-95" />
</clipPath>
<clipPath id="clipPath3613-1-4">
<rect fill="#E3E3E3" x="6" y="6" width="84" height="84" rx="6" id="rect3615-9-9" />
</clipPath>
<clipPath id="clipPath3613-2-8">
<rect fill="#E3E3E3" x="6" y="6" width="84" height="84" rx="6" id="rect3615-3-4" />
</clipPath>
<clipPath id="clipPath3613-8-6">
<rect fill="#E3E3E3" x="6" y="6" width="84" height="84" rx="6" id="rect3615-8-4" />
</clipPath>
<clipPath id="clipPath3613-9-6">
<rect fill="#E3E3E3" x="6" y="6" width="84" height="84" rx="6" id="rect3615-1-6" />
</clipPath>
</defs>
<path inkscape:connector-curvature="0" id="path351" d="m 176.56935,32.631296 c -7.57179,0 -13.69043,6.119683 -13.69043,13.690432 l 0,59.833142 c 0,7.57179 6.11968,13.61548 13.69043,13.61548 7.57178,0 13.69042,-6.04057 13.69042,-13.61548 l 0,-59.833142 c 0,-7.571793 -6.11968,-13.690432 -13.69042,-13.690432 m 75.99892,0 c -7.57179,0 -13.61548,6.119683 -13.61548,13.690432 l 0,59.833142 c 0,7.57179 6.04057,13.61548 13.61548,13.61548 7.5718,0 13.69044,-6.04057 13.69044,-13.61548 l 0,-59.833142 c 0,-7.571793 -6.11969,-13.690432 -13.69044,-13.690432 m 76.03017,0 c -7.5718,0 -13.69044,6.119683 -13.69044,13.690432 l 0,59.833142 c 0,7.57179 6.11969,13.61548 13.69044,13.61548 7.57179,0 13.61548,-6.04057 13.61548,-13.61548 l 0,-59.833142 c 0,-7.571793 -6.04057,-13.690432 -13.61548,-13.690432 M 175.28899,139.45242 c -20.81877,0 -37.55706,16.82156 -37.55706,37.64033 l 0,155.43296 c 0,20.81878 16.7487,37.59871 37.55706,37.59871 l 154.5898,0 c 20.81878,0 37.55707,-16.77993 37.55707,-37.59871 l 0,-155.43296 c 0,-20.81877 -16.7487,-37.64033 -37.55707,-37.64033 l -154.5898,0 m 102.85932,22.47178 a 3.4094905,3.4094905 0 0 1 3.19317,2.15537 c 0.5184,1.29492 1.05968,2.35876 1.63636,3.51212 a 3.4094905,3.4094905 0 0 1 0.0798,0.19957 c 2.28382,5.4233 2.46807,5.45348 4.23142,8.97913 0.71616,1.09092 2.0444,3.25086 3.75259,6.66617 a 3.4094905,3.4094905 0 0 1 -0.99787,4.19103 c -9.59433,7.33863 -10.25636,7.99857 -18.16124,15.08842 a 3.4094905,3.4094905 0 0 1 -0.79829,0.71844 3.4094905,3.4094905 0 0 1 -0.11973,0.0798 3.4094905,3.4094905 0 0 1 -0.19957,0.0799 3.4094905,3.4094905 0 0 1 -0.11972,0.0799 3.4094905,3.4094905 0 0 1 -0.15966,0.0398 3.4094905,3.4094905 0 0 1 -0.35923,0.11972 3.4094905,3.4094905 0 0 1 -0.99785,0.11973 3.4094905,3.4094905 0 0 1 -0.11973,0 3.4094905,3.4094905 0 0 1 -0.23947,-0.0398 3.4094905,3.4094905 0 0 1 -0.39914,-0.0799 3.4094905,3.4094905 0 0 1 -0.0398,0 3.4094905,3.4094905 0 0 1 -0.19957,-0.0798 3.4094905,3.4094905 0 0 1 -0.11972,-0.0398 3.4094905,3.4094905 0 0 1 -0.59872,-0.27939 3.4094905,3.4094905 0 0 1 -0.15965,-0.11973 3.4094905,3.4094905 0 0 1 -0.11972,-0.11972 3.4094905,3.4094905 0 0 1 -0.27939,-0.19957 3.4094905,3.4094905 0 0 1 -0.11972,-0.11972 3.4094905,3.4094905 0 0 1 -0.0798,-0.15966 3.4094905,3.4094905 0 0 1 -0.51888,-0.71847 3.4094905,3.4094905 0 0 1 -0.0398,-0.11972 c -0.0437,-0.0635 -0.0375,-0.0967 -0.0802,-0.15927 -5.9906,-8.76991 -8.87296,-13.83095 -10.93715,-20.316 a 3.4094905,3.4094905 0 0 1 1.67643,-4.11119 c 0.74636,-0.37265 1.80084,-1.13046 2.9542,-1.99652 a 3.4094905,3.4094905 0 0 1 0.15965,-0.0798 c 2.54509,-1.69777 4.47707,-3.14363 5.78762,-4.19498 2.92607,-2.34106 5.35562,-4.19498 6.10615,-4.94967 1.40006,-1.40006 3.04266,-2.37854 4.31053,-3.39242 a 3.4094905,3.4094905 0 0 1 1.75627,-0.71845 3.4094905,3.4094905 0 0 1 0.31931,-0.0398 m -232.25405,3.15392 c -7.571793,0 -13.690432,6.04057 -13.690432,13.61548 0,7.57179 6.119683,13.69042 13.690432,13.69042 l 59.83315,0 c 7.5718,0 13.61548,-6.11967 13.61548,-13.69042 0,-7.57179 -6.04057,-13.61548 -13.61548,-13.61548 l -59.83315,0 m 360.46665,0 c -7.57179,0 -13.69043,6.04057 -13.69043,13.61548 0,7.57179 6.11968,13.69042 13.69043,13.69042 l 59.8332,0 c 7.57179,0 13.61548,-6.11967 13.61548,-13.69042 0,-7.57179 -6.04057,-13.61548 -13.61548,-13.61548 l -59.8332,0 m -137.38308,55.91922 c 1.65821,0 3.33412,0.49653 4.66965,1.59681 1.33552,1.09922 2.23489,2.89797 2.23489,4.71024 0,1.28972 -0.28626,2.37959 -0.7984,4.78936 -0.51214,2.40978 -1.35218,5.99684 -2.63461,11.37538 -2.56697,10.75809 -6.9389,28.76738 -14.29001,59.03475 a 3.4094905,3.4094905 0 0 1 -0.0398,0.0798 c -1.67486,6.13946 -2.47535,11.61063 -2.47535,13.81117 0,1.98196 0.4653,3.38722 0.87856,4.03052 0.41221,0.64226 0.46842,0.63914 0.91811,0.63914 1.78729,0 1.69464,0.18632 5.5482,-1.63635 3.77027,-1.78417 10.90487,-5.60859 24.02486,-12.65262 a 3.4094905,3.4094905 0 0 1 0.31932,-0.23948 3.4094905,3.4094905 0 0 1 0.87812,-0.35924 3.4094905,3.4094905 0 0 1 0.15965,-0.0398 3.4094905,3.4094905 0 0 1 0.19957,-0.0398 3.4094905,3.4094905 0 0 1 0.67854,-0.0799 3.4094905,3.4094905 0 0 1 0.15966,0 3.4094905,3.4094905 0 0 1 0.15966,0 3.4094905,3.4094905 0 0 1 0.35922,0.11972 3.4094905,3.4094905 0 0 1 0.31931,0.0798 3.4094905,3.4094905 0 0 1 0.0398,0 3.4094905,3.4094905 0 0 1 0.2794,0.11972 3.4094905,3.4094905 0 0 1 0.47898,0.23948 3.4094905,3.4094905 0 0 1 1.47678,2.35492 3.4094905,3.4094905 0 0 1 0.0398,0.15966 3.4094905,3.4094905 0 0 1 0,0.19958 3.4094905,3.4094905 0 0 1 -0.0398,0.83819 3.4094905,3.4094905 0 0 1 -0.0398,0.27939 l -0.0395,0.11972 -1.07841,7.46458 a 3.4094905,3.4094905 0 0 1 -1.5966,2.47472 c -2.69602,1.61866 -5.24633,3.29561 -7.90385,4.78936 -0.0979,0.0562 -0.18008,0.1051 -0.28001,0.15927 -5.44619,3.71719 -10.86324,7.17831 -16.24488,10.57698 -15.39133,9.87225 -23.14007,14.04954 -29.7771,14.04954 -3.31747,0 -6.23834,-2.04753 -7.90384,-4.78936 -1.66446,-2.74183 -2.47535,-6.16548 -2.47535,-10.09813 0,-3.6027 0.0739,-6.08117 1.79561,-13.41147 1.72068,-7.3282 5.13495,-19.92356 11.89481,-45.10386 0.006,-0.0188 -0.006,-0.0209 0,-0.0395 4.30324,-16.35522 5.06938,-20.09115 5.06938,-23.30974 0,-1.1492 -0.21861,-1.55412 -0.28003,-1.7165 -0.88166,-0.004 -1.01178,-0.0988 -3.47256,1.03885 -2.61588,1.20749 -7.23141,3.65578 -15.72859,8.26298 a 3.4094905,3.4094905 0 0 1 -5.02919,-3.23305 l 0.59854,-8.06311 a 3.4094905,3.4094905 0 0 1 1.47678,-2.59445 c 11.87087,-7.96214 22.10538,-14.32643 30.05502,-18.75771 3.9743,-2.21615 7.35944,-3.97639 10.17831,-5.18907 2.82406,-1.21374 4.89657,-2.03608 7.22411,-2.03608 M 45.88102,241.07496 c -7.571793,0 -13.690418,6.11968 -13.690418,13.69043 0,7.57178 6.11967,13.61547 13.690418,13.61547 l 59.83315,0 c 7.5718,0 13.61548,-6.04056 13.61548,-13.61548 0,-7.57179 -6.04057,-13.69042 -13.61548,-13.69042 l -59.83315,0 m 360.46665,0 c -7.57179,0 -13.69043,6.11968 -13.69043,13.69042 0,7.57179 6.11968,13.61548 13.69043,13.61548 l 59.83316,0 c 7.57177,0 13.61548,-6.04056 13.61548,-13.61548 0,-7.57179 -6.04057,-13.69042 -13.61548,-13.69042 l -59.83316,0 M 45.88102,317.0739 c -7.571793,0 -13.690418,6.11967 -13.690418,13.69042 0,7.57179 6.11967,13.69043 13.690418,13.69043 l 59.83315,0 c 7.5718,0 13.61548,-6.1197 13.61548,-13.69043 0,-7.57178 -6.04057,-13.69042 -13.61548,-13.69042 l -59.83315,0 m 360.46665,0 c -7.57179,0 -13.69043,6.11967 -13.69043,13.69042 0,7.57179 6.11968,13.69043 13.69043,13.69043 l 59.83316,0 c 7.57177,0 13.61548,-6.1197 13.61548,-13.69043 0,-7.57178 -6.04057,-13.69042 -13.61548,-13.69042 l -59.83316,0 m -229.78721,75.15576 c -7.57178,0 -13.69042,6.11968 -13.69042,13.69043 l 0,59.83316 c 0,7.57178 6.11968,13.61546 13.69042,13.61546 7.57179,0 13.69043,-6.04055 13.69043,-13.61546 l 0,-59.83316 c 0,-7.57179 -6.11969,-13.69043 -13.69043,-13.69043 m 75.99893,0 c -7.57179,0 -13.61548,6.11968 -13.61548,13.69043 l 0,59.83316 c 0,7.57178 6.04057,13.61546 13.61548,13.61546 7.5718,0 13.69043,-6.04055 13.69043,-13.61546 l 0,-59.83316 c 0,-7.57179 -6.11968,-13.69043 -13.69043,-13.69043 m 76.03016,0 c -7.57179,0 -13.69043,6.11968 -13.69043,13.69043 l 0,59.83316 c 0,7.57178 6.11969,13.61546 13.69043,13.61546 7.57178,0 13.61549,-6.04055 13.61549,-13.61546 l 0,-59.83316 c 0,-7.57179 -6.04057,-13.69043 -13.61549,-13.69043" style="fill:#E3E3E3;fill-rule:evenodd" />
</svg>
