<?xml version="1.0" encoding="UTF-8" standalone="no"?>
<svg xmlns:dc="http://purl.org/dc/elements/1.1/" xmlns:cc="http://creativecommons.org/ns#" xmlns:rdf="http://www.w3.org/1999/02/22-rdf-syntax-ns#" xmlns:svg="http://www.w3.org/2000/svg" xmlns="http://www.w3.org/2000/svg" xmlns:xlink="http://www.w3.org/1999/xlink" xmlns:sodipodi="http://sodipodi.sourceforge.net/DTD/sodipodi-0.dtd" xmlns:inkscape="http://www.inkscape.org/namespaces/inkscape" height="512" viewBox="0 0 512 512" width="512" version="1.1" id="svg2" inkscape:version="0.91 r" sodipodi:docname="switch-user.svg">
<defs id="defs94" />
<sodipodi:namedview pagecolor="#ffffff" bordercolor="#666666" borderopacity="1" objecttolerance="10" gridtolerance="10" guidetolerance="10" inkscape:pageopacity="0" inkscape:pageshadow="2" inkscape:window-width="640" inkscape:window-height="480" id="namedview92" showgrid="false" inkscape:zoom="0.4609375" inkscape:cx="218.0339" inkscape:cy="256" inkscape:window-x="0" inkscape:window-y="0" inkscape:window-maximized="0" inkscape:current-layer="svg2" />
<metadata id="metadata180">
<rdf:RDF>
<cc:Work rdf:about="">
<dc:format>image/svg+xml</dc:format>
<dc:type rdf:resource="http://purl.org/dc/dcmitype/StillImage" />
</cc:Work>
</rdf:RDF>
</metadata>
<text style="font-size:208.33000183px;line-height:125%;font-family:'Gentium Book Basic';letter-spacing:0;word-spacing:0" sodipodi:linespacing="125%" letter-spacing="0" word-spacing="0" x="-1160.48" y="549.52002" line-height="125%" font-size="208.33" id="text6">
<tspan x="-1160.48" y="549.52002" id="tspan8" />
</text>
<text style="font-size:75.69999695px;font-family:Arial;text-anchor:middle" x="28.533854" y="1642.2427" transform="scale(4.0128205,0.24920128)" font-size="75.7" id="text10" />
<text style="font-size:208.33000183px;line-height:125%;font-family:'Gentium Book Basic';letter-spacing:0;word-spacing:0" sodipodi:linespacing="125%" letter-spacing="0" word-spacing="0" x="-1569.34" y="612.66003" line-height="125%" font-size="208.33" id="text12">
<tspan x="-1569.34" y="612.66003" id="tspan14" />
</text>
<text style="font-size:75.69999695px;font-family:Arial;text-anchor:middle" x="-73.349625" y="1895.6215" transform="scale(4.0128205,0.24920128)" font-size="75.7" id="text16" />
<text style="font-size:208.33000183px;line-height:125%;font-family:'Gentium Book Basic';letter-spacing:0;word-spacing:0" sodipodi:linespacing="125%" letter-spacing="0" word-spacing="0" x="-1160.48" y="549.52002" line-height="125%" font-size="208.33" id="text22">
<tspan x="-1160.48" y="549.52002" id="tspan24" />
</text>
<text style="font-size:75.69999695px;font-family:Arial;text-anchor:middle" x="28.533854" y="1642.2427" transform="scale(4.0128205,0.24920128)" font-size="75.7" id="text26" />
<text style="font-size:208.33000183px;line-height:125%;font-family:'Gentium Book Basic';letter-spacing:0;word-spacing:0" sodipodi:linespacing="125%" letter-spacing="0" word-spacing="0" x="-454.14001" y="393.89001" line-height="125%" font-size="208.33" id="text28">
<tspan x="-454.14001" y="393.89001" id="tspan30" />
</text>
<text style="font-size:75.69999695px;font-family:Arial;text-anchor:middle" x="204.54895" y="1017.7161" transform="scale(4.0128205,0.24920128)" font-size="75.7" id="text32" />
<text style="font-size:208.33000183px;line-height:125%;font-family:'Gentium Book Basic';letter-spacing:0;word-spacing:0" sodipodi:linespacing="125%" letter-spacing="0" word-spacing="0" x="-420.76999" y="385.77002" line-height="125%" font-size="208.33" id="text34">
<tspan x="-420.76999" y="385.77002" id="tspan36" />
</text>
<text style="font-size:75.69999695px;font-family:Arial;text-anchor:middle" x="212.86891" y="985.11615" transform="scale(4.0128205,0.24920128)" font-size="75.7" id="text38" />
<text style="font-size:61.50999832px;line-height:125%;font-family:'Gentium Book Basic';letter-spacing:0;word-spacing:0" sodipodi:linespacing="125%" letter-spacing="0" word-spacing="0" x="-163.95" y="117.31999" line-height="125%" font-size="61.51" id="text40">
<tspan x="-163.95" y="117.31999" id="tspan42" />
</text>
<text style="font-size:22.34900093px;font-family:Arial;text-anchor:middle" x="52.950729" y="304.60962" transform="scale(4.0128205,0.24920128)" font-size="22.349" id="text44" />
<text style="font-size:208.33000183px;line-height:125%;font-family:'Gentium Book Basic';letter-spacing:0;word-spacing:0" sodipodi:linespacing="125%" letter-spacing="0" word-spacing="0" x="-474.79001" y="484.08997" line-height="125%" font-size="208.33" id="text46">
<tspan x="-474.79001" y="484.08997" id="tspan48" />
</text>
<text style="font-size:75.69999695px;font-family:Arial;text-anchor:middle" x="199.40898" y="1379.6842" transform="scale(4.0128205,0.24920128)" font-size="75.7" id="text50" />
<text style="font-size:208.33000183px;line-height:125%;font-family:'Gentium Book Basic';letter-spacing:0;word-spacing:0" sodipodi:linespacing="125%" letter-spacing="0" word-spacing="0" x="231.56" y="328.46002" line-height="125%" font-size="208.33" id="text52">
<tspan x="231.56" y="328.46002" id="tspan54" />
</text>
<text style="font-size:75.69999695px;font-family:Arial;text-anchor:middle" x="375.42807" y="755.16736" transform="scale(4.0128205,0.24920128)" font-size="75.7" id="text56" />
<text style="font-size:208.33000183px;line-height:125%;font-family:'Gentium Book Basic';letter-spacing:0;word-spacing:0" sodipodi:linespacing="125%" letter-spacing="0" word-spacing="0" x="264.92999" y="320.34003" line-height="125%" font-size="208.33" id="text58">
<tspan x="264.92999" y="320.34003" id="tspan60" />
</text>
<text style="font-size:75.69999695px;font-family:Arial;text-anchor:middle" x="383.74805" y="722.56744" transform="scale(4.0128205,0.24920128)" font-size="75.7" id="text62" />
<text style="font-size:208.33000183px;line-height:125%;font-family:'Gentium Book Basic';letter-spacing:0;word-spacing:0" sodipodi:linespacing="125%" letter-spacing="0" word-spacing="0" x="-1157.49" y="509.78003" line-height="125%" font-size="208.33" id="text64">
<tspan x="-1157.49" y="509.78003" id="tspan66" />
</text>
<text style="font-size:75.69999695px;font-family:Arial;text-anchor:middle" x="29.27985" y="1482.7535" transform="scale(4.0128205,0.24920128)" font-size="75.7" id="text68" />
<text style="font-size:208.33000183px;line-height:125%;font-family:'Gentium Book Basic';letter-spacing:0;word-spacing:0" sodipodi:linespacing="125%" letter-spacing="0" word-spacing="0" x="-451.14999" y="354.15002" line-height="125%" font-size="208.33" id="text70">
<tspan x="-451.14999" y="354.15002" id="tspan72" />
</text>
<text style="font-size:75.69999695px;font-family:Arial;text-anchor:middle" x="205.29895" y="858.23694" transform="scale(4.0128205,0.24920128)" font-size="75.7" id="text74" />
<text style="font-size:208.33000183px;line-height:125%;font-family:'Gentium Book Basic';letter-spacing:0;word-spacing:0" sodipodi:linespacing="125%" letter-spacing="0" word-spacing="0" x="-417.78" y="346.02002" line-height="125%" font-size="208.33" id="text76">
<tspan x="-417.78" y="346.02002" id="tspan78" />
</text>
<text style="font-size:75.69999695px;font-family:Arial;text-anchor:middle" x="213.6189" y="825.63696" transform="scale(4.0128205,0.24920128)" font-size="75.7" id="text80" />
<text style="font-size:208.33000183px;line-height:125%;font-family:'Gentium Book Basic';letter-spacing:0;word-spacing:0" sodipodi:linespacing="125%" letter-spacing="0" word-spacing="0" line-height="125%" x="-1065.35" y="389.69449" font-size="208.33" transform="matrix(0.8660254,0.5,-0.5,0.8660254,0,0)" id="text82">
<tspan x="-1065.35" y="389.69449" id="tspan84" />
</text>
<text style="font-size:75.69999695px;font-family:Arial;text-anchor:middle" x="52.239307" y="1000.8642" transform="matrix(3.4752341,2.0064197,-0.12460122,0.21581212,0,0)" font-size="75.7" id="text86" />
<text style="font-size:208.33000183px;line-height:125%;font-family:'Gentium Book Basic';letter-spacing:0;word-spacing:0" sodipodi:linespacing="125%" letter-spacing="0" word-spacing="0" line-height="125%" x="-359.01001" y="234.06454" font-size="208.33" transform="matrix(0.8660254,0.5,-0.5,0.8660254,0,0)" id="text88">
<tspan x="-359.01001" y="234.06454" id="tspan90" />
</text>
<text style="font-size:75.69999695px;font-family:Arial;text-anchor:middle" x="228.25757" y="376.35034" transform="matrix(3.4752341,2.0064197,-0.12460122,0.21581212,0,0)" font-size="75.7" id="text92" />
<text style="font-size:208.33000183px;line-height:125%;font-family:'Gentium Book Basic';letter-spacing:0;word-spacing:0" sodipodi:linespacing="125%" letter-spacing="0" word-spacing="0" line-height="125%" x="-325.63" y="225.94449" font-size="208.33" transform="matrix(0.8660254,0.5,-0.5,0.8660254,0,0)" id="text94">
<tspan x="-325.63" y="225.94449" id="tspan96" />
</text>
<text style="font-size:75.69999695px;font-family:Arial;text-anchor:middle" x="236.5775" y="343.75055" transform="matrix(3.4752341,2.0064197,-0.12460122,0.21581212,0,0)" font-size="75.7" id="text98" />
<text style="font-size:61.50999832px;line-height:125%;font-family:'Gentium Book Basic';letter-spacing:0;word-spacing:0" sodipodi:linespacing="125%" letter-spacing="0" word-spacing="0" line-height="125%" x="-68.82" y="-42.495487" font-size="61.51" transform="matrix(0.8660254,0.5,-0.5,0.8660254,0,0)" id="text100">
<tspan x="-68.82" y="-42.495487" id="tspan102" />
</text>
<text style="font-size:22.34900093px;font-family:Arial;text-anchor:middle" x="76.659073" y="-336.75266" transform="matrix(3.4752341,2.0064197,-0.12460122,0.21581212,0,0)" font-size="22.349" id="text104" />
<text style="font-size:129.22999573px;line-height:125%;font-family:'Gentium Book Basic';letter-spacing:0;word-spacing:0" sodipodi:linespacing="125%" letter-spacing="0" word-spacing="0" x="729.64001" y="231.35997" line-height="125%" font-size="129.23" id="text118">
<tspan x="729.64001" y="231.35997" id="tspan120" />
</text>
<text style="font-size:46.95399857px;font-family:Arial;text-anchor:middle" x="378.90805" y="579.25812" transform="scale(4.0128205,0.24920128)" font-size="46.954" id="text122" />
<text style="font-size:129.22999573px;line-height:125%;font-family:'Gentium Book Basic';letter-spacing:0;word-spacing:0" sodipodi:linespacing="125%" letter-spacing="0" word-spacing="0" x="1310.91" y="151.35997" line-height="125%" font-size="129.23" id="text124">
<tspan x="1310.91" y="151.35997" id="tspan126" />
</text>
<text style="font-size:46.95399857px;font-family:Arial;text-anchor:middle" x="523.75732" y="258.21997" transform="scale(4.0128205,0.24920128)" font-size="46.954" id="text128" />
<text style="font-size:129.22999573px;line-height:125%;font-family:'Gentium Book Basic';letter-spacing:0;word-spacing:0" sodipodi:linespacing="125%" letter-spacing="0" word-spacing="0" x="239.33" y="-29.900009" line-height="125%" font-size="129.23" id="text130">
<tspan x="239.33" y="-29.900009" id="tspan132" />
</text>
<text style="font-size:46.95399857px;font-family:Arial;text-anchor:middle" x="256.71869" y="-469.1264" transform="scale(4.0128205,0.24920128)" font-size="46.954" id="text134" />
<text style="font-size:129.22999573px;line-height:125%;font-family:'Gentium Book Basic';letter-spacing:0;word-spacing:0" sodipodi:linespacing="125%" letter-spacing="0" word-spacing="0" x="1337.38" y="-246.37001" line-height="125%" font-size="129.23" id="text136">
<tspan x="1337.38" y="-246.37001" id="tspan138" />
</text>
<text style="font-size:46.95399857px;font-family:Arial;text-anchor:middle" x="530.3573" y="-1337.802" transform="scale(4.0128205,0.24920128)" font-size="46.954" id="text140" />
<text style="font-size:129.22999573px;line-height:125%;font-family:'Gentium Book Basic';letter-spacing:0;word-spacing:0" sodipodi:linespacing="125%" letter-spacing="0" word-spacing="0" x="1918.65" y="-326.37" line-height="125%" font-size="129.23" id="text142">
<tspan x="1918.65" y="-326.37" id="tspan144" />
</text>
<text style="font-size:46.95399857px;font-family:Arial;text-anchor:middle" x="675.20654" y="-1658.8303" transform="scale(4.0128205,0.24920128)" font-size="46.954" id="text146" />
<text style="font-size:129.22999573px;line-height:125%;font-family:'Gentium Book Basic';letter-spacing:0;word-spacing:0" sodipodi:linespacing="125%" letter-spacing="0" word-spacing="0" x="1529.53" y="-798.77002" line-height="125%" font-size="129.23" id="text148">
<tspan x="1529.53" y="-798.77002" id="tspan150" />
</text>
<text style="font-size:46.95399857px;font-family:Arial;text-anchor:middle" x="578.237" y="-3554.4807" transform="scale(4.0128205,0.24920128)" font-size="46.954" id="text152" />
<text style="font-size:129.22999573px;line-height:125%;font-family:'Gentium Book Basic';letter-spacing:0;word-spacing:0" sodipodi:linespacing="125%" letter-spacing="0" word-spacing="0" x="2110.79" y="-878.78003" line-height="125%" font-size="129.23" id="text154">
<tspan x="2110.79" y="-878.78003" id="tspan156" />
</text>
<text style="font-size:46.95399857px;font-family:Arial;text-anchor:middle" x="723.0863" y="-3875.519" transform="scale(4.0128205,0.24920128)" font-size="46.954" id="text158" />
<text style="font-size:208.33000183px;line-height:125%;font-family:'Gentium Book Basic';letter-spacing:0;word-spacing:0" sodipodi:linespacing="125%" letter-spacing="0" word-spacing="0" x="277.98999" y="535.94006" line-height="125%" font-size="208.33" id="text160">
<tspan x="277.98999" y="535.94006" id="tspan162" />
</text>
<g style="fill:#E3E3E3" transform="matrix(1.4833257,0,0,1.4833257,-123.73185,-932.00856)" id="g164">
<g transform="translate(-36.908,-71.02)" id="g166">
<path inkscape:connector-curvature="0" d="m 322.59,728.3 c -0.238,0.013 -0.493,0.06 -0.75,0.094 -1.423,0.185 -2.945,0.838 -3.406,1.469 -0.636,0.87 -0.844,5.607 -0.844,19.625 0,41.513 -0.66,69.39 0,92.16 0,15.297 0.204,20.312 0.844,21.19 0.461,0.631 2.048,1.301 3.531,1.5 2.245,0.301 3.332,0.02 6.5,-1.781 30.782,-20.631 54.33,-36.34 87.53,-58.53 4.671,-2.625 6,-4.335 6,-7.688 0,-3.983 -0.765,-4.699 -14,-13.03 l -79.78,-53.22 c -2.621,-1.409 -3.957,-1.872 -5.625,-1.781" id="0" />
<rect style="fill-rule:evenodd" x="163.82001" y="768.58002" width="184.35001" height="55.560001" rx="25" id="1" />
</g>
<g transform="matrix(-1,0,0,1,548.91,80.11)" id="g170">
<use y="0" x="0" width="1" height="1" xlink:href="#0" id="use172" />
<use y="0" x="0" width="1" height="1" xlink:href="#1" id="use174" />
</g>
</g>
</svg>
