<svg xmlns="http://www.w3.org/2000/svg" width="48" height="48">
<defs>
  <path
     d="M 7.40625 2 L 7.40625 3.3125 L 9.71875 3.3125 L 9.71875 18.875 L 7.40625 18.875 L 7.40625 20.15625 L 21.96875 20.15625 L 21.96875 15.625 L 20.46875 15.625 L 20.46875 18.6875 L 12.1875 18.6875 L 12.1875 3.3125 L 14.5 3.3125 L 14.5 2 L 7.40625 2 z M 31.3125 3.375 L 24.8125 20.25 L 23.21875 20.25 L 23.21875 21.5625 L 28.34375 21.5625 L 28.34375 20.25 L 26.34375 20.25 L 27.875 16.28125 L 35.5 16.28125 L 37.03125 20.25 L 35 20.25 L 35 21.5625 L 41.625 21.5625 L 41.625 20.25 L 39.84375 20.25 L 33.34375 3.375 L 31.3125 3.375 z M 31.71875 6.3125 L 35.03125 14.96875 L 28.375 14.96875 L 31.71875 6.3125 z M 2.21875 21.6875 L 2.21875 25.96875 L 3.71875 25.96875 L 3.71875 23.15625 L 9.0625 23.15625 L 9.0625 38.59375 L 6.75 38.59375 L 6.75 39.875 L 13.84375 39.875 L 13.84375 38.59375 L 11.53125 38.59375 L 11.53125 23.15625 L 16.875 23.15625 L 16.875 25.96875 L 18.34375 25.96875 L 18.34375 21.6875 L 2.21875 21.6875 z M 28.09375 22.96875 L 28.09375 24.25 L 30.03125 24.25 L 35.34375 32.21875 L 30.125 39.84375 L 28.03125 39.84375 L 28.03125 41.125 L 34.03125 41.125 L 34.03125 39.84375 L 31.6875 39.84375 L 36.125 33.34375 L 40.46875 39.84375 L 38.3125 39.84375 L 38.3125 41.125 L 45.5 41.125 L 45.5 39.84375 L 43.5625 39.84375 L 37.8125 31.25 L 42.625 24.25 L 44.6875 24.25 L 44.6875 22.96875 L 38.71875 22.96875 L 38.71875 24.25 L 41.0625 24.25 L 37.0625 30.125 L 33.15625 24.25 L 35.3125 24.25 L 35.3125 22.96875 L 28.09375 22.96875 z M 14.65625 27.84375 L 14.65625 29.125 L 16.96875 29.125 L 16.96875 44.71875 L 14.65625 44.71875 L 14.65625 46 L 29.5 46 L 29.5 41.96875 L 28 41.96875 L 28 44.5 L 19.46875 44.5 L 19.46875 36.90625 L 25.40625 36.90625 L 25.40625 39.1875 L 26.90625 39.1875 L 26.90625 33.125 L 25.40625 33.125 L 25.40625 35.40625 L 19.46875 35.40625 L 19.46875 29.3125 L 27.8125 29.3125 L 27.8125 31.875 L 29.3125 31.875 L 29.3125 27.84375 L 14.65625 27.84375 z "
     id="path-main" />
</defs>

<use id="1" style="fill:#E3E3E3" xlink:href="#path-main" />



</svg>
