<svg xmlns="http://www.w3.org/2000/svg" width="48" height="48">
<defs>
  <path
     d="M 24.045203,4.572745 21.49248,6.894869 21.324142,6.740365 20.99208,6.440593 l -0.468115,0 -13.5937695,0 -0.493478,0 -0.336675,0.329752 -0.684882,0.675658 -0.299778,0.295165 0,0.403546 0,2.439728 0,0.426605 0.332063,0.302086 0.627228,0.569581 0.329759,0.302076 0.470418,0 0.58572,0 0,7.475999 L 2,24.627884 l 5.4605705,4.967085 0,9.336921 0,0.59494 0.564968,0.29517 1.026162,0.53961 0.260572,0.13836 0.30439,0 3.5396845,0 0.477341,0 0.332062,-0.31131 2.536577,-2.36594 7.450634,6.77728 6.629705,-6.03014 0.777117,0 c 0.260315,-4e-4 0.464652,-0.13483 0.553436,-0.35743 l 0,-0.004 0.0044,-0.002 0.253657,-0.67796 c 0.05264,-0.14272 0.04424,-0.27972 -0.0092,-0.39432 l 2.10767,-1.91858 -0.910868,2.65649 c -0.124368,0.36975 0.145441,0.69944 0.569582,0.69872 0.0013,-10e-6 0.0013,1e-5 0.0025,0 l 3.193788,0 0.0044,0 c 0.246021,-0.002 0.440929,-0.12384 0.537296,-0.32976 l 0.0024,0 0,-0.002 0.28824,-0.62262 0,-0.004 0.0024,-0.002 c 0.158813,-0.36406 -0.08998,-0.70797 -0.511894,-0.73098 l 1.399736,-3.99856 1.897824,0 -1.729485,4.99014 -0.0024,0.002 c -0.124366,0.36976 0.143142,0.69944 0.567277,0.69872 0.0012,0 0.0031,1e-5 0.0042,0 l 3.505098,0 c 0.0012,1e-5 0.0031,0 0.0042,0 0.254381,3.9e-4 0.457747,-0.12555 0.551125,-0.34129 l 0,-0.004 0.28595,-0.67797 0.0024,-0.002 0,-0.002 c 0.150404,-0.37437 -0.115267,-0.72349 -0.553435,-0.72408 l -0.08532,0 1.932406,-5.71192 0.0042,-0.009 -0.0042,0 c 0.05745,-0.16959 0.03045,-0.33948 -0.08762,-0.48194 l -0.65721,-0.80479 -0.0042,-0.002 -0.0024,-0.004 c -0.11598,-0.137254 -0.279799,-0.206929 -0.465769,-0.206441 l 0,-0.0022 -0.01617,0 -2.490464,0 -0.0069,0 c -0.164833,-5.51e-4 -0.311562,0.05565 -0.426605,0.163711 l -0.0092,0.004 -0.0024,0.004 -0.657203,0.65721 -0.867059,0 6.465983,-5.882558 -7.731961,-7.033257 6.821102,-6.364507 0.322829,-0.299778 0,-0.417381 0,-2.285235 0,-0.428913 L 45.082171,7.4133 44.397296,6.79068 44.06523,6.490908 l -0.470417,0 -13.762121,0 -0.438134,0 -0.325146,0.269798 -0.687179,0.571885 -0.366656,0.306698 0,0.451972 0,0.09224 -3.970898,-3.611167 z m -16.6192205,3.92478 12.3047275,0 0.32745,0 0.161415,0.147589 0,1.519638 -0.05999,0.06457 -0.95006,0 -1.129937,0 0,1.028468 0,11.483792 0,2.460489 1.925496,-1.72718 12.491512,-11.214 0.299777,-0.269798 1.962393,-1.761771 -2.757952,0 -1.616499,0 -0.106072,-0.101466 0,-1.579597 12.851241,0 0.02081,0.02078 0,1.438929 -6.482124,6.048597 -10.203974,9.521405 -0.320534,0.251356 -0.0044,0.0044 -0.0025,0.0022 c -0.06156,0.05078 -0.107866,0.111604 -0.140665,0.179859 l -11.091779,10.351565 -2.225274,2.07538 -2.7579575,0 -0.198312,-0.10146 0,-6.68735 0,-14.052664 0,-6.445223 0,-1.028474 -1.13224,0 -1.21525,0 0,-1.5819 0.0507,-0.04842 z m 19.7046275,17.271819 1.713347,0 0.401237,0.362035 -0.516539,1.609582 -0.484254,0.445052 -1.856319,0 -0.458892,-0.417387 0.601864,-1.53117 0.599556,-0.468112 z m -3.399021,4.312186 4.141544,0 -2.741812,7.27076 1.083811,0 -0.255961,0.75637 -3.940929,0 2.76949,-7.19698 -1.284437,0 0.228293,-0.83015 z m 12.537632,0.0253 2.024655,0 0.857827,0.85552 1.512724,0 0.830156,-0.82785 2.513522,0 0.657204,0.80248 -2.172233,6.41524 0.885503,0 -0.28595,0.68027 -3.51201,0 1.971619,-5.69116 -3.140754,0 -1.771,5.06624 0.770195,0 -0.285941,0.62492 -3.198394,0 1.943944,-5.6658 -3.286029,0 -1.743322,4.98553 0.770195,0 -0.253656,0.68027 -3.313696,0 2.656492,-7.12088 -1.028471,0 0.285942,-0.77711 3.113079,0 0.91317,0.85782 1.427406,0 0.857823,-0.88549 z"
     id="path-main"
      />
</defs>

<use id="1" style="fill:#E3E3E3" xlink:href="#path-main" />



</svg>
