<?xml version="1.0" encoding="UTF-8" standalone="no"?>
<svg
   xmlns:dc="http://purl.org/dc/elements/1.1/"
   xmlns:cc="http://creativecommons.org/ns#"
   xmlns:rdf="http://www.w3.org/1999/02/22-rdf-syntax-ns#"
   xmlns:svg="http://www.w3.org/2000/svg"
   xmlns="http://www.w3.org/2000/svg"
   xmlns:sodipodi="http://sodipodi.sourceforge.net/DTD/sodipodi-0.dtd"
   xmlns:inkscape="http://www.inkscape.org/namespaces/inkscape"
   height="512"
   viewBox="0 0 512 512"
   width="512"
   version="1.1"
   id="svg2"
   inkscape:version="0.91 r13725"
   sodipodi:docname="gitkraken.svg">
  <sodipodi:namedview
     pagecolor="#ffffff"
     bordercolor="#666666"
     borderopacity="1"
     objecttolerance="10"
     gridtolerance="10"
     guidetolerance="10"
     inkscape:pageopacity="0"
     inkscape:pageshadow="2"
     inkscape:window-width="1920"
     inkscape:window-height="1023"
     id="namedview15"
     showgrid="false"
     inkscape:zoom="0.9099002"
     inkscape:cx="-237.52496"
     inkscape:cy="388.85445"
     inkscape:window-x="0"
     inkscape:window-y="0"
     inkscape:window-maximized="1"
     inkscape:current-layer="svg2" />
  <defs
     id="defs17" />
  <metadata
     id="metadata28">
    <rdf:RDF>
      <cc:Work
         rdf:about="">
        <dc:format>image/svg+xml</dc:format>
        <dc:type
           rdf:resource="http://purl.org/dc/dcmitype/StillImage" />
        <dc:title></dc:title>
      </cc:Work>
    </rdf:RDF>
  </metadata>
  <g
     style="fill:#E3E3E3"
     transform="matrix(1.7001775,0,0,1.7001775,38.377275,66.311545)"
     id="g4">
    <path
       id="path6-3"
       d="m 247.77595,50.434484 c -1.05437,-2.741351 -4.21747,-4.00659 -6.74794,-2.952224 -1.89786,0.843492 -3.1631,2.741351 -3.1631,4.639209 0,0.63262 0,1.265239 0.42175,1.686985 4.85008,12.863262 7.59143,26.78089 7.59143,41.54201 0,59.677096 -44.49424,109.232286 -102.27348,116.612846 l 0,-55.03789 c 3.58485,-0.63262 6.95882,-1.68698 10.33279,-2.74135 l 0,46.18122 c 47.02471,-11.38715 82.24052,-53.98352 82.24052,-105.014826 0,-40.698517 -22.56342,-76.336079 -55.88138,-94.68204264 -2.53048,-1.47611203 -5.69358,-0.4217463 -6.95881,2.31960464 -0.42175,0.6326194 -0.42175,1.476112 -0.42175,2.3196046 0,1.8978583 1.05437,3.5848435 2.53048,4.4283361 30.15486,16.6589783 50.60955,48.9225703 50.60955,85.8253703 0,41.542013 -25.72652,76.968703 -62.20758,91.308073 l 0,-40.90939 c 6.3262,-1.89786 10.96541,-7.80231 10.96541,-14.97199 0,-5.90445 -2.95223,-10.75453 -7.80231,-13.49589 3.58485,-35.426684 19.82208,-25.937392 19.82208,-37.324542 l 0,-6.537068 c 0,-16.869852 -39.01153,-71.9077429 -57.3575,-73.17298179 l -3.37397,0 C 107.75618,1.7227871 68.744646,56.760678 68.744646,73.63053 l 0,6.537068 c 0,11.176276 16.026359,1.897858 19.822076,37.324542 -4.63921,2.74136 -7.591434,7.80231 -7.591434,13.49589 0,6.95881 4.639209,12.86326 10.965404,14.97199 l 0,40.90939 C 55.670511,172.53004 29.733114,137.10335 29.733114,95.561337 c 0,-36.9028 20.454695,-69.166392 50.609555,-85.8253703 2.319604,-1.2652389 3.37397,-4.217463 2.108731,-6.7479407 -0.632619,-1.8978584 -2.530477,-2.95222408 -4.428336,-2.95222408 -0.843492,0 -1.686985,0.21087314 -2.530477,0.63261944 C 42.174629,19.014385 19.611203,54.651947 19.611203,95.350464 c 0,51.031306 35.215815,93.627676 82.662277,105.225696 l 0,-46.18122 c 3.37397,1.05437 6.74794,2.10874 10.33278,2.74136 l 0,55.03789 C 54.827018,204.58275 10.332784,155.23844 10.332784,95.350464 c 0,-14.550247 2.741351,-28.467875 7.591433,-41.54201 1.054366,-2.530478 -0.210873,-5.482702 -2.74135,-6.537067 -0.63262,-0.210873 -1.265239,-0.421747 -1.897859,-0.421747 -2.108731,0 -4.0065895,1.265239 -4.8500821,3.373971 C 2.9522241,64.352112 0,79.534978 0,95.350464 0,164.30598 54.405272,220.39824 122.72817,223.13959 l 0,-64.73806 c 1.89786,0.21088 5.27183,0.21088 5.27183,0.21088 0,0 3.37397,0 5.27183,-0.21088 l 0,64.73806 C 201.59473,220.39824 256,164.30598 256,95.350464 255.78913,79.534978 253.04778,64.352112 247.77595,50.434484 l 0,0 z m -96.15816,72.962106 c 1.89786,-1.89786 4.42834,-3.16309 7.38056,-3.16309 2.95223,0 5.4827,1.26523 7.38056,3.16309 1.89786,1.89786 3.1631,4.42834 3.1631,7.38056 0,2.95223 -1.26524,5.4827 -3.1631,7.38056 -1.89786,1.89786 -4.42833,3.1631 -7.38056,3.1631 -2.95222,0 -5.4827,-1.26524 -7.38056,-3.1631 -1.89786,-1.89786 -3.1631,-4.42833 -3.1631,-7.38056 0,-2.95222 1.26524,-5.4827 3.1631,-7.38056 l 0,0 z m -47.23558,14.76112 c -1.89786,1.89786 -4.428338,3.1631 -7.380563,3.1631 -2.952224,0 -5.482701,-1.26524 -7.38056,-3.1631 -2.108731,-1.89786 -3.163097,-4.42833 -3.163097,-7.38056 0,-2.95222 1.265239,-5.4827 3.163097,-7.38056 1.897859,-1.89786 4.428336,-3.16309 7.38056,-3.16309 2.952225,0 5.482703,1.26523 7.380563,3.16309 1.89786,1.89786 3.1631,4.42834 3.1631,7.38056 -0.21088,2.95223 -1.26524,5.4827 -3.1631,7.38056 l 0,0 z"
       inkscape:connector-curvature="0"
       style="fill:#E3E3E3" />
  </g>
</svg>
