<?xml version="1.0" encoding="UTF-8" standalone="no"?>
<svg
   xmlns:dc="http://purl.org/dc/elements/1.1/"
   xmlns:cc="http://creativecommons.org/ns#"
   xmlns:rdf="http://www.w3.org/1999/02/22-rdf-syntax-ns#"
   xmlns:svg="http://www.w3.org/2000/svg"
   xmlns="http://www.w3.org/2000/svg"
   xmlns:sodipodi="http://sodipodi.sourceforge.net/DTD/sodipodi-0.dtd"
   xmlns:inkscape="http://www.inkscape.org/namespaces/inkscape"
   viewBox="0 0 512 512"
   id="svg2"
   version="1.1"
   inkscape:version="0.91 r"
   sodipodi:docname="wine-winetricks.svg">
  <metadata
     id="metadata192">
    <rdf:RDF>
      <cc:Work
         rdf:about="">
        <dc:format>image/svg+xml</dc:format>
        <dc:type
           rdf:resource="http://purl.org/dc/dcmitype/StillImage" />
      </cc:Work>
    </rdf:RDF>
  </metadata>
  <defs
     id="defs190" />
  <sodipodi:namedview
     pagecolor="#ffffff"
     bordercolor="#666666"
     borderopacity="1"
     objecttolerance="10"
     gridtolerance="10"
     guidetolerance="10"
     inkscape:pageopacity="0"
     inkscape:pageshadow="2"
     inkscape:window-width="640"
     inkscape:window-height="480"
     id="namedview188"
     showgrid="false"
     inkscape:zoom="0.4609375"
     inkscape:cx="256"
     inkscape:cy="256"
     inkscape:window-x="0"
     inkscape:window-y="0"
     inkscape:window-maximized="0"
     inkscape:current-layer="svg2" />
  <text
     font-size="129.23"
     y="231.36"
     x="729.64"
     font-family="'Gentium Book Basic'"
     line-height="125%"
     word-spacing="0"
     letter-spacing="0"
     id="text4">
    <tspan
       y="231.36"
       x="729.64"
       id="tspan6" />
  </text>
  <text
     transform="scale(4.0128.2492)"
     font-size="46.954"
     y="579.25"
     x="378.91"
     font-family="Arial"
     text-anchor="middle"
     id="text8" />
  <text
     font-size="129.23"
     y="151.36"
     x="1310.91"
     font-family="'Gentium Book Basic'"
     line-height="125%"
     word-spacing="0"
     letter-spacing="0"
     id="text10">
    <tspan
       y="151.36"
       x="1310.91"
       id="tspan12" />
  </text>
  <text
     transform="scale(4.0128.2492)"
     font-size="46.954"
     y="258.22"
     x="523.76"
     font-family="Arial"
     text-anchor="middle"
     id="text14" />
  <text
     font-size="129.23"
     y="-29.901"
     x="239.33"
     font-family="'Gentium Book Basic'"
     line-height="125%"
     word-spacing="0"
     letter-spacing="0"
     id="text16">
    <tspan
       y="-29.901"
       x="239.33"
       id="tspan18" />
  </text>
  <text
     transform="scale(4.0128.2492)"
     font-size="46.954"
     y="-469.14"
     x="256.72"
     font-family="Arial"
     text-anchor="middle"
     id="text20" />
  <text
     font-size="129.23"
     y="-246.37"
     x="1337.38"
     font-family="'Gentium Book Basic'"
     line-height="125%"
     word-spacing="0"
     letter-spacing="0"
     id="text22">
    <tspan
       y="-246.37"
       x="1337.38"
       id="tspan24" />
  </text>
  <text
     transform="scale(4.0128.2492)"
     font-size="46.954"
     y="-1337.8"
     x="530.36"
     font-family="Arial"
     text-anchor="middle"
     id="text26" />
  <text
     font-size="129.23"
     y="-326.38"
     x="1918.65"
     font-family="'Gentium Book Basic'"
     line-height="125%"
     word-spacing="0"
     letter-spacing="0"
     id="text28">
    <tspan
       y="-326.38"
       x="1918.65"
       id="tspan30" />
  </text>
  <text
     transform="scale(4.0128.2492)"
     font-size="46.954"
     y="-1658.84"
     x="675.21"
     font-family="Arial"
     text-anchor="middle"
     id="text32" />
  <text
     font-size="129.23"
     y="-798.78"
     x="1529.53"
     font-family="'Gentium Book Basic'"
     line-height="125%"
     word-spacing="0"
     letter-spacing="0"
     id="text34">
    <tspan
       y="-798.78"
       x="1529.53"
       id="tspan36" />
  </text>
  <text
     transform="scale(4.0128.2492)"
     font-size="46.954"
     y="-3554.49"
     x="578.24"
     font-family="Arial"
     text-anchor="middle"
     id="text38" />
  <text
     font-size="129.23"
     y="-878.78"
     x="2110.79"
     font-family="'Gentium Book Basic'"
     line-height="125%"
     word-spacing="0"
     letter-spacing="0"
     id="text40">
    <tspan
       y="-878.78"
       x="2110.79"
       id="tspan42" />
  </text>
  <text
     transform="scale(4.0128.2492)"
     font-size="46.954"
     y="-3875.52"
     x="723.09"
     font-family="Arial"
     text-anchor="middle"
     id="text44" />
  <text
     font-size="208.33"
     y="535.94"
     x="277.99"
     font-family="'Gentium Book Basic'"
     line-height="125%"
     word-spacing="0"
     letter-spacing="0"
     id="text46">
    <tspan
       y="535.94"
       x="277.99"
       id="tspan48" />
  </text>
  <text
     font-size="129.23"
     y="231.36"
     x="729.64"
     font-family="'Gentium Book Basic'"
     line-height="125%"
     word-spacing="0"
     letter-spacing="0"
     id="text72">
    <tspan
       y="231.36"
       x="729.64"
       id="tspan74" />
  </text>
  <text
     transform="scale(4.0128.2492)"
     font-size="46.954"
     y="579.25"
     x="378.91"
     font-family="Arial"
     text-anchor="middle"
     id="text76" />
  <text
     font-size="129.23"
     y="151.36"
     x="1310.91"
     font-family="'Gentium Book Basic'"
     line-height="125%"
     word-spacing="0"
     letter-spacing="0"
     id="text78">
    <tspan
       y="151.36"
       x="1310.91"
       id="tspan80" />
  </text>
  <text
     transform="scale(4.0128.2492)"
     font-size="46.954"
     y="258.22"
     x="523.76"
     font-family="Arial"
     text-anchor="middle"
     id="text82" />
  <text
     font-size="129.23"
     y="-29.901"
     x="239.33"
     font-family="'Gentium Book Basic'"
     line-height="125%"
     word-spacing="0"
     letter-spacing="0"
     id="text84">
    <tspan
       y="-29.901"
       x="239.33"
       id="tspan86" />
  </text>
  <text
     transform="scale(4.0128.2492)"
     font-size="46.954"
     y="-469.14"
     x="256.72"
     font-family="Arial"
     text-anchor="middle"
     id="text88" />
  <text
     font-size="129.23"
     y="-246.37"
     x="1337.38"
     font-family="'Gentium Book Basic'"
     line-height="125%"
     word-spacing="0"
     letter-spacing="0"
     id="text90">
    <tspan
       y="-246.37"
       x="1337.38"
       id="tspan92" />
  </text>
  <text
     transform="scale(4.0128.2492)"
     font-size="46.954"
     y="-1337.8"
     x="530.36"
     font-family="Arial"
     text-anchor="middle"
     id="text94" />
  <text
     font-size="129.23"
     y="-326.38"
     x="1918.65"
     font-family="'Gentium Book Basic'"
     line-height="125%"
     word-spacing="0"
     letter-spacing="0"
     id="text96">
    <tspan
       y="-326.38"
       x="1918.65"
       id="tspan98" />
  </text>
  <text
     transform="scale(4.0128.2492)"
     font-size="46.954"
     y="-1658.84"
     x="675.21"
     font-family="Arial"
     text-anchor="middle"
     id="text100" />
  <text
     font-size="129.23"
     y="-798.78"
     x="1529.53"
     font-family="'Gentium Book Basic'"
     line-height="125%"
     word-spacing="0"
     letter-spacing="0"
     id="text102">
    <tspan
       y="-798.78"
       x="1529.53"
       id="tspan104" />
  </text>
  <text
     transform="scale(4.0128.2492)"
     font-size="46.954"
     y="-3554.49"
     x="578.24"
     font-family="Arial"
     text-anchor="middle"
     id="text106" />
  <text
     font-size="129.23"
     y="-878.78"
     x="2110.79"
     font-family="'Gentium Book Basic'"
     line-height="125%"
     word-spacing="0"
     letter-spacing="0"
     id="text108">
    <tspan
       y="-878.78"
       x="2110.79"
       id="tspan110" />
  </text>
  <text
     transform="scale(4.0128.2492)"
     font-size="46.954"
     y="-3875.52"
     x="723.09"
     font-family="Arial"
     text-anchor="middle"
     id="text112" />
  <g
     font-family="'Gentium Book Basic'"
     line-height="125%"
     word-spacing="0"
     letter-spacing="0"
     id="g114">
    <text
       y="535.94"
       x="277.99"
       font-size="208.33"
       id="text116">
      <tspan
         y="535.94"
         x="277.99"
         id="tspan118" />
    </text>
    <text
       y="285.6"
       x="102.66"
       font-size="129.23"
       id="text120">
      <tspan
         y="285.6"
         x="102.66"
         id="tspan122" />
    </text>
  </g>
  <text
     transform="scale(4.0128.2492)"
     font-size="46.954"
     y="796.89"
     x="222.66"
     font-family="Arial"
     text-anchor="middle"
     id="text124" />
  <text
     font-size="129.23"
     y="205.6"
     x="683.93"
     font-family="'Gentium Book Basic'"
     line-height="125%"
     word-spacing="0"
     letter-spacing="0"
     id="text126">
    <tspan
       y="205.6"
       x="683.93"
       id="tspan128" />
  </text>
  <text
     transform="scale(4.0128.2492)"
     font-size="46.954"
     y="475.86"
     x="367.51"
     font-family="Arial"
     text-anchor="middle"
     id="text130" />
  <text
     font-size="129.23"
     y="24.336"
     x="-387.65"
     font-family="'Gentium Book Basic'"
     line-height="125%"
     word-spacing="0"
     letter-spacing="0"
     id="text132">
    <tspan
       y="24.336"
       x="-387.65"
       id="tspan134" />
  </text>
  <text
     transform="scale(4.0128.2492)"
     font-size="46.954"
     y="-251.49"
     x="100.47"
     font-family="Arial"
     text-anchor="middle"
     id="text136" />
  <text
     font-size="129.23"
     y="-192.13"
     x="710.4"
     font-family="'Gentium Book Basic'"
     line-height="125%"
     word-spacing="0"
     letter-spacing="0"
     id="text138">
    <tspan
       y="-192.13"
       x="710.4"
       id="tspan140" />
  </text>
  <text
     transform="scale(4.0128.2492)"
     font-size="46.954"
     y="-1120.16"
     x="374.11"
     font-family="Arial"
     text-anchor="middle"
     id="text142" />
  <text
     font-size="129.23"
     y="-272.14"
     x="1291.67"
     font-family="'Gentium Book Basic'"
     line-height="125%"
     word-spacing="0"
     letter-spacing="0"
     id="text144">
    <tspan
       y="-272.14"
       x="1291.67"
       id="tspan146" />
  </text>
  <text
     transform="scale(4.0128.2492)"
     font-size="46.954"
     y="-1441.2"
     x="518.96"
     font-family="Arial"
     text-anchor="middle"
     id="text148" />
  <text
     font-size="129.23"
     y="-744.54"
     x="902.55"
     font-family="'Gentium Book Basic'"
     line-height="125%"
     word-spacing="0"
     letter-spacing="0"
     id="text150">
    <tspan
       y="-744.54"
       x="902.55"
       id="tspan152" />
  </text>
  <text
     transform="scale(4.0128.2492)"
     font-size="46.954"
     y="-3336.85"
     x="421.99"
     font-family="Arial"
     text-anchor="middle"
     id="text154" />
  <text
     font-size="129.23"
     y="-824.54"
     x="1483.81"
     font-family="'Gentium Book Basic'"
     line-height="125%"
     word-spacing="0"
     letter-spacing="0"
     id="text156">
    <tspan
       y="-824.54"
       x="1483.81"
       id="tspan158" />
  </text>
  <text
     transform="scale(4.0128.2492)"
     font-size="46.954"
     y="-3657.88"
     x="566.84"
     font-family="Arial"
     text-anchor="middle"
     id="text160" />
  <g
     font-family="'Gentium Book Basic'"
     transform="translate(-626.98 54.24)"
     font-size="208.33"
     line-height="125%"
     word-spacing="0"
     letter-spacing="0"
     id="g162">
    <text
       y="535.94"
       x="277.99"
       id="text164">
      <tspan
         y="535.94"
         x="277.99"
         id="tspan166" />
    </text>
    <text
       y="413.27"
       x="-1771.42"
       id="text168">
      <tspan
         y="413.27"
         x="-1771.42"
         id="tspan170" />
    </text>
  </g>
  <text
     transform="scale(4.0128.2492)"
     font-size="75.7"
     y="1313.13"
     x="-279.95"
     font-family="Arial"
     text-anchor="middle"
     id="text172" />
  <text
     font-size="208.33"
     y="913.42"
     x="-1840.22"
     font-family="'Gentium Book Basic'"
     line-height="125%"
     word-spacing="0"
     letter-spacing="0"
     id="text174">
    <tspan
       y="913.42"
       x="-1840.22"
       id="tspan176" />
  </text>
  <text
     transform="scale(4.0128.2492)"
     font-size="75.7"
     y="3102.48"
     x="-140.86"
     font-family="Arial"
     text-anchor="middle"
     id="text178" />
  <text
     font-size="40"
     y="675.9"
     x="248.47"
     font-family="Sans"
     line-height="125%"
     word-spacing="0"
     letter-spacing="0"
     id="text180">
    <tspan
       y="675.9"
       x="248.47"
       font-weight="bold"
       font-style="italic"
       id="tspan182" />
  </text>
  <path
     d="m255.95 97.53c-57.42 0-103.91 44.601-103.91 99.68 0 28.359 12.336 53.953 32.14 72.11l0.028 0.084c4.334 3.755 8.785 10.113 12.355 18.14 3.719 8.356 5.699 16.847 5.897 23.697l0.028 0.057c0.94 14.93 13.264 26.66 28.44 26.66h50.34c15.792 0 28.525-12.704 28.525-28.497v-2.257c0.702-6.01 2.566-12.876 5.587-19.666 3.573-8.03 7.995-14.387 12.326-18.14 19.864-18.17 32.25-43.805 32.25-72.2 0-55.08-46.579-99.68-104-99.68m-3.7244 26.381a7.9267 7.9267 0 0 1 1.3825 15.772c-14.552 1.813-27.22 6.25-36.736 14.587-9.515 8.337-16.451 20.743-18.791 40.709a7.9348 7.9348 0 1 1 -15.744 -1.8622c2.685-22.92 11.446-39.7 24.1-50.786 12.653-11.09 28.629-16.303 45.2-18.368a7.9267 7.9267 0 0 1 0.59251 -0.0564m51.633 216.21a7.1059 7.1059 0 0 0 -0.50787 0.0564l-93.34 11a7.1059 7.1059 0 1 0 1.6647 14.107l93.34-11a7.1059 7.1059 0 0 0 -1.1568 -14.164m0 26.409a7.2061 7.2061 0 0 0 -0.50787 0.0564l-93.37 11a7.2061 7.2061 0 1 0 1.6929 14.305l93.37-11a7.2061 7.2061 0 0 0 -1.185 -14.361m-17.634 27.34a7.2137 7.2137 0 0 0 -0.31036 0.0282 7.2061 7.2061 0 0 0 -0.50787 0.0564l-57.33 6.179a7.2084 7.2084 0 0 0 1.5518 14.333l57.33-6.179a7.2182 7.2182 0 0 0 -0.73359 -14.418"
     fill="#E3E3E3"
     id="path186" />
</svg>
