<?xml version="1.0" encoding="UTF-8" standalone="no"?>
<svg
   xmlns:dc="http://purl.org/dc/elements/1.1/"
   xmlns:cc="http://creativecommons.org/ns#"
   xmlns:rdf="http://www.w3.org/1999/02/22-rdf-syntax-ns#"
   xmlns:svg="http://www.w3.org/2000/svg"
   xmlns="http://www.w3.org/2000/svg"
   xmlns:sodipodi="http://sodipodi.sourceforge.net/DTD/sodipodi-0.dtd"
   xmlns:inkscape="http://www.inkscape.org/namespaces/inkscape"
   viewBox="0 0 512 512"
   id="svg2"
   version="1.1"
   inkscape:version="0.91 r"
   sodipodi:docname="winusbgui-icon.svg">
  <metadata
     id="metadata486">
    <rdf:RDF>
      <cc:Work
         rdf:about="">
        <dc:format>image/svg+xml</dc:format>
        <dc:type
           rdf:resource="http://purl.org/dc/dcmitype/StillImage" />
      </cc:Work>
    </rdf:RDF>
  </metadata>
  <defs
     id="defs484" />
  <sodipodi:namedview
     pagecolor="#ffffff"
     bordercolor="#666666"
     borderopacity="1"
     objecttolerance="10"
     gridtolerance="10"
     guidetolerance="10"
     inkscape:pageopacity="0"
     inkscape:pageshadow="2"
     inkscape:window-width="647"
     inkscape:window-height="480"
     id="namedview482"
     showgrid="false"
     inkscape:zoom="0.4609375"
     inkscape:cx="576"
     inkscape:cy="256"
     inkscape:window-x="0"
     inkscape:window-y="0"
     inkscape:window-maximized="0"
     inkscape:current-layer="svg2" />
  <text
     font-size="129.23"
     y="231.36"
     x="729.64"
     font-family="'Gentium Book Basic'"
     line-height="125%"
     word-spacing="0"
     letter-spacing="0"
     id="text24">
    <tspan
       y="231.36"
       x="729.64"
       id="tspan26" />
  </text>
  <text
     transform="scale(4.0128.2492)"
     font-size="46.954"
     y="579.26"
     x="378.91"
     font-family="Arial"
     text-anchor="middle"
     id="text28" />
  <text
     font-size="129.23"
     y="151.36"
     x="1310.91"
     font-family="'Gentium Book Basic'"
     line-height="125%"
     word-spacing="0"
     letter-spacing="0"
     id="text30">
    <tspan
       y="151.36"
       x="1310.91"
       id="tspan32" />
  </text>
  <text
     transform="scale(4.0128.2492)"
     font-size="46.954"
     y="258.22"
     x="523.76"
     font-family="Arial"
     text-anchor="middle"
     id="text34" />
  <text
     font-size="129.23"
     y="-29.9"
     x="239.33"
     font-family="'Gentium Book Basic'"
     line-height="125%"
     word-spacing="0"
     letter-spacing="0"
     id="text36">
    <tspan
       y="-29.9"
       x="239.33"
       id="tspan38" />
  </text>
  <text
     transform="scale(4.0128.2492)"
     font-size="46.954"
     y="-469.13"
     x="256.72"
     font-family="Arial"
     text-anchor="middle"
     id="text40" />
  <text
     font-size="129.23"
     y="-246.37"
     x="1337.38"
     font-family="'Gentium Book Basic'"
     line-height="125%"
     word-spacing="0"
     letter-spacing="0"
     id="text42">
    <tspan
       y="-246.37"
       x="1337.38"
       id="tspan44" />
  </text>
  <text
     transform="scale(4.0128.2492)"
     font-size="46.954"
     y="-1337.8"
     x="530.36"
     font-family="Arial"
     text-anchor="middle"
     id="text46" />
  <text
     font-size="129.23"
     y="-326.37"
     x="1918.65"
     font-family="'Gentium Book Basic'"
     line-height="125%"
     word-spacing="0"
     letter-spacing="0"
     id="text48">
    <tspan
       y="-326.37"
       x="1918.65"
       id="tspan50" />
  </text>
  <text
     transform="scale(4.0128.2492)"
     font-size="46.954"
     y="-1658.83"
     x="675.21"
     font-family="Arial"
     text-anchor="middle"
     id="text52" />
  <text
     font-size="129.23"
     y="-798.77"
     x="1529.53"
     font-family="'Gentium Book Basic'"
     line-height="125%"
     word-spacing="0"
     letter-spacing="0"
     id="text54">
    <tspan
       y="-798.77"
       x="1529.53"
       id="tspan56" />
  </text>
  <text
     transform="scale(4.0128.2492)"
     font-size="46.954"
     y="-3554.48"
     x="578.24"
     font-family="Arial"
     text-anchor="middle"
     id="text58" />
  <text
     font-size="129.23"
     y="-878.78"
     x="2110.79"
     font-family="'Gentium Book Basic'"
     line-height="125%"
     word-spacing="0"
     letter-spacing="0"
     id="text60">
    <tspan
       y="-878.78"
       x="2110.79"
       id="tspan62" />
  </text>
  <text
     transform="scale(4.0128.2492)"
     font-size="46.954"
     y="-3875.52"
     x="723.09"
     font-family="Arial"
     text-anchor="middle"
     id="text64" />
  <g
     font-family="'Gentium Book Basic'"
     line-height="125%"
     word-spacing="0"
     letter-spacing="0"
     id="g66">
    <text
       y="535.94"
       x="277.99"
       font-size="208.33"
       id="text68">
      <tspan
         y="535.94"
         x="277.99"
         id="tspan70" />
    </text>
    <text
       y="739.52"
       x="753.79"
       font-size="129.23"
       id="text72">
      <tspan
         y="739.52"
         x="753.79"
         id="tspan74" />
    </text>
  </g>
  <text
     transform="scale(4.0128.2492)"
     font-size="46.954"
     y="2618.42"
     x="384.93"
     font-family="Arial"
     text-anchor="middle"
     id="text76" />
  <text
     font-size="129.23"
     y="659.52"
     x="1335.06"
     font-family="'Gentium Book Basic'"
     line-height="125%"
     word-spacing="0"
     letter-spacing="0"
     id="text78">
    <tspan
       y="659.52"
       x="1335.06"
       id="tspan80" />
  </text>
  <text
     transform="scale(4.0128.2492)"
     font-size="46.954"
     y="2297.39"
     x="529.78"
     font-family="Arial"
     text-anchor="middle"
     id="text82" />
  <text
     font-size="129.23"
     y="478.26"
     x="263.48"
     font-family="'Gentium Book Basic'"
     line-height="125%"
     word-spacing="0"
     letter-spacing="0"
     id="text84">
    <tspan
       y="478.26"
       x="263.48"
       id="tspan86" />
  </text>
  <text
     transform="scale(4.0128.2492)"
     font-size="46.954"
     y="1570.04"
     x="262.74"
     font-family="Arial"
     text-anchor="middle"
     id="text88" />
  <text
     font-size="129.23"
     y="261.79"
     x="1361.53"
     font-family="'Gentium Book Basic'"
     line-height="125%"
     word-spacing="0"
     letter-spacing="0"
     id="text90">
    <tspan
       y="261.79"
       x="1361.53"
       id="tspan92" />
  </text>
  <text
     transform="scale(4.0128.2492)"
     font-size="46.954"
     y="701.37"
     x="536.38"
     font-family="Arial"
     text-anchor="middle"
     id="text94" />
  <text
     font-size="129.23"
     y="181.78"
     x="1942.8"
     font-family="'Gentium Book Basic'"
     line-height="125%"
     word-spacing="0"
     letter-spacing="0"
     id="text96">
    <tspan
       y="181.78"
       x="1942.8"
       id="tspan98" />
  </text>
  <text
     transform="scale(4.0128.2492)"
     font-size="46.954"
     y="380.33"
     x="681.23"
     font-family="Arial"
     text-anchor="middle"
     id="text100" />
  <text
     font-size="129.23"
     y="-290.62"
     x="1553.68"
     font-family="'Gentium Book Basic'"
     line-height="125%"
     word-spacing="0"
     letter-spacing="0"
     id="text102">
    <tspan
       y="-290.62"
       x="1553.68"
       id="tspan104" />
  </text>
  <text
     transform="scale(4.0128.2492)"
     font-size="46.954"
     y="-1515.32"
     x="584.26"
     font-family="Arial"
     text-anchor="middle"
     id="text106" />
  <text
     font-size="129.23"
     y="-370.62"
     x="2134.94"
     font-family="'Gentium Book Basic'"
     line-height="125%"
     word-spacing="0"
     letter-spacing="0"
     id="text108">
    <tspan
       y="-370.62"
       x="2134.94"
       id="tspan110" />
  </text>
  <text
     transform="scale(4.0128.2492)"
     font-size="46.954"
     y="-1836.35"
     x="729.11"
     font-family="Arial"
     text-anchor="middle"
     id="text112" />
  <g
     font-family="'Gentium Book Basic'"
     line-height="125%"
     word-spacing="0"
     letter-spacing="0"
     id="g114">
    <text
       y="1044.1"
       x="302.14"
       font-size="208.33"
       id="text116">
      <tspan
         y="1044.1"
         x="302.14"
         id="tspan118" />
    </text>
    <text
       y="909.78"
       x="1056.16"
       font-size="129.23"
       id="text120">
      <tspan
         y="909.78"
         x="1056.16"
         id="tspan122" />
    </text>
  </g>
  <text
     transform="scale(4.0128.2492)"
     font-size="46.954"
     y="3301.61"
     x="460.28"
     font-family="Arial"
     text-anchor="middle"
     id="text124" />
  <text
     font-size="129.23"
     y="829.78"
     x="1637.43"
     font-family="'Gentium Book Basic'"
     line-height="125%"
     word-spacing="0"
     letter-spacing="0"
     id="text126">
    <tspan
       y="829.78"
       x="1637.43"
       id="tspan128" />
  </text>
  <text
     transform="scale(4.0128.2492)"
     font-size="46.954"
     y="2980.58"
     x="605.13"
     font-family="Arial"
     text-anchor="middle"
     id="text130" />
  <text
     font-size="129.23"
     y="648.52"
     x="565.85"
     font-family="'Gentium Book Basic'"
     line-height="125%"
     word-spacing="0"
     letter-spacing="0"
     id="text132">
    <tspan
       y="648.52"
       x="565.85"
       id="tspan134" />
  </text>
  <text
     transform="scale(4.0128.2492)"
     font-size="46.954"
     y="2253.22"
     x="338.09"
     font-family="Arial"
     text-anchor="middle"
     id="text136" />
  <text
     font-size="129.23"
     y="432.05"
     x="1663.9"
     font-family="'Gentium Book Basic'"
     line-height="125%"
     word-spacing="0"
     letter-spacing="0"
     id="text138">
    <tspan
       y="432.05"
       x="1663.9"
       id="tspan140" />
  </text>
  <text
     transform="scale(4.0128.2492)"
     font-size="46.954"
     y="1384.56"
     x="611.73"
     font-family="Arial"
     text-anchor="middle"
     id="text142" />
  <text
     font-size="129.23"
     y="352.04"
     x="2245.17"
     font-family="'Gentium Book Basic'"
     line-height="125%"
     word-spacing="0"
     letter-spacing="0"
     id="text144">
    <tspan
       y="352.04"
       x="2245.17"
       id="tspan146" />
  </text>
  <text
     transform="scale(4.0128.2492)"
     font-size="46.954"
     y="1063.52"
     x="756.57"
     font-family="Arial"
     text-anchor="middle"
     id="text148" />
  <text
     font-size="129.23"
     y="-120.36"
     x="1856.05"
     font-family="'Gentium Book Basic'"
     line-height="125%"
     word-spacing="0"
     letter-spacing="0"
     id="text150">
    <tspan
       y="-120.36"
       x="1856.05"
       id="tspan152" />
  </text>
  <text
     transform="scale(4.0128.2492)"
     font-size="46.954"
     y="-832.13"
     x="659.61"
     font-family="Arial"
     text-anchor="middle"
     id="text154" />
  <text
     font-size="129.23"
     y="-200.36"
     x="2437.31"
     font-family="'Gentium Book Basic'"
     line-height="125%"
     word-spacing="0"
     letter-spacing="0"
     id="text156">
    <tspan
       y="-200.36"
       x="2437.31"
       id="tspan158" />
  </text>
  <text
     transform="scale(4.0128.2492)"
     font-size="46.954"
     y="-1153.16"
     x="804.45"
     font-family="Arial"
     text-anchor="middle"
     id="text160" />
  <g
     font-family="'Gentium Book Basic'"
     line-height="125%"
     word-spacing="0"
     letter-spacing="0"
     id="g162">
    <text
       y="1214.36"
       x="604.51"
       font-size="208.33"
       id="text164">
      <tspan
         y="1214.36"
         x="604.51"
         id="tspan166" />
    </text>
    <text
       y="879.4"
       x="1043.14"
       font-size="129.23"
       id="text168">
      <tspan
         y="879.4"
         x="1043.14"
         id="tspan170" />
    </text>
  </g>
  <text
     transform="scale(4.0128.2492)"
     font-size="46.954"
     y="3179.73"
     x="457.03"
     font-family="Arial"
     text-anchor="middle"
     id="text172" />
  <text
     font-size="129.23"
     y="799.4"
     x="1624.41"
     font-family="'Gentium Book Basic'"
     line-height="125%"
     word-spacing="0"
     letter-spacing="0"
     id="text174">
    <tspan
       y="799.4"
       x="1624.41"
       id="tspan176" />
  </text>
  <text
     transform="scale(4.0128.2492)"
     font-size="46.954"
     y="2858.7"
     x="601.88"
     font-family="Arial"
     text-anchor="middle"
     id="text178" />
  <text
     font-size="129.23"
     y="618.14"
     x="552.83"
     font-family="'Gentium Book Basic'"
     line-height="125%"
     word-spacing="0"
     letter-spacing="0"
     id="text180">
    <tspan
       y="618.14"
       x="552.83"
       id="tspan182" />
  </text>
  <text
     transform="scale(4.0128.2492)"
     font-size="46.954"
     y="2131.34"
     x="334.84"
     font-family="Arial"
     text-anchor="middle"
     id="text184" />
  <text
     font-size="129.23"
     y="401.67"
     x="1650.88"
     font-family="'Gentium Book Basic'"
     line-height="125%"
     word-spacing="0"
     letter-spacing="0"
     id="text186">
    <tspan
       y="401.67"
       x="1650.88"
       id="tspan188" />
  </text>
  <text
     transform="scale(4.0128.2492)"
     font-size="46.954"
     y="1262.68"
     x="608.48"
     font-family="Arial"
     text-anchor="middle"
     id="text190" />
  <text
     font-size="129.23"
     y="321.66"
     x="2232.15"
     font-family="'Gentium Book Basic'"
     line-height="125%"
     word-spacing="0"
     letter-spacing="0"
     id="text192">
    <tspan
       y="321.66"
       x="2232.15"
       id="tspan194" />
  </text>
  <text
     transform="scale(4.0128.2492)"
     font-size="46.954"
     y="941.64"
     x="753.33"
     font-family="Arial"
     text-anchor="middle"
     id="text196" />
  <text
     font-size="129.23"
     y="-150.74"
     x="1843.03"
     font-family="'Gentium Book Basic'"
     line-height="125%"
     word-spacing="0"
     letter-spacing="0"
     id="text198">
    <tspan
       y="-150.74"
       x="1843.03"
       id="tspan200" />
  </text>
  <text
     transform="scale(4.0128.2492)"
     font-size="46.954"
     y="-954.01"
     x="656.36"
     font-family="Arial"
     text-anchor="middle"
     id="text202" />
  <text
     font-size="129.23"
     y="-230.74"
     x="2424.29"
     font-family="'Gentium Book Basic'"
     line-height="125%"
     word-spacing="0"
     letter-spacing="0"
     id="text204">
    <tspan
       y="-230.74"
       x="2424.29"
       id="tspan206" />
  </text>
  <text
     transform="scale(4.0128.2492)"
     font-size="46.954"
     y="-1275.04"
     x="801.21"
     font-family="Arial"
     text-anchor="middle"
     id="text208" />
  <g
     font-family="'Gentium Book Basic'"
     line-height="125%"
     word-spacing="0"
     letter-spacing="0"
     id="g210">
    <text
       y="1183.98"
       x="591.49"
       font-size="208.33"
       id="text212">
      <tspan
         y="1183.98"
         x="591.49"
         id="tspan214" />
    </text>
    <text
       y="945.09"
       x="1003.85"
       font-size="129.23"
       id="text216">
      <tspan
         y="945.09"
         x="1003.85"
         id="tspan218" />
    </text>
  </g>
  <text
     transform="scale(4.0128.2492)"
     font-size="46.954"
     y="3443.31"
     x="447.24"
     font-family="Arial"
     text-anchor="middle"
     id="text220" />
  <text
     font-size="129.23"
     y="865.09"
     x="1585.12"
     font-family="'Gentium Book Basic'"
     line-height="125%"
     word-spacing="0"
     letter-spacing="0"
     id="text222">
    <tspan
       y="865.09"
       x="1585.12"
       id="tspan224" />
  </text>
  <text
     transform="scale(4.0128.2492)"
     font-size="46.954"
     y="3122.29"
     x="592.09"
     font-family="Arial"
     text-anchor="middle"
     id="text226" />
  <text
     font-size="129.23"
     y="683.83"
     x="513.54"
     font-family="'Gentium Book Basic'"
     line-height="125%"
     word-spacing="0"
     letter-spacing="0"
     id="text228">
    <tspan
       y="683.83"
       x="513.54"
       id="tspan230" />
  </text>
  <text
     transform="scale(4.0128.2492)"
     font-size="46.954"
     y="2394.93"
     x="325.05"
     font-family="Arial"
     text-anchor="middle"
     id="text232" />
  <text
     font-size="129.23"
     y="467.36"
     x="1611.59"
     font-family="'Gentium Book Basic'"
     line-height="125%"
     word-spacing="0"
     letter-spacing="0"
     id="text234">
    <tspan
       y="467.36"
       x="1611.59"
       id="tspan236" />
  </text>
  <text
     transform="scale(4.0128.2492)"
     font-size="46.954"
     y="1526.26"
     x="598.69"
     font-family="Arial"
     text-anchor="middle"
     id="text238" />
  <text
     font-size="129.23"
     y="387.35"
     x="2192.86"
     font-family="'Gentium Book Basic'"
     line-height="125%"
     word-spacing="0"
     letter-spacing="0"
     id="text240">
    <tspan
       y="387.35"
       x="2192.86"
       id="tspan242" />
  </text>
  <text
     transform="scale(4.0128.2492)"
     font-size="46.954"
     y="1205.23"
     x="743.54"
     font-family="Arial"
     text-anchor="middle"
     id="text244" />
  <text
     font-size="129.23"
     y="-85.05"
     x="1803.74"
     font-family="'Gentium Book Basic'"
     line-height="125%"
     word-spacing="0"
     letter-spacing="0"
     id="text246">
    <tspan
       y="-85.05"
       x="1803.74"
       id="tspan248" />
  </text>
  <text
     transform="scale(4.0128.2492)"
     font-size="46.954"
     y="-690.42"
     x="646.57"
     font-family="Arial"
     text-anchor="middle"
     id="text250" />
  <text
     font-size="129.23"
     y="-165.05"
     x="2385"
     font-family="'Gentium Book Basic'"
     line-height="125%"
     word-spacing="0"
     letter-spacing="0"
     id="text252">
    <tspan
       y="-165.05"
       x="2385"
       id="tspan254" />
  </text>
  <text
     transform="scale(4.0128.2492)"
     font-size="46.954"
     y="-1011.45"
     x="791.42"
     font-family="Arial"
     text-anchor="middle"
     id="text256" />
  <g
     font-family="'Gentium Book Basic'"
     transform="translate(274.21 713.73)"
     line-height="125%"
     word-spacing="0"
     letter-spacing="0"
     id="g258">
    <text
       y="535.94"
       x="277.99"
       font-size="208.33"
       id="text260">
      <tspan
         y="535.94"
         x="277.99"
         id="tspan262" />
    </text>
    <text
       y="135.65"
       x="148.44"
       font-size="129.23"
       id="text264">
      <tspan
         y="135.65"
         x="148.44"
         id="tspan266" />
    </text>
  </g>
  <text
     transform="scale(4.0128.2492)"
     font-size="46.954"
     y="3059.27"
     x="302.4"
     font-family="Arial"
     text-anchor="middle"
     id="text268" />
  <text
     font-size="129.23"
     y="769.38"
     x="1003.92"
     font-family="'Gentium Book Basic'"
     line-height="125%"
     word-spacing="0"
     letter-spacing="0"
     id="text270">
    <tspan
       y="769.38"
       x="1003.92"
       id="tspan272" />
  </text>
  <text
     transform="scale(4.0128.2492)"
     font-size="46.954"
     y="2738.24"
     x="447.25"
     font-family="Arial"
     text-anchor="middle"
     id="text274" />
  <text
     font-size="129.23"
     y="588.12"
     x="-67.66"
     font-family="'Gentium Book Basic'"
     line-height="125%"
     word-spacing="0"
     letter-spacing="0"
     id="text276">
    <tspan
       y="588.12"
       x="-67.66"
       id="tspan278" />
  </text>
  <text
     transform="scale(4.0128.2492)"
     font-size="46.954"
     y="2010.88"
     x="180.21"
     font-family="Arial"
     text-anchor="middle"
     id="text280" />
  <text
     font-size="129.23"
     y="371.65"
     x="1030.39"
     font-family="'Gentium Book Basic'"
     line-height="125%"
     word-spacing="0"
     letter-spacing="0"
     id="text282">
    <tspan
       y="371.65"
       x="1030.39"
       id="tspan284" />
  </text>
  <text
     transform="scale(4.0128.2492)"
     font-size="46.954"
     y="1142.23"
     x="453.85"
     font-family="Arial"
     text-anchor="middle"
     id="text286" />
  <text
     font-size="129.23"
     y="291.64"
     x="1611.66"
     font-family="'Gentium Book Basic'"
     line-height="125%"
     word-spacing="0"
     letter-spacing="0"
     id="text288">
    <tspan
       y="291.64"
       x="1611.66"
       id="tspan290" />
  </text>
  <text
     transform="scale(4.0128.2492)"
     font-size="46.954"
     y="821.19"
     x="598.7"
     font-family="Arial"
     text-anchor="middle"
     id="text292" />
  <text
     font-size="129.23"
     y="-180.76"
     x="1222.54"
     font-family="'Gentium Book Basic'"
     line-height="125%"
     word-spacing="0"
     letter-spacing="0"
     id="text294">
    <tspan
       y="-180.76"
       x="1222.54"
       id="tspan296" />
  </text>
  <text
     transform="scale(4.0128.2492)"
     font-size="46.954"
     y="-1074.45"
     x="501.73"
     font-family="Arial"
     text-anchor="middle"
     id="text298" />
  <text
     font-size="129.23"
     y="-260.76"
     x="1803.8"
     font-family="'Gentium Book Basic'"
     line-height="125%"
     word-spacing="0"
     letter-spacing="0"
     id="text300">
    <tspan
       y="-260.76"
       x="1803.8"
       id="tspan302" />
  </text>
  <text
     transform="scale(4.0128.2492)"
     font-size="46.954"
     y="-1395.48"
     x="646.58"
     font-family="Arial"
     text-anchor="middle"
     id="text304" />
  <g
     font-family="'Gentium Book Basic'"
     line-height="125%"
     word-spacing="0"
     letter-spacing="0"
     id="g306">
    <text
       y="1153.96"
       x="-29"
       font-size="208.33"
       id="text308">
      <tspan
         y="1153.96"
         x="-29"
         id="tspan310" />
    </text>
    <text
       y="816.4"
       x="388.61"
       font-size="200"
       stroke="#555753"
       fill="#555753"
       id="text312">
      <tspan
         y="816.4"
         x="388.61"
         id="tspan314" />
    </text>
  </g>
  <g
     fill="#555753"
     id="g316">
    <text
       transform="scale(4.0128.2492)"
       font-size="72.67"
       y="2735.69"
       x="401.86"
       font-family="Arial"
       text-anchor="middle"
       id="text318" />
    <text
       font-size="200"
       stroke="#555753"
       y="869.54"
       x="1133.98"
       font-family="'Gentium Book Basic'"
       line-height="125%"
       word-spacing="0"
       letter-spacing="0"
       id="text320">
      <tspan
         y="869.54"
         x="1133.98"
         id="tspan322" />
    </text>
    <text
       transform="scale(4.0128.2492)"
       font-size="72.67"
       y="2948.94"
       x="587.61"
       font-family="Arial"
       text-anchor="middle"
       id="text324" />
    <text
       font-size="200"
       stroke="#555753"
       y="745.72"
       x="2033.6"
       font-family="'Gentium Book Basic'"
       line-height="125%"
       word-spacing="0"
       letter-spacing="0"
       id="text326">
      <tspan
         y="745.72"
         x="2033.6"
         id="tspan328" />
    </text>
    <text
       transform="scale(4.0128.2492)"
       font-size="72.67"
       y="2452.08"
       x="811.79"
       font-family="Arial"
       text-anchor="middle"
       id="text330" />
    <text
       font-size="200"
       stroke="#555753"
       y="693.08"
       x="1161.45"
       font-family="'Gentium Book Basic'"
       line-height="125%"
       word-spacing="0"
       letter-spacing="0"
       id="text332">
      <tspan
         y="693.08"
         x="1161.45"
         id="tspan334" />
    </text>
    <text
       transform="scale(4.0128.2492)"
       font-size="72.67"
       y="2240.86"
       x="594.45"
       font-family="Arial"
       text-anchor="middle"
       id="text336" />
    <text
       font-size="200"
       stroke="#555753"
       y="569.27"
       x="2061.06"
       font-family="'Gentium Book Basic'"
       line-height="125%"
       word-spacing="0"
       letter-spacing="0"
       id="text338">
      <tspan
         y="569.27"
         x="2061.06"
         id="tspan340" />
    </text>
    <text
       transform="scale(4.0128.2492)"
       font-size="72.67"
       y="1744"
       x="818.63"
       font-family="Arial"
       text-anchor="middle"
       id="text342" />
    <text
       font-size="200"
       stroke="#555753"
       y="1144.97"
       x="-1848.54"
       font-family="'Gentium Book Basic'"
       line-height="125%"
       word-spacing="0"
       letter-spacing="0"
       id="text344">
      <tspan
         y="1144.97"
         x="-1848.54"
         id="tspan346" />
    </text>
    <text
       transform="scale(4.0128.2492)"
       font-size="72.67"
       y="4054.19"
       x="-155.64"
       font-family="Arial"
       text-anchor="middle"
       id="text348" />
  </g>
  <text
     font-size="208.33"
     y="1179.08"
     x="7.02"
     font-family="'Gentium Book Basic'"
     line-height="125%"
     word-spacing="0"
     letter-spacing="0"
     id="text350">
    <tspan
       y="1179.08"
       x="7.02"
       id="tspan352" />
  </text>
  <text
     transform="scale(4.0128.2492)"
     font-size="75.7"
     y="4168.58"
     x="319.47"
     font-family="Arial"
     text-anchor="middle"
     id="text354" />
  <g
     transform="translate(964.35 700.11)"
     fill="#654641"
     id="g356">
    <text
       transform="scale(1.05082.95163)"
       font-size="84.77"
       y="221.3"
       x="681.22"
       font-family="'Gentium Book Basic'"
       line-height="125%"
       word-spacing="0"
       letter-spacing="0"
       id="text358">
      <tspan
         y="221.3"
         x="681.22"
         id="tspan360" />
    </text>
    <text
       transform="scale(4.21679.23715)"
       font-size="30.8"
       y="659.01"
       x="299.04"
       font-family="Arial"
       text-anchor="middle"
       id="text362" />
    <text
       transform="scale(1.05082.95163)"
       font-size="45.38"
       y="197.8"
       x="949.03"
       font-family="'Gentium Book Basic'"
       line-height="125%"
       word-spacing="0"
       letter-spacing="0"
       id="text364">
      <tspan
         y="197.8"
         x="949.03"
         id="tspan366" />
    </text>
    <text
       transform="scale(4.21679.23715)"
       font-size="16.488"
       y="671.14"
       x="305.7"
       font-family="Arial"
       text-anchor="middle"
       id="text368" />
    <text
       font-size="132.57"
       y="290.09"
       x="-25.07"
       font-family="'Gentium Book Basic'"
       line-height="125%"
       word-spacing="0"
       letter-spacing="0"
       id="text370">
      <tspan
         y="290.09"
         x="-25.07"
         id="tspan372" />
    </text>
    <text
       transform="scale(4.0128.2492)"
       font-size="48.17"
       y="805.88"
       x="195.94"
       font-family="Arial"
       text-anchor="middle"
       id="text374" />
  </g>
  <g
     transform="translate(964.35 700.11)"
     id="g376">
    <g
       fill="#654641"
       id="g378">
      <text
         transform="scale(1.05082.95163)"
         font-size="84.77"
         y="185.78"
         x="119.84"
         font-family="'Gentium Book Basic'"
         line-height="125%"
         word-spacing="0"
         letter-spacing="0"
         id="text380">
        <tspan
           y="185.78"
           x="119.84"
           id="tspan382" />
      </text>
      <text
         transform="scale(4.21679.23715)"
         font-size="30.8"
         y="516.46"
         x="159.14"
         font-family="Arial"
         text-anchor="middle"
         id="text384" />
      <text
         transform="scale(1.05082.95163)"
         font-size="45.38"
         y="162.28"
         x="387.65"
         font-family="'Gentium Book Basic'"
         line-height="125%"
         word-spacing="0"
         letter-spacing="0"
         id="text386">
        <tspan
           y="162.28"
           x="387.65"
           id="tspan388" />
      </text>
      <text
         transform="scale(4.21679.23715)"
         font-size="16.488"
         y="528.59"
         x="165.81"
         font-family="Arial"
         text-anchor="middle"
         id="text390" />
      <text
         font-size="132.57"
         y="256.28"
         x="-614.98"
         font-family="'Gentium Book Basic'"
         line-height="125%"
         word-spacing="0"
         letter-spacing="0"
         id="text392">
        <tspan
           y="256.28"
           x="-614.98"
           id="tspan394" />
      </text>
      <text
         transform="scale(4.0128.2492)"
         font-size="48.17"
         y="670.22"
         x="48.929"
         font-family="Arial"
         text-anchor="middle"
         id="text396" />
    </g>
    <g
       font-family="'Gentium Book Basic'"
       line-height="125%"
       word-spacing="0"
       letter-spacing="0"
       id="g398">
      <g
         font-size="208.33"
         id="g400">
        <text
           y="236.4"
           x="-352.73"
           id="text402">
          <tspan
             y="236.4"
             x="-352.73"
             id="tspan404" />
        </text>
        <text
           y="78.57"
           x="-645.81"
           id="text406">
          <tspan
             y="78.57"
             x="-645.81"
             id="tspan408" />
        </text>
      </g>
      <text
         y="181.15"
         x="89.53"
         font-size="84.77"
         transform="scale(1.05082.95163)"
         fill="#654641"
         id="text410">
        <tspan
           y="181.15"
           x="89.53"
           id="tspan412" />
      </text>
    </g>
    <g
       fill="#654641"
       id="g414">
      <text
         transform="scale(4.21679.23715)"
         font-size="30.8"
         y="497.89"
         x="151.59"
         font-family="Arial"
         text-anchor="middle"
         id="text416" />
      <text
         transform="scale(1.05082.95163)"
         font-size="45.38"
         y="157.65"
         x="357.34"
         font-family="'Gentium Book Basic'"
         line-height="125%"
         word-spacing="0"
         letter-spacing="0"
         id="text418">
        <tspan
           y="157.65"
           x="357.34"
           id="tspan420" />
      </text>
      <text
         transform="scale(4.21679.23715)"
         font-size="16.488"
         y="510.03"
         x="158.26"
         font-family="Arial"
         text-anchor="middle"
         id="text422" />
      <text
         font-size="132.57"
         y="251.88"
         x="-646.83"
         font-family="'Gentium Book Basic'"
         line-height="125%"
         word-spacing="0"
         letter-spacing="0"
         id="text424">
        <tspan
           y="251.88"
           x="-646.83"
           id="tspan426" />
      </text>
      <text
         transform="scale(4.0128.2492)"
         font-size="48.17"
         y="652.56"
         x="40.993"
         font-family="Arial"
         text-anchor="middle"
         id="text428" />
    </g>
  </g>
  <text
     font-size="129.23"
     y="731.85"
     x="903.37"
     font-family="'Gentium Book Basic'"
     line-height="125%"
     word-spacing="0"
     letter-spacing="0"
     id="text430">
    <tspan
       y="731.85"
       x="903.37"
       id="tspan432" />
  </text>
  <text
     transform="scale(4.0128.2492)"
     font-size="46.954"
     y="2587.64"
     x="422.2"
     font-family="Arial"
     text-anchor="middle"
     id="text434" />
  <text
     font-size="129.23"
     y="651.85"
     x="1484.64"
     font-family="'Gentium Book Basic'"
     line-height="125%"
     word-spacing="0"
     letter-spacing="0"
     id="text436">
    <tspan
       y="651.85"
       x="1484.64"
       id="tspan438" />
  </text>
  <text
     transform="scale(4.0128.2492)"
     font-size="46.954"
     y="2266.61"
     x="567.05"
     font-family="Arial"
     text-anchor="middle"
     id="text440" />
  <text
     font-size="129.23"
     y="470.59"
     x="413.06"
     font-family="'Gentium Book Basic'"
     line-height="125%"
     word-spacing="0"
     letter-spacing="0"
     id="text442">
    <tspan
       y="470.59"
       x="413.06"
       id="tspan444" />
  </text>
  <text
     transform="scale(4.0128.2492)"
     font-size="46.954"
     y="1539.26"
     x="300.01"
     font-family="Arial"
     text-anchor="middle"
     id="text446" />
  <text
     font-size="129.23"
     y="254.12"
     x="1511.11"
     font-family="'Gentium Book Basic'"
     line-height="125%"
     word-spacing="0"
     letter-spacing="0"
     id="text448">
    <tspan
       y="254.12"
       x="1511.11"
       id="tspan450" />
  </text>
  <text
     transform="scale(4.0128.2492)"
     font-size="46.954"
     y="670.59"
     x="573.65"
     font-family="Arial"
     text-anchor="middle"
     id="text452" />
  <text
     font-size="129.23"
     y="174.11"
     x="2092.38"
     font-family="'Gentium Book Basic'"
     line-height="125%"
     word-spacing="0"
     letter-spacing="0"
     id="text454">
    <tspan
       y="174.11"
       x="2092.38"
       id="tspan456" />
  </text>
  <text
     transform="scale(4.0128.2492)"
     font-size="46.954"
     y="349.55"
     x="718.5"
     font-family="Arial"
     text-anchor="middle"
     id="text458" />
  <text
     font-size="129.23"
     y="-298.29"
     x="1703.26"
     font-family="'Gentium Book Basic'"
     line-height="125%"
     word-spacing="0"
     letter-spacing="0"
     id="text460">
    <tspan
       y="-298.29"
       x="1703.26"
       id="tspan462" />
  </text>
  <text
     transform="scale(4.0128.2492)"
     font-size="46.954"
     y="-1546.1"
     x="621.53"
     font-family="Arial"
     text-anchor="middle"
     id="text464" />
  <text
     font-size="129.23"
     y="-378.29"
     x="2284.52"
     font-family="'Gentium Book Basic'"
     line-height="125%"
     word-spacing="0"
     letter-spacing="0"
     id="text466">
    <tspan
       y="-378.29"
       x="2284.52"
       id="tspan468" />
  </text>
  <text
     transform="scale(4.0128.2492)"
     font-size="46.954"
     y="-1867.13"
     x="766.38"
     font-family="Arial"
     text-anchor="middle"
     id="text470" />
  <text
     font-size="208.33"
     y="1036.43"
     x="451.72"
     font-family="'Gentium Book Basic'"
     line-height="125%"
     word-spacing="0"
     letter-spacing="0"
     id="text472">
    <tspan
       y="1036.43"
       x="451.72"
       id="tspan474" />
  </text>
  <path
     style="fill:#E3E3E3;fill-rule:evenodd"
     inkscape:connector-curvature="0"
     id="path480"
     d="m 189.02,97.28 c -18.13,0 -32.76,14.63 -32.76,32.76 l 0,141.83 c 0,18.13 14.63,32.633 32.76,32.633 l 1.524,0 0,72.38 c 0,20.959 16.879,37.839 37.839,37.839 l 55.23,0 c 20.959,0 37.839,-16.879 37.839,-37.839 l 0,-72.38 1.524,0 c 18.13,0 32.76,-14.503 32.76,-32.633 l 0,-141.83 c 0,-18.13 -14.63,-32.76 -32.76,-32.76 l -133.96,0 m 66.916,27.554 c 45.34,0 82.15,36.816 82.15,82.15 0,45.34 -36.816,82.03 -82.15,82.03 -45.34,0 -82.03,-36.689 -82.03,-82.03 0,-45.34 36.689,-82.15 82.03,-82.15 m 43.17,29.712 -25.395,5.079 c -13.974,2.773 -26.544,5.186 -27.935,5.46 l -2.54,0.508 -0.127,19.554 0,19.554 1.143,0 c 0.605,0 13.163,-0.215 27.935,-0.381 14.772,-0.164 26.904,-0.237 26.919,-0.254 0.016,0 0.008,-11.163 0,-24.76 l 0,-24.76 m -60.948,12.06 c -0.129,0.032 -7.911,1.55 -17.396,3.428 l -17.269,3.428 0,31.617 1.905,0 c 1.049,-0.002 8.358,-0.032 16.253,-0.127 7.894,-0.092 14.946,-0.251 15.618,-0.254 l 1.143,0 0,-38.1 -0.254,0 m -34.664,42.28 0,31.617 0.127,0 c 0.151,0.037 34.462,6.824 34.664,6.857 0.028,0.008 0.097,-8.574 0.127,-19.05 0.029,-10.472 0.008,-19.04 0,-19.05 -0.02,0 -33.23,-0.385 -34.28,-0.381 l -0.635,0 m 39.617,0.508 0,19.427 c 0,10.723 -0.016,19.553 0,19.554 0.012,0 12.537,2.426 27.808,5.46 15.27,3.034 27.86,5.582 27.935,5.587 0.122,0.003 0.202,-1.314 0.254,-13.332 0.033,-7.29 0,-18.325 0,-24.633 l 0,-11.555 -0.254,0 c -0.153,0 -12.205,-0.09 -26.792,-0.254 -14.587,-0.164 -27.03,-0.254 -27.681,-0.254 l -1.27,0 m -28.823,125.2 30.855,0 0,32.25 -30.855,0 0,-32.25 m 52.57,0 30.855,0 0,32.25 -30.855,0 0,-32.25" />
</svg>
