<svg xmlns="http://www.w3.org/2000/svg" width="48" height="48">
<defs>
<defs
     id="defs2385">
  </defs>
  <path
     id="path-main"
   d="m 23.942192,2.0549919 c -12.098918,0 -21.9052733,9.8200021 -21.9052733,21.9357411 0,12.115738 9.8063553,21.935739 21.9052733,21.93574 12.098918,0 21.905277,-9.820002 21.905275,-21.93574 0,-12.115739 -9.806357,-21.9357411 -21.905275,-21.9357411 z m -0.0914,3.1684959 c 10.249005,-1e-6 18.553981,8.3261522 18.553981,18.6149132 0,10.288762 -8.304977,18.64538 -18.553981,18.64538 -10.249004,2e-6 -18.5844458,-8.356619 -18.5844458,-18.64538 0,-10.288761 8.3354418,-18.6149132 18.5844458,-18.6149132 z m 0,1.2186522 c -4.795075,0 -9.135241,1.9427725 -12.277921,5.087873 l 5.544868,0 -0.243731,2.345906 3.13803,14.227765 3.808288,-15.050355 4.021553,15.50735 2.589636,-14.715226 -0.396062,-2.284973 6.093261,-0.03047 C 32.993652,8.3852128 28.645869,6.442139 23.850793,6.44214 z m 18.614914,0.2132642 -3.198963,0.030466 c 1.167598,1.0371559 2.229795,2.191164 3.168496,3.4426925 l 0.03047,-3.4731588 z M 5.4186787,6.6858705 5.3882124,10.219962 C 6.3431826,8.9339641 7.422322,7.747651 8.6176409,6.6858705 l -3.1989622,0 z m 5.9104623,5.0878735 c -3.0001194,3.123879 -4.8441416,7.373694 -4.8441416,12.064657 0,9.631722 7.7780556,17.426729 17.3657936,17.426727 9.58774,0 17.335329,-7.792603 17.335329,-17.426727 0,-4.626607 -1.803318,-8.801506 -4.722278,-11.912326 l -1.188186,2.437305 -3.473159,20.046829 0.944456,2.498237 -0.03047,0 -7.586111,-0.03047 0.670259,-2.193574 -1.858445,-5.879997 -1.523315,5.819065 0.456995,2.254506 -6.733054,0 0.456994,-2.345905 -4.630878,-20.656156 -0.639793,-2.102175 z m 32.111487,24.616775 c -1.031484,1.622273 -2.235471,3.102529 -3.62549,4.417615 l 3.655957,0 -0.03047,-4.417615 z m -38.9968711,0.03047 0,4.356681 3.5950242,0 C 6.6676073,39.475651 5.4647371,38.022859 4.4437569,36.420986 z"
/>
</defs>

<use id="1" style="fill:#E3E3E3" xlink:href="#path-main" />



</svg>
