<svg xmlns="http://www.w3.org/2000/svg" width="48" height="48">
<defs>
<defs
     id="defs2162">
  </defs>
  <path
     id="path-main"
   d="M 13.950265,2.2702797 C 12.121268,2.2727849 11.691681,5.0473896 12.071884,7.6123666 11.543378,7.7939542 11.05369,8.3512023 10.893292,9.0348157 8.5595041,18.981423 4.9401086,29.180911 2.60632,39.127519 c -0.4178073,1.780694 -0.016792,3.106207 0.036831,5.089207 0.023086,0.853651 0.4438118,1.517279 1.4364086,1.517279 l 40.0721164,0 c 0.992597,0 1.587385,-0.672608 1.583733,-1.517279 -0.0087,-2.029361 0.229758,-3.635148 -0.07366,-5.563356 C 44.11977,28.854275 41.752738,18.83391 40.210761,9.0348157 40.079038,8.197738 39.426802,7.5491467 38.774352,7.5491467 l -1.289085,0 C 37.335582,6.64934 36.489992,2.2665373 33.765337,2.2702797 c -1.814112,0.00249 -2.216536,2.7313886 -1.841549,5.278867 l -4.861691,0 C 26.912411,6.64934 26.066821,2.2665373 23.342166,2.2702797 c -1.814111,0.00249 -2.216535,2.7313886 -1.841549,5.278867 l -3.867254,0 C 17.488871,6.6459037 16.673466,2.2665392 13.950265,2.2702797 z m 0.368309,2.3707486 c 0.769637,0 1.278023,1.8381216 1.510071,2.9081184 l -1.841549,0 C 13.677813,6.113021 13.738109,4.6410283 14.318574,4.6410283 z m 9.428734,0 c 0.769637,0 1.278022,1.8381216 1.51007,2.9081184 l -1.87838,0 C 23.080478,6.113021 23.166843,4.6410283 23.747308,4.6410283 z m 10.42317,0 c 0.769391,0 1.251834,1.8379562 1.47324,2.9081184 l -1.84155,0 C 33.503648,6.113021 33.590014,4.6410283 34.170478,4.6410283 z M 12.403363,5.5261078 c 0.499424,1.4350279 0.578316,2.6581738 1.399577,2.6552385 0.248801,0.8867963 0.601486,1.359491 0.883944,1.6753288 1.178625,1.3179109 -0.666738,2.0840619 -1.399578,0.9799109 C 12.67254,9.9103299 12.412359,7.2634062 12.403363,5.5261078 z m 9.428733,0 c 0.499424,1.4350279 0.578316,2.6581738 1.399578,2.6552385 0.248801,0.8867963 0.601486,1.359491 0.883944,1.6753288 1.178624,1.3179109 -0.70357,2.0840619 -1.436409,0.9799109 C 22.064443,9.9103299 21.841093,7.2634062 21.832096,5.5261078 z m 10.423171,0 c 0.499424,1.4350279 0.578315,2.6581738 1.399578,2.6552385 0.2488,0.8867963 0.601485,1.359491 0.883943,1.6753288 1.178625,1.3179109 -0.70357,2.0840619 -1.436408,0.9799109 C 32.487613,9.9103299 32.264262,7.2634062 32.255267,5.5261078 z m -18.19451,9.7674852 10.239016,0 -0.07366,1.580499 c -0.73952,0.05268 -1.46752,0.105366 -2.20986,0.158049 -0.111707,0.147513 -0.218698,0.295027 -0.331478,0.442541 1.254127,2.044111 2.587842,4.088223 4.051408,6.132336 1.792049,-2.012503 3.487935,-4.025005 5.045846,-6.037506 -0.1237,-0.158051 -0.245969,-0.3161 -0.36831,-0.47415 -0.676724,-0.07376 -1.352588,-0.147514 -2.025705,-0.22127 l 0,-1.580499 8.102819,0 0.147323,1.580499 c -0.755741,0.08429 -1.486267,0.168586 -2.24669,0.252879 -2.090684,2.781679 -4.408842,5.563358 -6.961057,8.345035 2.56422,3.319048 5.412327,6.638097 8.54479,9.957145 1.024025,0.136976 2.024708,0.273953 3.056971,0.41093 l 0.184156,1.580499 -13.36965,0 0.03683,-1.580499 c 0.952949,-0.08429 1.924604,-0.168587 2.872817,-0.25288 0.09998,-0.147514 0.195543,-0.295027 0.294648,-0.442539 -1.846211,-2.191627 -3.585999,-4.383253 -5.19317,-6.574877 -2.099365,2.170551 -4.328392,4.341104 -6.703239,6.511656 0.06758,0.18966 0.115572,0.37932 0.184154,0.56898 0.975642,0.06322 1.96716,0.12644 2.94648,0.18966 l -0.110494,1.580499 -10.6441552,0 0.294648,-1.580499 c 0.9813462,-0.105367 1.9342922,-0.210734 2.9096472,-0.3161 3.399583,-2.939728 6.542171,-5.879457 9.428734,-8.819185 C 19.8734,23.543798 17.862618,20.3828 16.086463,17.221801 15.318117,17.105897 14.564698,16.989995 13.802941,16.874092 l 0.257817,-1.580499 z m -8.1764788,25.193155 36.7204968,0 c 0.476379,0 0.893756,0.359812 0.957605,0.82186 0.08737,0.632199 -0.04317,1.264399 -0.07366,1.896599 -0.02242,0.464886 -0.318019,0.821859 -0.810282,0.821859 l -37.0519758,0 c -0.4922615,0 -0.7147819,-0.35213 -0.6997887,-0.821859 0.018563,-0.581625 -0.1732562,-1.2644 -0.036833,-1.896599 0.099707,-0.462048 0.5180585,-0.82186 0.9944367,-0.82186 z"
/>
</defs>

<use id="1" style="fill:#E3E3E3" xlink:href="#path-main" />



</svg>
