<?xml version="1.0" encoding="UTF-8" standalone="no"?>
<svg
   xmlns:dc="http://purl.org/dc/elements/1.1/"
   xmlns:cc="http://creativecommons.org/ns#"
   xmlns:rdf="http://www.w3.org/1999/02/22-rdf-syntax-ns#"
   xmlns:svg="http://www.w3.org/2000/svg"
   xmlns="http://www.w3.org/2000/svg"
   xmlns:sodipodi="http://sodipodi.sourceforge.net/DTD/sodipodi-0.dtd"
   xmlns:inkscape="http://www.inkscape.org/namespaces/inkscape"
   viewBox="0 0 512 512"
   id="svg2"
   version="1.1"
   inkscape:version="0.91 r"
   sodipodi:docname="application-xhtml.svg">
  <metadata
     id="metadata34">
    <rdf:RDF>
      <cc:Work
         rdf:about="">
        <dc:format>image/svg+xml</dc:format>
        <dc:type
           rdf:resource="http://purl.org/dc/dcmitype/StillImage" />
      </cc:Work>
    </rdf:RDF>
  </metadata>
  <defs
     id="defs32" />
  <sodipodi:namedview
     pagecolor="#ffffff"
     bordercolor="#666666"
     borderopacity="1"
     objecttolerance="10"
     gridtolerance="10"
     guidetolerance="10"
     inkscape:pageopacity="0"
     inkscape:pageshadow="2"
     inkscape:window-width="1680"
     inkscape:window-height="998"
     id="namedview30"
     showgrid="false"
     inkscape:zoom="0.4609375"
     inkscape:cx="256"
     inkscape:cy="256"
     inkscape:window-x="0"
     inkscape:window-y="0"
     inkscape:window-maximized="1"
     inkscape:current-layer="svg2" />
  <path
     d="m 72.199649,10.5 c -3.881,0 -7,3.119 -7,7 l 0,477 c 0,3.881 3.119,7 7,7 l 363.250001,0 c 3.881,0 7,-3.119 7,-7 l 0,-344.7207 -139.25,-139.2793 -231.000001,0 z m 190.863281,173.75 23.75977,0 -40.82031,197.73633 -23.5586,0 L 263.06293,184.25 Z m -51.19922,27.37695 0,38.17969 -76.96679,34.1543 76.39843,36.16992 0,37.18164 L 99.855898,301.375 c -1.14896,-1.00446 0,-32.81836 0,-32.81836 L 211.86371,211.62695 Z m 83.9375,0 112.00782,56.92969 c 0,0 1.14896,31.8139 0,32.81836 l -111.44141,55.9375 0,-37.18164 76.40039,-36.16992 -76.9668,-34.1543 0,-38.17969 z"
     id="path12"
     inkscape:connector-curvature="0"
     style="fill:#E3E3E3;fill-opacity:1" />
</svg>
