<?xml version="1.0" encoding="UTF-8" standalone="no"?>
<svg
   xmlns:dc="http://purl.org/dc/elements/1.1/"
   xmlns:cc="http://creativecommons.org/ns#"
   xmlns:rdf="http://www.w3.org/1999/02/22-rdf-syntax-ns#"
   xmlns:svg="http://www.w3.org/2000/svg"
   xmlns="http://www.w3.org/2000/svg"
   xmlns:sodipodi="http://sodipodi.sourceforge.net/DTD/sodipodi-0.dtd"
   xmlns:inkscape="http://www.inkscape.org/namespaces/inkscape"
   viewBox="0 0 512 512"
   id="svg2"
   version="1.1"
   inkscape:version="0.91 r"
   sodipodi:docname="packages-gdebi.svg">
  <metadata
     id="metadata28">
    <rdf:RDF>
      <cc:Work
         rdf:about="">
        <dc:format>image/svg+xml</dc:format>
        <dc:type
           rdf:resource="http://purl.org/dc/dcmitype/StillImage" />
      </cc:Work>
    </rdf:RDF>
  </metadata>
  <defs
     id="defs26" />
  <sodipodi:namedview
     pagecolor="#ffffff"
     bordercolor="#666666"
     borderopacity="1"
     objecttolerance="10"
     gridtolerance="10"
     guidetolerance="10"
     inkscape:pageopacity="0"
     inkscape:pageshadow="2"
     inkscape:window-width="1680"
     inkscape:window-height="998"
     id="namedview24"
     showgrid="false"
     inkscape:zoom="0.4609375"
     inkscape:cx="256"
     inkscape:cy="256"
     inkscape:window-x="0"
     inkscape:window-y="0"
     inkscape:window-maximized="1"
     inkscape:current-layer="svg2" />
  <path
     style="fill:#E3E3E3;fill-opacity:1"
     d="M 93.880859 17.007812 C 62.823619 17.007812 37.820312 42.011119 37.820312 73.068359 L 37.820312 451.94922 C 37.820312 483.00646 62.823619 508.00781 93.880859 508.00781 L 426.80078 508.00781 C 457.85802 508.00781 482.85938 483.00646 482.85938 451.94922 L 482.85938 73.068359 C 482.85938 42.011119 457.85802 17.007812 426.80078 17.007812 L 93.880859 17.007812 z M 289.77539 113.31641 C 286.41639 114.09141 281.79453 113.53659 278.64453 114.68359 L 276.78906 114.38672 C 281.08506 113.84172 285.41639 113.66941 289.77539 113.31641 z M 270.73438 115.36133 L 270.73633 115.36719 C 270.73122 115.36749 270.72582 115.36883 270.7207 115.36914 C 268.49142 116.62143 266.27509 117.61323 264.18945 119.07617 C 272.71045 117.06117 272.29537 119.9283 280.98438 118.7793 C 277.93437 119.2163 274.24703 120.38708 274.83203 120.83008 C 284.56003 121.95708 286.04797 117.84008 295.04297 120.83008 L 294.45703 118.19531 C 306.96503 122.70931 309.57806 121.92886 323.16406 129.13086 C 327.93506 129.35886 328.36741 126.19986 335.56641 129.13086 C 336.83841 131.35286 335.3092 131.78006 344.1582 137.03906 C 345.1452 136.63506 342.41291 134.14325 340.25391 132.15625 C 358.04691 141.66625 377.3238 161.92919 383.2168 183.61719 C 377.7018 173.43719 382.68139 188.79377 380.77539 188.00977 C 383.24039 194.64577 385.29116 201.53628 386.53516 208.61328 C 384.90116 202.80028 381.34833 188.75898 375.11133 179.70898 C 374.59833 185.54298 367.09308 175.64405 371.20508 188.49805 C 374.34208 193.03705 371.82627 183.92167 375.69727 192.01367 C 375.75627 195.85767 377.20202 199.69703 378.04102 204.70703 C 376.71302 204.48503 375.09877 199.12847 374.13477 200.60547 C 375.47577 206.91747 377.6983 210.19802 378.5293 210.66602 C 378.1013 211.71602 376.94414 209.70233 376.86914 213.98633 C 377.38114 223.83533 379.61373 219.66872 380.67773 220.13672 C 379.59073 224.98972 375.31808 230.73508 377.45508 239.08008 C 376.83308 236.55508 375.6237 233.9535 374.7207 231.5625 C 374.3949 234.33355 374.5405 236.22181 374.66406 238.01953 C 374.69403 238.28211 374.71453 238.56709 374.7207 238.88477 C 374.70413 238.59851 374.68386 238.30754 374.66406 238.01953 C 374.47563 236.3686 373.82982 235.86331 372.86523 237.32227 C 373.85223 248.40427 364.10234 256.87086 365.15234 263.88086 L 362.32031 259.97656 C 355.01231 270.58956 361.3495 266.63587 357.4375 273.54688 C 358.1925 271.64387 356.23702 272.72527 358.41602 269.44727 C 356.75702 269.54827 351.06931 276.49113 345.82031 280.57812 C 325.17031 297.11512 300.53945 299.33845 276.68945 290.43945 C 275.76445 291.19645 280.88122 295.21178 284.69922 297.17578 C 293.79122 300.51778 304.15438 300.68344 312.23438 300.39844 C 294.74637 307.70844 261.33873 292.90361 250.42773 273.34961 C 252.89373 273.88761 261.37498 287.12862 267.70898 289.26562 C 263.96198 286.26362 261.01994 282.44244 258.33594 278.52344 C 263.38794 284.34744 269.59073 289.05731 276.30273 292.19531 C 275.87773 290.56231 278.11055 290.2308 274.93555 288.0918 C 254.71655 272.5988 242.76506 259.51444 246.91406 229.02344 C 249.98906 226.69344 250.79156 213.93414 257.85156 209.49414 C 262.17256 199.96214 275.09639 191.16136 288.90039 190.94336 C 303.00139 190.17336 314.96364 198.44944 320.93164 206.27344 C 310.06264 196.13144 292.17719 193.10237 276.99219 200.60938 C 261.45619 207.60938 252.3093 224.68875 253.6543 241.71875 C 254.2283 240.87575 254.75248 241.3783 255.02148 239.2793 C 254.55148 272.3993 290.71242 296.73223 316.73242 284.49023 L 317.02344 285.17383 C 327.56744 282.28983 326.23681 279.85123 333.13281 275.11523 C 332.59481 276.21223 328.44372 279.01023 330.88672 279.11523 C 334.24272 278.21323 344.77573 268.46081 349.92773 263.88281 C 352.28173 258.78081 348.68152 261.11308 351.97852 254.70508 L 355.97852 252.75195 C 358.20452 246.33395 360.59909 242.67644 360.37109 235.27344 L 358.125 240.05859 C 361.581 229.55959 359.60512 218.19822 360.07812 208.32422 L 359.19922 208.02734 C 358.34322 183.17334 336.81117 156.71334 317.70117 147.77734 C 303.28317 141.13534 282.10383 139.30988 269.17383 142.79688 C 270.29683 142.42488 271.042 141.97034 270.25 141.52734 C 251.893 143.34634 255.99359 147.89633 241.93359 151.48633 C 238.07859 155.19533 253.18859 148.5198 245.05859 153.3418 C 237.51559 155.4298 233.97688 152.03575 222.79688 163.59375 C 223.79688 165.14875 229.9357 158.87186 224.8457 165.25586 C 214.3387 163.96086 191.57462 189.27587 186.76562 197.67188 L 189.30469 198.05859 C 185.17969 208.43259 179.78673 215.09883 179.05273 221.29883 C 177.97973 236.55883 172.6303 264.31637 180.0293 272.85938 L 179.34766 279.98633 C 180.36766 282.00633 181.11795 284.13016 182.37695 286.03516 L 180.7168 286.14258 C 188.5038 310.70958 189.09019 286.61828 199.36719 312.11328 C 197.88019 311.61628 196.35041 311.04028 194.19141 308.11328 C 193.93541 310.34728 197.35597 317.03448 201.41797 322.27148 L 199.66016 324.32227 C 201.91616 328.43327 204.05519 329.34058 205.61719 330.76758 C 197.15919 326.15658 213.43058 345.92545 214.89258 348.43945 L 216.25977 346.19336 C 216.07577 349.52536 218.56767 353.81258 223.38867 359.76758 L 227.48828 359.57422 C 229.15128 362.85422 235.14141 368.76187 238.81641 369.04688 L 236.375 372.26953 C 245.602 375.18653 240.85436 376.17773 252.19336 380.17773 L 249.94727 376.07617 C 255.73027 381.09117 257.51102 385.51047 265.66602 389.35547 C 276.99702 393.31147 278.45812 391.70153 290.07812 395.01953 C 280.22412 394.75053 268.65591 394.87384 260.87891 392.08984 C 207.75891 377.70984 159.21105 315.37945 162.74805 251.18945 C 161.94205 238.19145 164.02919 221.99248 161.86719 218.77148 C 164.89419 208.88448 168.36945 196.79217 175.43945 182.45117 C 174.92445 181.48817 176.63461 185.25786 180.22461 179.13086 C 182.39561 174.34386 184.21694 169.03572 186.96094 164.38672 L 188.32812 164.08984 C 189.72612 155.86784 207.54894 143.28417 212.83594 136.95117 L 213.12695 139.39062 C 224.66295 128.56562 245.20344 121.31239 256.77344 116.15039 C 253.73863 119.51396 263.62877 115.7946 270.7207 115.36914 C 270.72537 115.36652 270.72971 115.36395 270.73438 115.36133 z M 277.76562 116.92578 C 286.07242 117.16566 285.37093 117.69035 282.65234 118.29297 L 282.55078 118.48828 L 280.98828 118.68164 L 282.64844 118.29297 C 283.06444 117.69997 280.25563 117.35678 277.76562 116.92578 z M 268.49023 142.99609 C 266.91823 143.45609 265.47036 144.0322 264.19336 144.6582 C 264.99936 143.9422 266.92723 143.46409 268.49023 142.99609 z M 167.82031 173.6582 C 167.77331 176.4412 172.49284 170.87302 169.08984 178.54102 C 162.77084 182.98102 168.54331 180.3812 167.82031 173.6582 z M 162.64453 195.04297 C 162.08153 197.64097 161.86044 200.32564 160.39844 204.80664 C 160.82344 201.29264 158.60453 200.20397 162.64453 195.04297 z M 329.02539 226.19336 C 329.59539 226.17636 329.98998 227.65647 329.70898 231.85547 C 328.86798 235.23647 328.21723 229.77341 327.36523 229.31641 C 327.73623 227.71841 328.45139 226.19336 329.02539 226.19336 z M 374.72656 238.88672 C 374.87856 241.40872 374.77775 244.00505 372.96875 248.74805 C 374.15875 244.85505 374.79256 241.19472 374.72656 238.88672 z M 380.0957 240.35352 C 378.84842 249.93222 375.89603 259.44023 371.30664 268.08008 C 375.47164 259.88008 378.16616 251.03242 379.41016 242.10742 L 380.0957 240.35352 z M 326.00586 243.57227 C 325.29986 247.91927 323.31811 252.04195 320.53711 255.87695 C 320.87911 252.56595 312.72561 257.33939 322.09961 245.52539 C 321.28061 248.85639 313.37261 257.65802 322.09961 252.16602 C 323.68761 249.34802 325.38286 246.66027 326.00586 243.57227 z M 306.96484 261.53906 L 306.96484 261.54492 C 305.61184 262.83892 304.062 264.13517 302.375 265.45117 C 296.284 264.51317 290.78136 262.23586 295.44336 262.13086 C 299.33636 262.47286 303.18084 262.47306 306.96484 261.53906 z M 248.08789 262.23047 C 249.17499 264.37112 250.07521 266.48249 251.69922 268.27539 L 253.16406 272.47461 C 251.1991 269.17136 249.11148 266.01081 248.08789 262.23047 z M 244.47461 268.56836 C 248.32961 276.01236 250.45672 278.30678 253.26172 283.80078 C 249.34372 280.54178 246.85106 275.95302 243.78906 271.79102 L 244.47266 268.57031 L 244.47461 268.56836 z "
     id="rect12" />
</svg>
