<svg xmlns="http://www.w3.org/2000/svg" width="48" height="48">
<defs>
<defs
     id="defs1373">
  </defs>
  <g
     id="layer1"
     inkscape:label="Layer 1"
     inkscape:groupmode="layer">
    <path
         d="M 6.3093024,2.0060836 C 6.0971288,2.0755962 5.9576699,2.2784453 5.9687442,2.5014409 l 0,40.6192951 c 2.75e-5,0.273567 0.2217904,0.495329 0.4953573,0.495357 l 15.9752715,0 -0.247679,1.393192 -0.154799,0.959755 0.866875,-0.433437 3.74614,-1.91951 9.226029,0 3.746139,1.91951 L 40.519913,46 l -0.185759,-0.990715 -0.247679,-1.393192 1.083594,0 c 0.273567,-2.8e-5 0.49533,-0.22179 0.495358,-0.495357 l 0,-9.876185 3.869978,-3.68422 0.743036,-0.712076 -1.021674,-0.154799 -3.59134,-0.526317 0,-25.6656981 C 41.665399,2.227874 41.443636,2.006111 41.170069,2.0060836 l -34.7059675,0 c -0.051281,-0.00811 -0.1035182,-0.00811 -0.1547991,0 z m 0.6501564,0.9907145 33.7152532,0 0,25.0465009 -2.972143,-0.433437 0,-0.835916 -2.105269,0 -0.990714,-1.981429 3.095983,0 0,-0.990714 -3.591341,0 -1.021674,-1.981429 4.613015,0 0,-0.990715 -5.108372,0 -0.866875,-1.70279 -0.1548,-0.278639 6.130047,0 0,-0.990714 -22.786434,0 0,0.990714 16.099111,0 -0.1548,0.278639 -0.866875,1.70279 -15.077436,0 0,0.990715 14.582079,0 -1.021674,1.981429 -13.560405,0 0,0.990714 13.034088,0 -0.990715,1.981429 -12.043373,0 0,0.990715 8.854511,0 -6.439645,0.897835 -1.021674,0.154799 0.743036,0.712076 0.216719,0.216719 -2.352947,0 0,0.990715 3.405581,0 2.074308,1.981429 -5.479889,0 0,0.990714 6.532524,0 2.105268,1.981429 -8.637792,0 0,0.990715 8.761631,0 -1.052634,5.944287 -15.6656732,0 0,-39.6285809 z m 7.9566762,2.9721436 0,0.9907145 22.786434,0 0,-0.9907145 -22.786434,0 z m 0,2.9721435 0,0.9907148 22.786434,0 0,-0.9907148 -22.786434,0 z m 0,2.9721438 0,0.990714 22.786434,0 0,-0.990714 -22.786434,0 z m 0,2.972143 0,0.990715 22.786434,0 0,-0.990715 -22.786434,0 z m 16.377749,5.54181 3.839019,7.616117 0.123839,0.247679 0.247679,0.03096 8.606832,1.207433 -6.222926,5.882368 -0.185758,0.185759 0.03096,0.278638 1.455112,8.328194 -7.678037,-3.962858 -0.247679,-0.09288 -0.216719,0.09288 -7.678037,3.931898 1.455112,-8.328194 0.03096,-0.247678 -0.185759,-0.185759 -6.191966,-5.913328 8.575872,-1.207433 0.278639,-0.03096 0.09288,-0.216719 3.869979,-7.616117 z m 9.380828,13.746163 0,8.452034 -0.743036,0 -1.145513,-6.656363 1.888549,-1.795671 z m -9.411788,7.089801 2.662545,1.362233 -5.32509,0 2.662545,-1.362233 z"
       id="path-main" />
  </g>
</defs>

<use id="1" style="fill:#E3E3E3" xlink:href="#path-main" />



</svg>
