<?xml version="1.0" encoding="UTF-8" standalone="no"?>
<svg
   xmlns:dc="http://purl.org/dc/elements/1.1/"
   xmlns:cc="http://creativecommons.org/ns#"
   xmlns:rdf="http://www.w3.org/1999/02/22-rdf-syntax-ns#"
   xmlns:svg="http://www.w3.org/2000/svg"
   xmlns="http://www.w3.org/2000/svg"
   xmlns:sodipodi="http://sodipodi.sourceforge.net/DTD/sodipodi-0.dtd"
   xmlns:inkscape="http://www.inkscape.org/namespaces/inkscape"
   viewBox="0 0 512 512"
   id="svg2"
   version="1.1"
   inkscape:version="0.91 r"
   sodipodi:docname="text-x-microdvd.svg">
  <metadata
     id="metadata313">
    <rdf:RDF>
      <cc:Work
         rdf:about="">
        <dc:format>image/svg+xml</dc:format>
        <dc:type
           rdf:resource="http://purl.org/dc/dcmitype/StillImage" />
      </cc:Work>
    </rdf:RDF>
  </metadata>
  <defs
     id="defs311" />
  <sodipodi:namedview
     pagecolor="#ffffff"
     bordercolor="#666666"
     borderopacity="1"
     objecttolerance="10"
     gridtolerance="10"
     guidetolerance="10"
     inkscape:pageopacity="0"
     inkscape:pageshadow="2"
     inkscape:window-width="1920"
     inkscape:window-height="1028"
     id="namedview309"
     showgrid="false"
     inkscape:zoom="0.4609375"
     inkscape:cx="-59.661017"
     inkscape:cy="256"
     inkscape:window-x="0"
     inkscape:window-y="0"
     inkscape:window-maximized="1"
     inkscape:current-layer="svg2" />
  <text
     font-size="129.23"
     y="39.41"
     x="-210.55"
     font-family="Gentium Book Basic"
     line-height="125%"
     word-spacing="0"
     letter-spacing="0"
     id="text4">
    <tspan
       y="39.41"
       x="-210.55"
       id="tspan6" />
  </text>
  <text
     transform="scale(4.0128.2492)"
     font-size="46.954"
     y="-191"
     x="144.61"
     font-family="Arial"
     text-anchor="middle"
     id="text8" />
  <text
     font-size="129.23"
     y="-40.586"
     x="370.72"
     font-family="Gentium Book Basic"
     line-height="125%"
     word-spacing="0"
     letter-spacing="0"
     id="text10">
    <tspan
       y="-40.586"
       x="370.72"
       id="tspan12" />
  </text>
  <text
     transform="scale(4.0128.2492)"
     font-size="46.954"
     y="-512.03"
     x="289.46"
     font-family="Arial"
     text-anchor="middle"
     id="text14" />
  <text
     font-size="129.23"
     y="-221.85"
     x="-700.86"
     font-family="Gentium Book Basic"
     line-height="125%"
     word-spacing="0"
     letter-spacing="0"
     id="text16">
    <tspan
       y="-221.85"
       x="-700.86"
       id="tspan18" />
  </text>
  <text
     transform="scale(4.0128.2492)"
     font-size="46.954"
     y="-1239.38"
     x="22.422"
     font-family="Arial"
     text-anchor="middle"
     id="text20" />
  <text
     font-size="129.23"
     y="-438.32"
     x="397.19"
     font-family="Gentium Book Basic"
     line-height="125%"
     word-spacing="0"
     letter-spacing="0"
     id="text22">
    <tspan
       y="-438.32"
       x="397.19"
       id="tspan24" />
  </text>
  <text
     transform="scale(4.0128.2492)"
     font-size="46.954"
     y="-2108.05"
     x="296.06"
     font-family="Arial"
     text-anchor="middle"
     id="text26" />
  <text
     font-size="129.23"
     y="-518.33"
     x="978.46"
     font-family="Gentium Book Basic"
     line-height="125%"
     word-spacing="0"
     letter-spacing="0"
     id="text28">
    <tspan
       y="-518.33"
       x="978.46"
       id="tspan30" />
  </text>
  <text
     transform="scale(4.0128.2492)"
     font-size="46.954"
     y="-2429.09"
     x="440.91"
     font-family="Arial"
     text-anchor="middle"
     id="text32" />
  <text
     font-size="129.23"
     y="-990.73"
     x="589.34"
     font-family="Gentium Book Basic"
     line-height="125%"
     word-spacing="0"
     letter-spacing="0"
     id="text34">
    <tspan
       y="-990.73"
       x="589.34"
       id="tspan36" />
  </text>
  <text
     transform="scale(4.0128.2492)"
     font-size="46.954"
     y="-4324.74"
     x="343.94"
     font-family="Arial"
     text-anchor="middle"
     id="text38" />
  <text
     font-size="129.23"
     y="-1070.73"
     x="1170.6"
     font-family="Gentium Book Basic"
     line-height="125%"
     word-spacing="0"
     letter-spacing="0"
     id="text40">
    <tspan
       y="-1070.73"
       x="1170.6"
       id="tspan42" />
  </text>
  <text
     transform="scale(4.0128.2492)"
     font-size="46.954"
     y="-4645.77"
     x="488.79"
     font-family="Arial"
     text-anchor="middle"
     id="text44" />
  <g
     font-family="Gentium Book Basic"
     line-height="125%"
     word-spacing="0"
     letter-spacing="0"
     id="g46">
    <text
       y="343.99"
       x="-662.2"
       font-size="208.33"
       id="text48">
      <tspan
         y="343.99"
         x="-662.2"
         id="tspan50" />
    </text>
    <text
       y="209.67"
       x="91.81"
       font-size="129.23"
       id="text52">
      <tspan
         y="209.67"
         x="91.81"
         id="tspan54" />
    </text>
  </g>
  <text
     transform="scale(4.0128.2492)"
     font-size="46.954"
     y="492.19"
     x="219.96"
     font-family="Arial"
     text-anchor="middle"
     id="text56" />
  <text
     font-size="129.23"
     y="129.67"
     x="673.08"
     font-family="Gentium Book Basic"
     line-height="125%"
     word-spacing="0"
     letter-spacing="0"
     id="text58">
    <tspan
       y="129.67"
       x="673.08"
       id="tspan60" />
  </text>
  <text
     transform="scale(4.0128.2492)"
     font-size="46.954"
     y="171.16"
     x="364.81"
     font-family="Arial"
     text-anchor="middle"
     id="text62" />
  <text
     font-size="129.23"
     y="-51.596"
     x="-398.5"
     font-family="Gentium Book Basic"
     line-height="125%"
     word-spacing="0"
     letter-spacing="0"
     id="text64">
    <tspan
       y="-51.596"
       x="-398.5"
       id="tspan66" />
  </text>
  <text
     transform="scale(4.0128.2492)"
     font-size="46.954"
     y="-556.2"
     x="97.77"
     font-family="Arial"
     text-anchor="middle"
     id="text68" />
  <text
     font-size="129.23"
     y="-268.06"
     x="699.55"
     font-family="Gentium Book Basic"
     line-height="125%"
     word-spacing="0"
     letter-spacing="0"
     id="text70">
    <tspan
       y="-268.06"
       x="699.55"
       id="tspan72" />
  </text>
  <text
     transform="scale(4.0128.2492)"
     font-size="46.954"
     y="-1424.86"
     x="371.41"
     font-family="Arial"
     text-anchor="middle"
     id="text74" />
  <text
     font-size="129.23"
     y="-348.07"
     x="1280.82"
     font-family="Gentium Book Basic"
     line-height="125%"
     word-spacing="0"
     letter-spacing="0"
     id="text76">
    <tspan
       y="-348.07"
       x="1280.82"
       id="tspan78" />
  </text>
  <text
     transform="scale(4.0128.2492)"
     font-size="46.954"
     y="-1745.9"
     x="516.26"
     font-family="Arial"
     text-anchor="middle"
     id="text80" />
  <text
     font-size="129.23"
     y="-820.47"
     x="891.7"
     font-family="Gentium Book Basic"
     line-height="125%"
     word-spacing="0"
     letter-spacing="0"
     id="text82">
    <tspan
       y="-820.47"
       x="891.7"
       id="tspan84" />
  </text>
  <text
     transform="scale(4.0128.2492)"
     font-size="46.954"
     y="-3641.55"
     x="419.29"
     font-family="Arial"
     text-anchor="middle"
     id="text86" />
  <text
     font-size="129.23"
     y="-900.47"
     x="1472.96"
     font-family="Gentium Book Basic"
     line-height="125%"
     word-spacing="0"
     letter-spacing="0"
     id="text88">
    <tspan
       y="-900.47"
       x="1472.96"
       id="tspan90" />
  </text>
  <text
     transform="scale(4.0128.2492)"
     font-size="46.954"
     y="-3962.58"
     x="564.14"
     font-family="Arial"
     text-anchor="middle"
     id="text92" />
  <g
     font-family="Gentium Book Basic"
     line-height="125%"
     word-spacing="0"
     letter-spacing="0"
     id="g94">
    <text
       y="514.25"
       x="-359.84"
       font-size="208.33"
       id="text96">
      <tspan
         y="514.25"
         x="-359.84"
         id="tspan98" />
    </text>
    <text
       y="179.29"
       x="78.79"
       font-size="129.23"
       id="text100">
      <tspan
         y="179.29"
         x="78.79"
         id="tspan102" />
    </text>
  </g>
  <text
     transform="scale(4.0128.2492)"
     font-size="46.954"
     y="370.31"
     x="216.72"
     font-family="Arial"
     text-anchor="middle"
     id="text104" />
  <text
     font-size="129.23"
     y="99.29"
     x="660.06"
     font-family="Gentium Book Basic"
     line-height="125%"
     word-spacing="0"
     letter-spacing="0"
     id="text106">
    <tspan
       y="99.29"
       x="660.06"
       id="tspan108" />
  </text>
  <text
     transform="scale(4.0128.2492)"
     font-size="46.954"
     y="49.28"
     x="361.57"
     font-family="Arial"
     text-anchor="middle"
     id="text110" />
  <text
     font-size="129.23"
     y="-81.969"
     x="-411.52"
     font-family="Gentium Book Basic"
     line-height="125%"
     word-spacing="0"
     letter-spacing="0"
     id="text112">
    <tspan
       y="-81.969"
       x="-411.52"
       id="tspan114" />
  </text>
  <text
     transform="scale(4.0128.2492)"
     font-size="46.954"
     y="-678.08"
     x="94.53"
     font-family="Arial"
     text-anchor="middle"
     id="text116" />
  <text
     font-size="129.23"
     y="-298.44"
     x="686.53"
     font-family="Gentium Book Basic"
     line-height="125%"
     word-spacing="0"
     letter-spacing="0"
     id="text118">
    <tspan
       y="-298.44"
       x="686.53"
       id="tspan120" />
  </text>
  <text
     transform="scale(4.0128.2492)"
     font-size="46.954"
     y="-1546.74"
     x="368.17"
     font-family="Arial"
     text-anchor="middle"
     id="text122" />
  <text
     font-size="129.23"
     y="-378.45"
     x="1267.8"
     font-family="Gentium Book Basic"
     line-height="125%"
     word-spacing="0"
     letter-spacing="0"
     id="text124">
    <tspan
       y="-378.45"
       x="1267.8"
       id="tspan126" />
  </text>
  <text
     transform="scale(4.0128.2492)"
     font-size="46.954"
     y="-1867.78"
     x="513.01"
     font-family="Arial"
     text-anchor="middle"
     id="text128" />
  <text
     font-size="129.23"
     y="-850.85"
     x="878.68"
     font-family="Gentium Book Basic"
     line-height="125%"
     word-spacing="0"
     letter-spacing="0"
     id="text130">
    <tspan
       y="-850.85"
       x="878.68"
       id="tspan132" />
  </text>
  <text
     transform="scale(4.0128.2492)"
     font-size="46.954"
     y="-3763.43"
     x="416.05"
     font-family="Arial"
     text-anchor="middle"
     id="text134" />
  <text
     font-size="129.23"
     y="-930.85"
     x="1459.94"
     font-family="Gentium Book Basic"
     line-height="125%"
     word-spacing="0"
     letter-spacing="0"
     id="text136">
    <tspan
       y="-930.85"
       x="1459.94"
       id="tspan138" />
  </text>
  <text
     transform="scale(4.0128.2492)"
     font-size="46.954"
     y="-4084.46"
     x="560.89"
     font-family="Arial"
     text-anchor="middle"
     id="text140" />
  <g
     font-family="Gentium Book Basic"
     line-height="125%"
     word-spacing="0"
     letter-spacing="0"
     id="g142">
    <text
       y="483.87"
       x="-372.86"
       font-size="208.33"
       id="text144">
      <tspan
         y="483.87"
         x="-372.86"
         id="tspan146" />
    </text>
    <text
       y="244.98"
       x="39.5"
       font-size="129.23"
       id="text148">
      <tspan
         y="244.98"
         x="39.5"
         id="tspan150" />
    </text>
  </g>
  <text
     transform="scale(4.0128.2492)"
     font-size="46.954"
     y="633.89"
     x="206.92"
     font-family="Arial"
     text-anchor="middle"
     id="text152" />
  <text
     font-size="129.23"
     y="164.98"
     x="620.77"
     font-family="Gentium Book Basic"
     line-height="125%"
     word-spacing="0"
     letter-spacing="0"
     id="text154">
    <tspan
       y="164.98"
       x="620.77"
       id="tspan156" />
  </text>
  <text
     transform="scale(4.0128.2492)"
     font-size="46.954"
     y="312.87"
     x="351.77"
     font-family="Arial"
     text-anchor="middle"
     id="text158" />
  <text
     font-size="129.23"
     y="-16.283"
     x="-450.81"
     font-family="Gentium Book Basic"
     line-height="125%"
     word-spacing="0"
     letter-spacing="0"
     id="text160">
    <tspan
       y="-16.283"
       x="-450.81"
       id="tspan162" />
  </text>
  <text
     transform="scale(4.0128.2492)"
     font-size="46.954"
     y="-414.49"
     x="84.74"
     font-family="Arial"
     text-anchor="middle"
     id="text164" />
  <text
     font-size="129.23"
     y="-232.75"
     x="647.24"
     font-family="Gentium Book Basic"
     line-height="125%"
     word-spacing="0"
     letter-spacing="0"
     id="text166">
    <tspan
       y="-232.75"
       x="647.24"
       id="tspan168" />
  </text>
  <text
     transform="scale(4.0128.2492)"
     font-size="46.954"
     y="-1283.16"
     x="358.37"
     font-family="Arial"
     text-anchor="middle"
     id="text170" />
  <text
     font-size="129.23"
     y="-312.76"
     x="1228.51"
     font-family="Gentium Book Basic"
     line-height="125%"
     word-spacing="0"
     letter-spacing="0"
     id="text172">
    <tspan
       y="-312.76"
       x="1228.51"
       id="tspan174" />
  </text>
  <text
     transform="scale(4.0128.2492)"
     font-size="46.954"
     y="-1604.19"
     x="503.22"
     font-family="Arial"
     text-anchor="middle"
     id="text176" />
  <text
     font-size="129.23"
     y="-785.16"
     x="839.39"
     font-family="Gentium Book Basic"
     line-height="125%"
     word-spacing="0"
     letter-spacing="0"
     id="text178">
    <tspan
       y="-785.16"
       x="839.39"
       id="tspan180" />
  </text>
  <text
     transform="scale(4.0128.2492)"
     font-size="46.954"
     y="-3499.84"
     x="406.25"
     font-family="Arial"
     text-anchor="middle"
     id="text182" />
  <text
     font-size="129.23"
     y="-865.16"
     x="1420.65"
     font-family="Gentium Book Basic"
     line-height="125%"
     word-spacing="0"
     letter-spacing="0"
     id="text184">
    <tspan
       y="-865.16"
       x="1420.65"
       id="tspan186" />
  </text>
  <text
     transform="scale(4.0128.2492)"
     font-size="46.954"
     y="-3820.87"
     x="551.1"
     font-family="Arial"
     text-anchor="middle"
     id="text188" />
  <g
     font-family="Gentium Book Basic"
     transform="translate(-690.14 13.618)"
     line-height="125%"
     word-spacing="0"
     letter-spacing="0"
     id="g190">
    <text
       y="535.94"
       x="277.99"
       font-size="208.33"
       id="text192">
      <tspan
         y="535.94"
         x="277.99"
         id="tspan194" />
    </text>
    <text
       y="135.65"
       x="148.44"
       font-size="129.23"
       id="text196">
      <tspan
         y="135.65"
         x="148.44"
         id="tspan198" />
    </text>
  </g>
  <text
     transform="scale(4.0128.2492)"
     font-size="46.954"
     y="249.85"
     x="62.09"
     font-family="Arial"
     text-anchor="middle"
     id="text200" />
  <text
     font-size="129.23"
     y="69.27"
     x="39.57"
     font-family="Gentium Book Basic"
     line-height="125%"
     word-spacing="0"
     letter-spacing="0"
     id="text202">
    <tspan
       y="69.27"
       x="39.57"
       id="tspan204" />
  </text>
  <text
     transform="scale(4.0128.2492)"
     font-size="46.954"
     y="-71.18"
     x="206.93"
     font-family="Arial"
     text-anchor="middle"
     id="text206" />
  <text
     font-size="129.23"
     y="-111.99"
     x="-1032.01"
     font-family="Gentium Book Basic"
     line-height="125%"
     word-spacing="0"
     letter-spacing="0"
     id="text208">
    <tspan
       y="-111.99"
       x="-1032.01"
       id="tspan210" />
  </text>
  <text
     transform="scale(4.0128.2492)"
     font-size="46.954"
     y="-798.54"
     x="-60.1"
     font-family="Arial"
     text-anchor="middle"
     id="text212" />
  <text
     font-size="129.23"
     y="-328.46"
     x="66.04"
     font-family="Gentium Book Basic"
     line-height="125%"
     word-spacing="0"
     letter-spacing="0"
     id="text214">
    <tspan
       y="-328.46"
       x="66.04"
       id="tspan216" />
  </text>
  <text
     transform="scale(4.0128.2492)"
     font-size="46.954"
     y="-1667.19"
     x="213.53"
     font-family="Arial"
     text-anchor="middle"
     id="text218" />
  <text
     font-size="129.23"
     y="-408.47"
     x="647.31"
     font-family="Gentium Book Basic"
     line-height="125%"
     word-spacing="0"
     letter-spacing="0"
     id="text220">
    <tspan
       y="-408.47"
       x="647.31"
       id="tspan222" />
  </text>
  <text
     transform="scale(4.0128.2492)"
     font-size="46.954"
     y="-1988.23"
     x="358.38"
     font-family="Arial"
     text-anchor="middle"
     id="text224" />
  <text
     font-size="129.23"
     y="-880.87"
     x="258.19"
     font-family="Gentium Book Basic"
     line-height="125%"
     word-spacing="0"
     letter-spacing="0"
     id="text226">
    <tspan
       y="-880.87"
       x="258.19"
       id="tspan228" />
  </text>
  <text
     transform="scale(4.0128.2492)"
     font-size="46.954"
     y="-3883.87"
     x="261.41"
     font-family="Arial"
     text-anchor="middle"
     id="text230" />
  <text
     font-size="129.23"
     y="-960.87"
     x="839.45"
     font-family="Gentium Book Basic"
     line-height="125%"
     word-spacing="0"
     letter-spacing="0"
     id="text232">
    <tspan
       y="-960.87"
       x="839.45"
       id="tspan234" />
  </text>
  <text
     transform="scale(4.0128.2492)"
     font-size="46.954"
     y="-4204.9"
     x="406.26"
     font-family="Arial"
     text-anchor="middle"
     id="text236" />
  <g
     font-family="Gentium Book Basic"
     line-height="125%"
     word-spacing="0"
     letter-spacing="0"
     id="g238">
    <text
       y="453.85"
       x="-993.35"
       font-size="208.33"
       id="text240">
      <tspan
         y="453.85"
         x="-993.35"
         id="tspan242" />
    </text>
    <text
       font-size="200"
       stroke="#555753"
       y="116.28"
       x="-575.74"
       fill="#555753"
       id="text244">
      <tspan
         y="116.28"
         x="-575.74"
         id="tspan246" />
    </text>
  </g>
  <g
     fill="#555753"
     id="g248">
    <text
       transform="scale(4.0128.2492)"
       font-size="72.67"
       y="-73.74"
       x="161.54"
       font-family="Arial"
       text-anchor="middle"
       id="text250" />
    <text
       font-size="200"
       stroke="#555753"
       y="169.43"
       x="169.64"
       font-family="Gentium Book Basic"
       line-height="125%"
       word-spacing="0"
       letter-spacing="0"
       id="text252">
      <tspan
         y="169.43"
         x="169.64"
         id="tspan254" />
    </text>
    <text
       transform="scale(4.0128.2492)"
       font-size="72.67"
       y="139.51"
       x="347.29"
       font-family="Arial"
       text-anchor="middle"
       id="text256" />
    <text
       font-size="200"
       stroke="#555753"
       y="45.61"
       x="1069.25"
       font-family="Gentium Book Basic"
       line-height="125%"
       word-spacing="0"
       letter-spacing="0"
       id="text258">
      <tspan
         y="45.61"
         x="1069.25"
         id="tspan260" />
    </text>
    <text
       transform="scale(4.0128.2492)"
       font-size="72.67"
       y="-357.35"
       x="571.47"
       font-family="Arial"
       text-anchor="middle"
       id="text262" />
    <text
       font-size="200"
       stroke="#555753"
       y="-7.03"
       x="197.1"
       font-family="Gentium Book Basic"
       line-height="125%"
       word-spacing="0"
       letter-spacing="0"
       id="text264">
      <tspan
         y="-7.03"
         x="197.1"
         id="tspan266" />
    </text>
    <text
       transform="scale(4.0128.2492)"
       font-size="72.67"
       y="-568.58"
       x="354.13"
       font-family="Arial"
       text-anchor="middle"
       id="text268" />
    <text
       font-size="200"
       stroke="#555753"
       y="-130.85"
       x="1096.72"
       font-family="Gentium Book Basic"
       line-height="125%"
       word-spacing="0"
       letter-spacing="0"
       id="text270">
      <tspan
         y="-130.85"
         x="1096.72"
         id="tspan272" />
    </text>
    <text
       transform="scale(4.0128.2492)"
       font-size="72.67"
       y="-1065.43"
       x="578.32"
       font-family="Arial"
       text-anchor="middle"
       id="text274" />
    <text
       font-size="200"
       stroke="#555753"
       y="444.86"
       x="-2812.88"
       font-family="Gentium Book Basic"
       line-height="125%"
       word-spacing="0"
       letter-spacing="0"
       id="text276">
      <tspan
         y="444.86"
         x="-2812.88"
         id="tspan278" />
    </text>
    <text
       transform="scale(4.0128.2492)"
       font-size="72.67"
       y="1244.76"
       x="-395.95"
       font-family="Arial"
       text-anchor="middle"
       id="text280" />
  </g>
  <text
     font-size="208.33"
     y="478.97"
     x="-957.33"
     font-family="Gentium Book Basic"
     line-height="125%"
     word-spacing="0"
     letter-spacing="0"
     id="text282">
    <tspan
       y="478.97"
       x="-957.33"
       id="tspan284" />
  </text>
  <text
     transform="scale(4.0128.2492)"
     font-size="75.7"
     y="1359.15"
     x="79.16"
     font-family="Arial"
     text-anchor="middle"
     id="text286" />
  <path
     style="fill:#E3E3E3;fill-opacity:1"
     d="M 39.546875 8.328125 C 34.968875 8.328125 31.296875 11.447125 31.296875 15.328125 L 31.296875 492.32812 C 31.296875 496.20912 34.968875 499.32812 39.546875 499.32812 L 468.10742 499.32812 C 472.68542 499.32812 476.35742 496.20914 476.35742 492.32812 L 476.35742 144.26758 L 340.38672 8.328125 L 39.546875 8.328125 z M 63.470703 24.029297 L 108.00195 24.029297 L 108.00195 40.189453 L 63.470703 40.189453 L 63.470703 24.029297 z M 63.470703 71.25 L 108.00195 71.25 L 108.00195 106.9375 L 63.470703 106.9375 L 63.470703 71.25 z M 63.470703 137.9707 L 108.00195 137.9707 L 108.00195 173.7207 L 63.470703 173.7207 L 63.470703 137.9707 z M 404 146.43945 L 448.53125 146.43945 L 448.53125 173.71875 L 404 173.71875 L 404 146.43945 z M 142.88086 183 L 277.08984 183 L 277.08984 211.2207 L 142.88086 211.2207 L 142.88086 183 z M 63.470703 204.71875 L 108.00195 204.71875 L 108.00195 240.46875 L 63.470703 240.46875 L 63.470703 204.71875 z M 404 204.71875 L 448.53125 204.71875 L 448.53125 240.46875 L 404 240.46875 L 404 204.71875 z M 142.88086 242.86523 L 369.11914 242.86523 L 369.11914 271.08594 L 142.88086 271.08594 L 142.88086 242.86523 z M 63.470703 271.5 L 108.00195 271.5 L 108.00195 307.1875 L 63.470703 307.1875 L 63.470703 271.5 z M 404 271.5 L 448.53125 271.5 L 448.53125 307.1875 L 404 307.1875 L 404 271.5 z M 142.88086 302.73242 L 369.11914 302.73242 L 369.11914 330.98242 L 142.88086 330.98242 L 142.88086 302.73242 z M 63.470703 338.28125 L 108.00195 338.28125 L 108.00195 373.9375 L 63.470703 373.9375 L 63.470703 338.28125 z M 404 338.28125 L 448.53125 338.28125 L 448.53125 373.9375 L 404 373.9375 L 404 338.28125 z M 142.88086 362.63086 L 369.11914 362.63086 L 369.11914 390.85156 L 142.88086 390.85156 L 142.88086 362.63086 z M 63.470703 405.00195 L 108.00195 405.00195 L 108.00195 440.7207 L 63.470703 440.7207 L 63.470703 405.00195 z M 404 405.00195 L 448.53125 405.00195 L 448.53125 440.7207 L 404 440.7207 L 404 405.00195 z M 142.88086 422.49609 L 369.11914 422.49609 L 369.11914 450.7168 L 142.88086 450.7168 L 142.88086 422.49609 z M 63.470703 471.75195 L 108.00195 471.75195 L 108.00195 487.9707 L 63.470703 487.9707 L 63.470703 471.75195 z M 404 471.75195 L 448.53125 471.75195 L 448.53125 487.9707 L 404 487.9707 L 404 471.75195 z "
     id="path296" />
</svg>
