<?xml version="1.0" encoding="UTF-8" standalone="no"?>
<svg
   xmlns:dc="http://purl.org/dc/elements/1.1/"
   xmlns:cc="http://creativecommons.org/ns#"
   xmlns:rdf="http://www.w3.org/1999/02/22-rdf-syntax-ns#"
   xmlns:svg="http://www.w3.org/2000/svg"
   xmlns="http://www.w3.org/2000/svg"
   xmlns:sodipodi="http://sodipodi.sourceforge.net/DTD/sodipodi-0.dtd"
   xmlns:inkscape="http://www.inkscape.org/namespaces/inkscape"
   viewBox="0 0 512 512"
   id="svg2"
   version="1.1"
   inkscape:version="0.91 r"
   sodipodi:docname="text-x-perl.svg">
  <metadata
     id="metadata28">
    <rdf:RDF>
      <cc:Work
         rdf:about="">
        <dc:format>image/svg+xml</dc:format>
        <dc:type
           rdf:resource="http://purl.org/dc/dcmitype/StillImage" />
      </cc:Work>
    </rdf:RDF>
  </metadata>
  <defs
     id="defs26" />
  <sodipodi:namedview
     pagecolor="#ffffff"
     bordercolor="#666666"
     borderopacity="1"
     objecttolerance="10"
     gridtolerance="10"
     guidetolerance="10"
     inkscape:pageopacity="0"
     inkscape:pageshadow="2"
     inkscape:window-width="1920"
     inkscape:window-height="1028"
     id="namedview24"
     showgrid="false"
     inkscape:zoom="0.4609375"
     inkscape:cx="256"
     inkscape:cy="256"
     inkscape:window-x="0"
     inkscape:window-y="0"
     inkscape:window-maximized="1"
     inkscape:current-layer="svg2" />
  <path
     d="m 85.216601,12.669487 c -3.881,0 -7,3.119 -7,7 l 0,477.000003 c 0,3.881 3.119,7 7,7 l 363.249999,0 c 3.881,0 7,-3.119 7,-7 l 0,-344.7207 -139.25,-139.279303 -230.999999,0 z M 307.80058,135.81207 c 4.68359,-0.0396 8.93343,0.4422 13.79493,2.7207 5.847,2.275 9.59156,7.21303 13.60156,11.70703 4.262,6.307 6.71889,14.90846 9.58789,22.18946 1.99,6.114 4.16173,10.17253 7.80273,14.26953 2.337,2.631 5.44804,6.93447 7.58204,10.48047 6.191,15.83 12.41345,27.60925 23.18945,41.03125 5.759,6.276 6.91211,9.3946 6.91211,17.7246 1.64,12.82501 1.51878,22.43313 -1.44922,35.45313 -0.358,0.947 -2.41231,4.35408 -4.57031,7.58008 -3.186,4.759 -4.10953,5.89847 -5.01953,6.35547 -0.734,0.369 -1.38049,0.57531 -1.89649,0.44531 -1.188,-0.298 -2.70909,-1.96308 -3.12109,-3.45508 -0.516,-1.873 0.18847,-4.45025 2.23047,-8.03125 3.44,-5.784 5.265,-12.48369 4.125,-19.17969 -0.88,-4.85 -0.52757,-9.84684 -1.22657,-14.71484 -1.143,-5.249 -2.80331,-8.13867 -4.57031,-8.13867 -1.928,0 -3.39287,3.35898 -5.79687,12.70898 l -1.5625,17.2793 c -0.13,14.14 0.252,25.16994 1,28.21094 0.752,3.058 0.755,12.64065 0,16.72265 -0.7,3.77 -0.504,5.38492 1,8.91993 1.521,3.57299 2.01015,6.00353 1.78515,10.14453 -0.197,3.564 -0.60876,5.09898 -2.00976,8.58398 -1.562,3.886 -1.83214,5.39109 -2.11914,11.37109 -0.149,3.113 -0.5323,6.45875 -0.7793,7.46875 -1.422,5.798 -1.21045,7.16275 1.56055,15.71875 1.742,5.379 2.78079,10.43744 2.34179,11.14844 -0.182,3.149 0.80838,6.35756 0.10938,9.47656 -0.089,0.317 -0.29231,0.59263 -0.44531,0.89063 -5.573,-1.457 -11.45955,-2.844 -18.06055,-4.125 0.178,-0.517 0.29859,-1.00055 0.55859,-1.56055 1.815,-3.917 2.16178,-4.86964 2.67578,-8.80664 0.533,-4.087 1.16235,-6.44414 3.90235,-14.49414 1.868,-5.491 1.93518,-5.93528 2.11718,-9.36328 0.31201,-5.862 -0.0463,-14.57523 -0.77929,-17.61523 -0.964,-4 -1.22656,-7.11746 -1.22656,-14.93946 -0.002,-5.31 -0.0963,-7.86022 -0.44532,-9.69922 -0.659,-3.475 -2.80456,-9.16653 -5.35156,-14.26953 -2.684,-5.378 -3.51564,-7.30575 -4.68164,-11.59375 -1.912,-6.02 -4.98216,-11.41856 -5.91016,-17.72656 -0.811,-6.427 -2.48623,-9.47656 -5.24023,-9.47656 -2.053,0 -3.17822,1.40647 -5.57422,6.35547 -4.193,7.378 -7.2373,14.15418 -8.0293,22.74218 -0.956,7.161 -1.37389,14.17425 -1.33789,21.40625 l 0,10.14453 -0.89257,1.78321 c -0.53701,0.991 -2.12041,3.08026 -3.56641,4.57226 -1.804,1.862 -2.99006,3.3683 -3.78906,4.9043 -2.132,4.1 -3.51082,6.29455 -6.13282,9.81055 -2.927,3.924 -5.47153,8.54343 -6.01953,11.14844 -0.453,2.13799 -0.106,4.34953 1,6.01953 0.416,0.628 1.76877,1.97671 3.00977,3.01171 3.674,3.06501 4.90287,5.07686 5.79687,10.25586 0.389,2.257 0.40033,3.15291 0.11133,5.12891 -0.485,3.315 -1.41211,5.50878 -2.78711,6.80078 -2.393,-0.179 -4.9657,-0.29926 -7.4707,-0.44726 -1.099,-0.921 -2.19075,-2.14939 -3.34375,-3.90039 -1.719,-2.61 -3.003,-4.029 -4.125,-4.125 -1.121,-0.096 -1.9911,1.08807 -3.12109,3.45507 -0.82401,1.726 -1.8351,2.95135 -3.1211,3.90235 -6.615,-0.217 -13.58798,-0.34099 -20.95898,-0.33399 -0.23,-0.53 -0.45499,-1.02787 -0.33399,-1.67187 0.315,-1.683 1.87753,-2.99653 6.01953,-5.01953 3.009,-1.47 4.05222,-2.17569 5.57422,-3.67969 2.97,-2.933 5.02853,-7.39378 5.01953,-10.92578 -0.506,-4.834 -4.53942,-8.52667 -7.35742,-12.26367 -2.654,-3.551 -7.05478,-7.81585 -10.92578,-10.58985 -4,-2.864 -7.7653,-6.09469 -9.0293,-7.80468 -0.57,-0.771 -1.30387,-2.31004 -1.67187,-3.45704 -0.617,-1.921 -0.67292,-2.58029 -0.66992,-9.02929 0.003,-8.03 0.0751,-8.45458 2.78711,-13.26758 2.128,-3.776 2.9607,-6.48877 3.3457,-11.25977 0.176,-2.178 0.69823,-5.44409 1.11523,-7.24609 0.931,-4.023 0.80602,-5.86438 -0.33398,-7.35938 -1.216,-1.594 -2.97811,-2.12818 -6.91211,-2.11718 -0.934,0.002 -1.76012,-0.074 -2.45313,0 -2.077,0.22 -3.18198,0.91647 -4.45898,2.23047 -2.27,2.336 -3.34269,5.72271 -3.67969,12.26171 -0.29,5.607 -0.54836,6.55094 -3.56836,12.71094 -2.224,4.532 -2.75434,6.58628 -3.90234,13.48828 -0.578,3.475 -0.72697,4.8201 -0.66797,11.3711 0.065,7.204 0.0441,7.68348 -0.66992,10.14648 -0.409,1.409 -1.61278,4.4115 -2.67578,6.6875 -2.338,5.003 -2.7221,6.43609 -3.1211,11.37109 -0.166,2.1 -0.583,5.45876 -1,7.46876 -0.457,2.22 -0.841,5.44299 -1,8.25 -0.169,2.985 -0.97315,7.26371 -1.78515,11.26171 1.639,-0.125 3.26825,-0.22398 4.90625,-0.33398 -5.176,0.417 -10.42236,0.88061 -15.94336,1.22461 -0.7,0.043 -1.51652,0.0683 -2.22852,0.11133 0.106,-0.213 0.19499,-0.39897 0.33399,-0.66797 1.656,-3.195 3.59465,-7.1266 4.34765,-8.8086 1.392,-3.116 3.42377,-10.47218 4.00977,-14.49218 1.384,-9.507 1.52358,-11.99578 0.89258,-15.05078 -0.186,-0.902 -0.4236,-5.30455 -0.5586,-9.81055 -0.199,-6.673 -0.28429,-8.73513 -0.77929,-10.70313 -0.76,-3.018 -1.33889,-6.66889 -1.33789,-9.58789 0.001,-3.57 -0.52357,-9.9572 -1.22657,-14.1582 -0.949,-5.67 -0.959,-15.76031 0,-21.07031 0.786,-4.352 0.59571,-6.16767 -0.77929,-8.13867 -2.015,-2.888 -4.17989,-3.19722 -9.58789,-1.44922 -15.58,4.762 -31.78602,-7.4066 -40.91602,-19.0586 -6.065,-10.12 -14.81075,-16.54234 -15.71875,-28.65234 -0.688,-9.879 -1.97255,-18.22836 -1.56055,-28.31836 -0.337,-9.228 5.45403,-15.61538 7.58204,-24.85937 -1.352,-8.727 -12.02516,-6.53457 -18.28516,-9.47657 -3.101,-1.683 -4.65977,-4.78501 -4.00977,-7.91601 0.779,-3.753 4.3161,-8.98417 7.2461,-10.70118 6.125,-2.85199 13.09009,-1.7407 19.62109,-3.3457 5.472,-1.404 7.69606,-2.43289 11.03906,-5.46289 4.993,-4.524 6.25613,-5.22623 10.70313,-5.24023 19.899,1.309 26.80934,23.69775 28.65234,40.46875 0.746,12.736 -4.60308,23.56445 -7.58008,35.56445 -1.238,4.96 2.60375,12.05711 7.46875,6.91211 3.153,-9.836 3.7033,-17.39284 10.0293,-26.08984 6.26,-8.372 11.46189,-13.37793 17.83789,-17.16993 5.135,-3.376 10.23953,-7.23068 14.26953,-11.92968 2.15,-3.042 6.30105,-9.74841 7.24805,-11.81641 3.778,-9.328 12.58128,-15.46855 21.73828,-19.06055 5.919,-2.087 11.66589,-4.95418 17.83789,-6.24218 2.083,-0.11 3.95688,-0.16261 5.79688,-0.22461 l 0.008,-0.004 c 0.68987,-0.0232 1.36607,-0.0393 2.03515,-0.0449 z m -8.05664,154.5664 0,0.008 c -0.439,-0.028 -0.85321,0.13731 -1.44921,0.44531 -1.244,0.643 -1.93108,2.06569 -3.45508,7.80469 -1.65,6.206 -2.30369,8.02929 -3.67969,10.02929 -3.842,5.595 -3.86097,5.68744 -4.79297,11.14844 -1.028,6.026 -1.13823,6.24047 -5.24023,10.48047 -1.982,2.049 -4.66916,4.7092 -5.91016,5.9082 -2.842,2.745 -3.90039,4.89969 -3.90039,7.80469 0.002,2.22 0.34509,3.267 3.12109,8.25 2.443,4.383 3.34189,5.58173 5.46289,7.80273 1.981,2.075 6.09633,5.2668 8.36133,6.4668 1.644,0.871 3.30232,0.98999 4.57032,0.33399 1.29199,-0.668 2.58601,-2.3713 3.79101,-4.9043 0.606,-1.273 2.11375,-4.01181 3.34375,-6.13281 4.032,-6.951 5.07984,-10.22624 5.46484,-17.61524 0.136,-2.626 0.34864,-6.26429 0.55664,-8.02929 0.40501,-3.428 0.18144,-6.59866 -1.22656,-16.72266 -0.319,-2.294 -0.83156,-7.65469 -1.22656,-11.92969 -0.757,-8.19 -1.08412,-9.40347 -2.45312,-10.48047 -0.485,-0.381 -0.8989,-0.63897 -1.3379,-0.66797 z"
     id="path12"
     style="fill:#E3E3E3;fill-opacity:1"
     inkscape:connector-curvature="0" />
</svg>
