<?xml version="1.0" encoding="UTF-8" standalone="no"?>
<svg
   xmlns:dc="http://purl.org/dc/elements/1.1/"
   xmlns:cc="http://creativecommons.org/ns#"
   xmlns:rdf="http://www.w3.org/1999/02/22-rdf-syntax-ns#"
   xmlns:svg="http://www.w3.org/2000/svg"
   xmlns="http://www.w3.org/2000/svg"
   xmlns:sodipodi="http://sodipodi.sourceforge.net/DTD/sodipodi-0.dtd"
   xmlns:inkscape="http://www.inkscape.org/namespaces/inkscape"
   viewBox="0 0 24 24"
   id="svg2"
   version="1.1"
   inkscape:version="0.91 r13725"
   sodipodi:docname="variety-indicator.svg">
  <metadata
     id="metadata14">
    <rdf:RDF>
      <cc:Work
         rdf:about="">
        <dc:format>image/svg+xml</dc:format>
        <dc:type
           rdf:resource="http://purl.org/dc/dcmitype/StillImage" />
        <dc:title />
      </cc:Work>
    </rdf:RDF>
  </metadata>
  <defs
     id="defs12" />
  <sodipodi:namedview
     pagecolor="#b6b4b2"
     bordercolor="#666666"
     borderopacity="1"
     objecttolerance="10"
     gridtolerance="10"
     guidetolerance="10"
     inkscape:pageopacity="0"
     inkscape:pageshadow="2"
     inkscape:window-width="1680"
     inkscape:window-height="993"
     id="namedview10"
     showgrid="false"
     inkscape:zoom="19.388314"
     inkscape:cx="-6.7203835"
     inkscape:cy="12.490473"
     inkscape:window-x="0"
     inkscape:window-y="0"
     inkscape:window-maximized="1"
     inkscape:current-layer="svg2" />
  <rect
     id="rect6"
     style="fill:none;stroke:#E3E3E3;stroke-width:2.11062765;stroke-linecap:butt;stroke-linejoin:round;stroke-miterlimit:4;stroke-dasharray:none;stroke-opacity:1"
     ry="3.3552942"
     y="5.1432486"
     x="3.9431784"
     height="13.198025"
     width="16.111647"
     rx="2.283572" />
  <path
     inkscape:connector-curvature="0"
     id="path8"
     style="fill:#E3E3E3;fill-opacity:1;stroke:none"
     d="m 6.0197012,11.565456 0,4.252481 11.9354828,0 0,-2.638918 c 0.04221,-2.129674 -5.347096,-6.0251108 -5.844617,-4.4722 -0.564863,1.761186 -1.674486,5.109614 -2.8001903,4.911638 C 8.4691136,13.443368 7.6278505,13.26828 6.0197012,11.565456" />
</svg>
