<svg xmlns="http://www.w3.org/2000/svg" width="48" height="48">
<defs>
<defs
     id="defs5">
  </defs>
  <path
     d="m 35.540508,5.6029216 c -2.742085,0 -4.937583,2.1954973 -4.937583,4.9375834 -10e-7,0.189526 0.03789,0.371245 0.05843,0.555113 l -18.756973,0 c 0,-1.8280575 -1.473403,-3.3014613 -3.3014604,-3.3014613 -1.8280572,2e-7 -3.3014608,1.4734037 -3.3014608,3.3014613 L 2,11.095618 2,43 l 44,0 0,-31.904382 -2.278884,0 c 0.02054,-0.183868 0.08765,-0.365587 0.08765,-0.555113 -10e-7,-2.7420863 -2.224714,-4.9375834 -4.9668,-4.9375834 l -3.30146,0 z M 24.000003,14.397078 c 7.259434,0 13.14741,5.920013 13.14741,13.205844 10e-7,7.28583 -5.887977,13.205843 -13.14741,13.205843 -7.259432,-1e-6 -13.14741,-5.920013 -13.14741,-13.205843 0,-7.285832 5.887977,-13.205844 13.14741,-13.205844 z m 0,3.301461 c -5.464373,0 -9.904383,4.440009 -9.904382,9.904383 0,5.464373 4.440008,9.904382 9.904382,9.904382 5.464373,0 9.904384,-4.44001 9.904382,-9.904382 0,-5.464374 -4.440009,-9.904383 -9.904382,-9.904383 z"
     id="path-main"
      />
</defs>

<use id="1" style="fill:#BFBFBF" xlink:href="#path-main" />



</svg>
