<svg height="16" width="16" xmlns="http://www.w3.org/2000/svg">
    <g color="#000" font-weight="400" font-family="sans-serif" white-space="normal" fill="#545C70">
        <path d="M5 4c-.658 0-1.178.06-1.617.225a1.88 1.88 0 0 0-.998.838c-.416.752-.37 1.673-.385 2.931V12.006c.015 1.258-.03 2.179.385 2.932.207.376.56.673.998.838.438.164.96.224 1.617.224h5c.658 0 1.179-.06 1.617-.225.439-.164.789-.461.996-.837.416-.753.372-1.674.387-2.932V7.994c-.014-1.258.03-2.179-.385-2.932a1.88 1.88 0 0 0-.998-.838C11.18 4.06 10.657 4 10 4zm0 1h5c.592 0 1.006.063 1.266.16.26.098.371.204.472.387.202.366.247 1.195.262 2.453v3.994c-.015 1.264-.06 2.092-.262 2.46-.1.183-.212.288-.472.386-.26.097-.674.16-1.266.16H5c-.592 0-1.006-.063-1.266-.16-.26-.098-.371-.203-.472-.387C3.06 14.087 3.015 13.26 3 12V8c.015-1.258.06-2.087.262-2.453.1-.183.213-.29.472-.387C3.994 5.063 4.408 5 5 5z" style="line-height:normal;font-variant-ligatures:normal;font-variant-position:normal;font-variant-caps:normal;font-variant-numeric:normal;font-variant-alternates:normal;font-feature-settings:normal;text-indent:0;text-align:start;text-decoration-line:none;text-decoration-style:solid;text-decoration-color:#000;text-transform:none;text-orientation:mixed;shape-padding:0;isolation:auto;mix-blend-mode:normal;marker:none" overflow="visible"/>
        <path d="M4 0v3h1V1h5v2h1V0zm2 2v1h1V2zm2 0v1h1V2z" style="line-height:normal;font-variant-ligatures:normal;font-variant-position:normal;font-variant-caps:normal;font-variant-numeric:normal;font-variant-alternates:normal;font-feature-settings:normal;text-indent:0;text-align:start;text-decoration-line:none;text-decoration-style:solid;text-decoration-color:#000;text-transform:none;text-orientation:mixed;shape-padding:0;isolation:auto;mix-blend-mode:normal" overflow="visible" fill-rule="evenodd"/>
    </g>
</svg>
