<svg height="16" width="16" xmlns="http://www.w3.org/2000/svg">
    <path d="M8.003 2A10.382 10.382 0 0 0 .638 5.047l.736.738a9.367 9.367 0 0 1 13.258 0l.736-.738A10.382 10.382 0 0 0 8.003 2zm0 2.983c-1.92 0-3.84.73-5.303 2.193l.736.736a6.45 6.45 0 0 1 9.133 0l.737-.736a7.475 7.475 0 0 0-5.303-2.193zm0 2.998a4.566 4.566 0 0 0-3.24 1.338l.736.738a3.533 3.533 0 0 1 5.008 0l.736-.738a4.566 4.566 0 0 0-3.24-1.338zm0 3.02a2 2 0 0 0-2 2 2 2 0 0 0 2 2 2 2 0 0 0 2-2 2 2 0 0 0-2-2z" style="marker:none" color="#000" overflow="visible" fill="#545C70"/>
</svg>
