<?xml version="1.0" encoding="UTF-8" standalone="no"?>
<svg
   xmlns:dc="http://purl.org/dc/elements/1.1/"
   xmlns:cc="http://creativecommons.org/ns#"
   xmlns:rdf="http://www.w3.org/1999/02/22-rdf-syntax-ns#"
   xmlns:svg="http://www.w3.org/2000/svg"
   xmlns="http://www.w3.org/2000/svg"
   xmlns:sodipodi="http://sodipodi.sourceforge.net/DTD/sodipodi-0.dtd"
   xmlns:inkscape="http://www.inkscape.org/namespaces/inkscape"
   height="512"
   width="512"
   version="1.1"
   viewBox="0 0 512 512"
   id="svg2"
   inkscape:version="0.91 r"
   sodipodi:docname="video-projector.svg">
  <defs
     id="defs200" />
  <sodipodi:namedview
     pagecolor="#ffffff"
     bordercolor="#666666"
     borderopacity="0.75"
     objecttolerance="10"
     gridtolerance="10"
     guidetolerance="10"
     inkscape:pageopacity="0"
     inkscape:pageshadow="2"
     inkscape:window-width="640"
     inkscape:window-height="480"
     id="namedview198"
     showgrid="false"
     inkscape:zoom="0.4609375"
     inkscape:cx="256"
     inkscape:cy="256"
     inkscape:window-x="0"
     inkscape:window-y="0"
     inkscape:window-maximized="0"
     inkscape:current-layer="svg2" />
  <metadata
     id="metadata394">
    <rdf:RDF>
      <cc:Work
         rdf:about="">
        <dc:format>image/svg+xml</dc:format>
        <dc:type
           rdf:resource="http://purl.org/dc/dcmitype/StillImage" />
      </cc:Work>
    </rdf:RDF>
  </metadata>
  <text
     id="text4"
     font-size="129.23"
     line-height="125%"
     y="231.36"
     x="729.64"
     font-family="Gentium Book Basic"
     word-spacing="0"
     letter-spacing="0">
    <tspan
       id="tspan6"
       y="231.36"
       x="729.64" />
  </text>
  <text
     id="text8"
     transform="scale(4.0128 .2492)"
     font-size="46.954"
     y="579.25"
     x="378.91"
     font-family="Arial"
     text-anchor="middle" />
  <text
     id="text10"
     font-size="129.23"
     line-height="125%"
     y="151.36"
     x="1310.91"
     font-family="Gentium Book Basic"
     word-spacing="0"
     letter-spacing="0">
    <tspan
       id="tspan12"
       y="151.36"
       x="1310.91" />
  </text>
  <text
     id="text14"
     transform="scale(4.0128 .2492)"
     font-size="46.954"
     y="258.22"
     x="523.76"
     font-family="Arial"
     text-anchor="middle" />
  <text
     id="text16"
     font-size="129.23"
     line-height="125%"
     y="-29.901"
     x="239.33"
     font-family="Gentium Book Basic"
     word-spacing="0"
     letter-spacing="0">
    <tspan
       id="tspan18"
       y="-29.901"
       x="239.33" />
  </text>
  <text
     id="text20"
     transform="scale(4.0128 .2492)"
     font-size="46.954"
     y="-469.14"
     x="256.72"
     font-family="Arial"
     text-anchor="middle" />
  <text
     id="text22"
     font-size="129.23"
     line-height="125%"
     y="-246.37"
     x="1337.38"
     font-family="Gentium Book Basic"
     word-spacing="0"
     letter-spacing="0">
    <tspan
       id="tspan24"
       y="-246.37"
       x="1337.38" />
  </text>
  <text
     id="text26"
     transform="scale(4.0128 .2492)"
     font-size="46.954"
     y="-1337.81"
     x="530.36"
     font-family="Arial"
     text-anchor="middle" />
  <text
     id="text28"
     font-size="129.23"
     line-height="125%"
     y="-326.38"
     x="1918.65"
     font-family="Gentium Book Basic"
     word-spacing="0"
     letter-spacing="0">
    <tspan
       id="tspan30"
       y="-326.38"
       x="1918.65" />
  </text>
  <text
     id="text32"
     transform="scale(4.0128 .2492)"
     font-size="46.954"
     y="-1658.85"
     x="675.21"
     font-family="Arial"
     text-anchor="middle" />
  <text
     id="text34"
     font-size="129.23"
     line-height="125%"
     y="-798.78"
     x="1529.53"
     font-family="Gentium Book Basic"
     word-spacing="0"
     letter-spacing="0">
    <tspan
       id="tspan36"
       y="-798.78"
       x="1529.53" />
  </text>
  <text
     id="text38"
     transform="scale(4.0128 .2492)"
     font-size="46.954"
     y="-3554.51"
     x="578.24"
     font-family="Arial"
     text-anchor="middle" />
  <text
     id="text40"
     font-size="129.23"
     line-height="125%"
     y="-878.78"
     x="2110.79"
     font-family="Gentium Book Basic"
     word-spacing="0"
     letter-spacing="0">
    <tspan
       id="tspan42"
       y="-878.78"
       x="2110.79" />
  </text>
  <text
     id="text44"
     transform="scale(4.0128 .2492)"
     font-size="46.954"
     y="-3875.54"
     x="723.09"
     font-family="Arial"
     text-anchor="middle" />
  <g
     id="g46"
     font-family="Gentium Book Basic"
     line-height="125%"
     word-spacing="0"
     letter-spacing="0">
    <text
       id="text48"
       y="535.94"
       x="277.99"
       font-size="208.33">
      <tspan
         id="tspan50"
         y="535.94"
         x="277.99" />
    </text>
    <text
       id="text52"
       y="-11.341"
       x="-307.18"
       font-size="200">
      <tspan
         id="tspan54"
         y="-11.341"
         x="-307.18" />
    </text>
  </g>
  <text
     id="text56"
     transform="scale(4.0128 .2492)"
     font-size="72.67"
     y="-585.88"
     x="228.47"
     font-family="Arial"
     text-anchor="middle" />
  <text
     id="text58"
     font-size="200"
     line-height="125%"
     y="41.802"
     x="438.2"
     font-family="Gentium Book Basic"
     word-spacing="0"
     letter-spacing="0">
    <tspan
       id="tspan60"
       y="41.802"
       x="438.2" />
  </text>
  <text
     id="text62"
     transform="scale(4.0128 .2492)"
     font-size="72.67"
     y="-372.63"
     x="414.22"
     font-family="Arial"
     text-anchor="middle" />
  <text
     id="text64"
     font-size="200"
     line-height="125%"
     y="-82.02"
     x="1337.81"
     font-family="Gentium Book Basic"
     word-spacing="0"
     letter-spacing="0">
    <tspan
       id="tspan66"
       y="-82.02"
       x="1337.81" />
  </text>
  <text
     id="text68"
     transform="scale(4.0128 .2492)"
     font-size="72.67"
     y="-869.49"
     x="638.4"
     font-family="Arial"
     text-anchor="middle" />
  <text
     id="text70"
     font-size="200"
     line-height="125%"
     y="-134.65"
     x="465.66"
     font-family="Gentium Book Basic"
     word-spacing="0"
     letter-spacing="0">
    <tspan
       id="tspan72"
       y="-134.65"
       x="465.66" />
  </text>
  <text
     id="text74"
     transform="scale(4.0128 .2492)"
     font-size="72.67"
     y="-1080.71"
     x="421.06"
     font-family="Arial"
     text-anchor="middle" />
  <text
     id="text76"
     font-size="200"
     line-height="125%"
     y="-258.47"
     x="1365.27"
     font-family="Gentium Book Basic"
     word-spacing="0"
     letter-spacing="0">
    <tspan
       id="tspan78"
       y="-258.47"
       x="1365.27" />
  </text>
  <text
     id="text80"
     transform="scale(4.0128 .2492)"
     font-size="72.67"
     y="-1577.57"
     x="645.24"
     font-family="Arial"
     text-anchor="middle" />
  <text
     id="text82"
     font-size="200"
     line-height="125%"
     y="317.23"
     x="-2544.32"
     font-family="Gentium Book Basic"
     word-spacing="0"
     letter-spacing="0">
    <tspan
       id="tspan84"
       y="317.23"
       x="-2544.32" />
  </text>
  <text
     id="text86"
     transform="scale(4.0128 .2492)"
     font-size="72.67"
     y="732.62"
     x="-329.03"
     font-family="Arial"
     text-anchor="middle" />
  <text
     id="text88"
     font-size="200"
     line-height="125%"
     y="81.8"
     x="-616.04"
     font-family="Gentium Book Basic"
     word-spacing="0"
     letter-spacing="0">
    <tspan
       id="tspan90"
       y="81.8"
       x="-616.04" />
  </text>
  <text
     id="text92"
     transform="scale(4.0128 .2492)"
     font-size="72.67"
     y="-212.12"
     x="151.5"
     font-family="Arial"
     text-anchor="middle" />
  <text
     id="text94"
     font-size="200"
     line-height="125%"
     y="134.94"
     x="129.34"
     font-family="Gentium Book Basic"
     word-spacing="0"
     letter-spacing="0">
    <tspan
       id="tspan96"
       y="134.94"
       x="129.34" />
  </text>
  <text
     id="text98"
     transform="scale(4.0128 .2492)"
     font-size="72.67"
     y="1.138"
     x="337.25"
     font-family="Arial"
     text-anchor="middle" />
  <text
     id="text100"
     font-size="200"
     line-height="125%"
     y="11.127"
     x="1028.95"
     font-family="Gentium Book Basic"
     word-spacing="0"
     letter-spacing="0">
    <tspan
       id="tspan102"
       y="11.127"
       x="1028.95" />
  </text>
  <text
     id="text104"
     transform="scale(4.0128 .2492)"
     font-size="72.67"
     y="-495.72"
     x="561.43"
     font-family="Arial"
     text-anchor="middle" />
  <text
     id="text106"
     font-size="200"
     line-height="125%"
     y="-41.51"
     x="156.8"
     font-family="Gentium Book Basic"
     word-spacing="0"
     letter-spacing="0">
    <tspan
       id="tspan108"
       y="-41.51"
       x="156.8" />
  </text>
  <text
     id="text110"
     transform="scale(4.0128 .2492)"
     font-size="72.67"
     y="-706.95"
     x="344.09"
     font-family="Arial"
     text-anchor="middle" />
  <text
     id="text112"
     font-size="200"
     line-height="125%"
     y="-165.33"
     x="1056.42"
     font-family="Gentium Book Basic"
     word-spacing="0"
     letter-spacing="0">
    <tspan
       id="tspan114"
       y="-165.33"
       x="1056.42" />
  </text>
  <text
     id="text116"
     transform="scale(4.0128 .2492)"
     font-size="72.67"
     y="-1203.81"
     x="568.28"
     font-family="Arial"
     text-anchor="middle" />
  <text
     id="text118"
     font-size="200"
     line-height="125%"
     y="410.37"
     x="-2853.18"
     font-family="Gentium Book Basic"
     word-spacing="0"
     letter-spacing="0">
    <tspan
       id="tspan120"
       y="410.37"
       x="-2853.18" />
  </text>
  <text
     id="text122"
     transform="scale(4.0128 .2492)"
     font-size="72.67"
     y="1106.39"
     x="-406"
     font-family="Arial"
     text-anchor="middle" />
  <text
     id="text124"
     font-size="200"
     line-height="125%"
     y="-35.06"
     x="-1330.61"
     font-family="Gentium Book Basic"
     word-spacing="0"
     letter-spacing="0">
    <tspan
       id="tspan126"
       y="-35.06"
       x="-1330.61" />
  </text>
  <text
     id="text128"
     transform="scale(4.0128 .2492)"
     font-size="72.67"
     y="-681.04"
     x="-26.571"
     font-family="Arial"
     text-anchor="middle" />
  <text
     id="text130"
     font-size="200"
     line-height="125%"
     y="18.09"
     x="-585.23"
     font-family="Gentium Book Basic"
     word-spacing="0"
     letter-spacing="0">
    <tspan
       id="tspan132"
       y="18.09"
       x="-585.23" />
  </text>
  <text
     id="text134"
     transform="scale(4.0128 .2492)"
     font-size="72.67"
     y="-467.79"
     x="159.18"
     font-family="Arial"
     text-anchor="middle" />
  <text
     id="text136"
     font-size="200"
     line-height="125%"
     y="-105.73"
     x="314.38"
     font-family="Gentium Book Basic"
     word-spacing="0"
     letter-spacing="0">
    <tspan
       id="tspan138"
       y="-105.73"
       x="314.38" />
  </text>
  <text
     id="text140"
     transform="scale(4.0128 .2492)"
     font-size="72.67"
     y="-964.65"
     x="383.36"
     font-family="Arial"
     text-anchor="middle" />
  <text
     id="text142"
     font-size="200"
     line-height="125%"
     y="-158.37"
     x="-557.77"
     font-family="Gentium Book Basic"
     word-spacing="0"
     letter-spacing="0">
    <tspan
       id="tspan144"
       y="-158.37"
       x="-557.77" />
  </text>
  <text
     id="text146"
     transform="scale(4.0128 .2492)"
     font-size="72.67"
     y="-1175.88"
     x="166.02"
     font-family="Arial"
     text-anchor="middle" />
  <text
     id="text148"
     font-size="200"
     line-height="125%"
     y="-282.18"
     x="341.85"
     font-family="Gentium Book Basic"
     word-spacing="0"
     letter-spacing="0">
    <tspan
       id="tspan150"
       y="-282.18"
       x="341.85" />
  </text>
  <text
     id="text152"
     transform="scale(4.0128 .2492)"
     font-size="72.67"
     y="-1672.73"
     x="390.2"
     font-family="Arial"
     text-anchor="middle" />
  <text
     id="text154"
     font-size="200"
     line-height="125%"
     y="293.52"
     x="-3567.75"
     font-family="Gentium Book Basic"
     word-spacing="0"
     letter-spacing="0">
    <tspan
       id="tspan156"
       y="293.52"
       x="-3567.75" />
  </text>
  <text
     id="text158"
     transform="scale(4.0128 .2492)"
     font-size="72.67"
     y="637.46"
     x="-584.07"
     font-family="Arial"
     text-anchor="middle" />
  <text
     id="text176"
     font-size="129.23"
     line-height="125%"
     y="231.36"
     x="729.64"
     font-family="Gentium Book Basic"
     word-spacing="0"
     letter-spacing="0">
    <tspan
       id="tspan178"
       y="231.36"
       x="729.64" />
  </text>
  <text
     id="text180"
     transform="scale(4.0128 .2492)"
     font-size="46.954"
     y="579.25"
     x="378.91"
     font-family="Arial"
     text-anchor="middle" />
  <text
     id="text182"
     font-size="129.23"
     line-height="125%"
     y="151.36"
     x="1310.91"
     font-family="Gentium Book Basic"
     word-spacing="0"
     letter-spacing="0">
    <tspan
       id="tspan184"
       y="151.36"
       x="1310.91" />
  </text>
  <text
     id="text186"
     transform="scale(4.0128 .2492)"
     font-size="46.954"
     y="258.22"
     x="523.76"
     font-family="Arial"
     text-anchor="middle" />
  <text
     id="text188"
     font-size="129.23"
     line-height="125%"
     y="-29.901"
     x="239.33"
     font-family="Gentium Book Basic"
     word-spacing="0"
     letter-spacing="0">
    <tspan
       id="tspan190"
       y="-29.901"
       x="239.33" />
  </text>
  <text
     id="text192"
     transform="scale(4.0128 .2492)"
     font-size="46.954"
     y="-469.14"
     x="256.72"
     font-family="Arial"
     text-anchor="middle" />
  <text
     id="text194"
     font-size="129.23"
     line-height="125%"
     y="-246.37"
     x="1337.38"
     font-family="Gentium Book Basic"
     word-spacing="0"
     letter-spacing="0">
    <tspan
       id="tspan196"
       y="-246.37"
       x="1337.38" />
  </text>
  <text
     id="text198"
     transform="scale(4.0128 .2492)"
     font-size="46.954"
     y="-1337.8"
     x="530.36"
     font-family="Arial"
     text-anchor="middle" />
  <text
     id="text200"
     font-size="129.23"
     line-height="125%"
     y="-326.38"
     x="1918.65"
     font-family="Gentium Book Basic"
     word-spacing="0"
     letter-spacing="0">
    <tspan
       id="tspan202"
       y="-326.38"
       x="1918.65" />
  </text>
  <text
     id="text204"
     transform="scale(4.0128 .2492)"
     font-size="46.954"
     y="-1658.84"
     x="675.21"
     font-family="Arial"
     text-anchor="middle" />
  <text
     id="text206"
     font-size="129.23"
     line-height="125%"
     y="-798.78"
     x="1529.53"
     font-family="Gentium Book Basic"
     word-spacing="0"
     letter-spacing="0">
    <tspan
       id="tspan208"
       y="-798.78"
       x="1529.53" />
  </text>
  <text
     id="text210"
     transform="scale(4.0128 .2492)"
     font-size="46.954"
     y="-3554.49"
     x="578.24"
     font-family="Arial"
     text-anchor="middle" />
  <text
     id="text212"
     font-size="129.23"
     line-height="125%"
     y="-878.78"
     x="2110.79"
     font-family="Gentium Book Basic"
     word-spacing="0"
     letter-spacing="0">
    <tspan
       id="tspan214"
       y="-878.78"
       x="2110.79" />
  </text>
  <text
     id="text216"
     transform="scale(4.0128 .2492)"
     font-size="46.954"
     y="-3875.52"
     x="723.09"
     font-family="Arial"
     text-anchor="middle" />
  <g
     id="g218"
     font-family="Gentium Book Basic"
     line-height="125%"
     word-spacing="0"
     letter-spacing="0">
    <text
       id="text220"
       y="535.94"
       x="277.99"
       font-size="208.33">
      <tspan
         id="tspan222"
         y="535.94"
         x="277.99" />
    </text>
    <text
       id="text224"
       y="227.12"
       x="104.96"
       font-size="129.23">
      <tspan
         id="tspan226"
         y="227.12"
         x="104.96" />
    </text>
  </g>
  <text
     id="text228"
     transform="scale(4.0128 .2492)"
     font-size="46.954"
     y="562.23"
     x="223.24"
     font-family="Arial"
     text-anchor="middle" />
  <text
     id="text230"
     font-size="129.23"
     line-height="125%"
     y="147.11"
     x="686.23"
     font-family="Gentium Book Basic"
     word-spacing="0"
     letter-spacing="0">
    <tspan
       id="tspan232"
       y="147.11"
       x="686.23" />
  </text>
  <text
     id="text234"
     transform="scale(4.0128 .2492)"
     font-size="46.954"
     y="241.19"
     x="368.09"
     font-family="Arial"
     text-anchor="middle" />
  <text
     id="text236"
     font-size="129.23"
     line-height="125%"
     y="-34.14"
     x="-385.35"
     font-family="Gentium Book Basic"
     word-spacing="0"
     letter-spacing="0">
    <tspan
       id="tspan238"
       y="-34.14"
       x="-385.35" />
  </text>
  <text
     id="text240"
     transform="scale(4.0128 .2492)"
     font-size="46.954"
     y="-486.16"
     x="101.05"
     font-family="Arial"
     text-anchor="middle" />
  <text
     id="text242"
     font-size="129.23"
     line-height="125%"
     y="-250.62"
     x="712.7"
     font-family="Gentium Book Basic"
     word-spacing="0"
     letter-spacing="0">
    <tspan
       id="tspan244"
       y="-250.62"
       x="712.7" />
  </text>
  <text
     id="text246"
     transform="scale(4.0128 .2492)"
     font-size="46.954"
     y="-1354.84"
     x="374.69"
     font-family="Arial"
     text-anchor="middle" />
  <text
     id="text248"
     font-size="129.23"
     line-height="125%"
     y="-330.62"
     x="1293.97"
     font-family="Gentium Book Basic"
     word-spacing="0"
     letter-spacing="0">
    <tspan
       id="tspan250"
       y="-330.62"
       x="1293.97" />
  </text>
  <text
     id="text252"
     transform="scale(4.0128 .2492)"
     font-size="46.954"
     y="-1675.87"
     x="519.54"
     font-family="Arial"
     text-anchor="middle" />
  <text
     id="text254"
     font-size="129.23"
     line-height="125%"
     y="-803.02"
     x="904.85"
     font-family="Gentium Book Basic"
     word-spacing="0"
     letter-spacing="0">
    <tspan
       id="tspan256"
       y="-803.02"
       x="904.85" />
  </text>
  <text
     id="text258"
     transform="scale(4.0128 .2492)"
     font-size="46.954"
     y="-3571.53"
     x="422.57"
     font-family="Arial"
     text-anchor="middle" />
  <text
     id="text260"
     font-size="129.23"
     line-height="125%"
     y="-883.02"
     x="1486.12"
     font-family="Gentium Book Basic"
     word-spacing="0"
     letter-spacing="0">
    <tspan
       id="tspan262"
       y="-883.02"
       x="1486.12" />
  </text>
  <text
     id="text264"
     transform="scale(4.0128 .2492)"
     font-size="46.954"
     y="-3892.57"
     x="567.42"
     font-family="Arial"
     text-anchor="middle" />
  <g
     id="g266"
     font-family="Gentium Book Basic"
     line-height="125%"
     word-spacing="0"
     letter-spacing="0">
    <text
       id="text268"
       y="531.69"
       x="-346.69"
       font-size="208.33">
      <tspan
         id="tspan270"
         y="531.69"
         x="-346.69" />
    </text>
    <text
       id="text272"
       y="-15.584"
       x="-931.86"
       font-size="200">
      <tspan
         id="tspan274"
         y="-15.584"
         x="-931.86" />
    </text>
  </g>
  <text
     id="text276"
     transform="scale(4.0128 .2492)"
     font-size="72.67"
     y="-602.91"
     x="72.797"
     font-family="Arial"
     text-anchor="middle" />
  <text
     id="text278"
     font-size="200"
     line-height="125%"
     y="37.559"
     x="-186.48"
     font-family="Gentium Book Basic"
     word-spacing="0"
     letter-spacing="0">
    <tspan
       id="tspan280"
       y="37.559"
       x="-186.48" />
  </text>
  <text
     id="text282"
     transform="scale(4.0128 .2492)"
     font-size="72.67"
     y="-389.66"
     x="258.55"
     font-family="Arial"
     text-anchor="middle" />
  <text
     id="text284"
     font-size="200"
     line-height="125%"
     y="-86.26"
     x="713.13"
     font-family="Gentium Book Basic"
     word-spacing="0"
     letter-spacing="0">
    <tspan
       id="tspan286"
       y="-86.26"
       x="713.13" />
  </text>
  <text
     id="text288"
     transform="scale(4.0128 .2492)"
     font-size="72.67"
     y="-886.51"
     x="482.73"
     font-family="Arial"
     text-anchor="middle" />
  <text
     id="text290"
     font-size="200"
     line-height="125%"
     y="-138.9"
     x="-159.02"
     font-family="Gentium Book Basic"
     word-spacing="0"
     letter-spacing="0">
    <tspan
       id="tspan292"
       y="-138.9"
       x="-159.02" />
  </text>
  <text
     id="text294"
     transform="scale(4.0128 .2492)"
     font-size="72.67"
     y="-1097.74"
     x="265.39"
     font-family="Arial"
     text-anchor="middle" />
  <text
     id="text296"
     font-size="200"
     line-height="125%"
     y="-262.71"
     x="740.6"
     font-family="Gentium Book Basic"
     word-spacing="0"
     letter-spacing="0">
    <tspan
       id="tspan298"
       y="-262.71"
       x="740.6" />
  </text>
  <text
     id="text300"
     transform="scale(4.0128 .2492)"
     font-size="72.67"
     y="-1594.6"
     x="489.57"
     font-family="Arial"
     text-anchor="middle" />
  <text
     id="text302"
     font-size="200"
     line-height="125%"
     y="312.99"
     x="-3169"
     font-family="Gentium Book Basic"
     word-spacing="0"
     letter-spacing="0">
    <tspan
       id="tspan304"
       y="312.99"
       x="-3169" />
  </text>
  <text
     id="text306"
     transform="scale(4.0128 .2492)"
     font-size="72.67"
     y="715.59"
     x="-484.7"
     font-family="Arial"
     text-anchor="middle" />
  <text
     id="text308"
     font-size="200"
     line-height="125%"
     y="77.56"
     x="-1240.72"
     font-family="Gentium Book Basic"
     word-spacing="0"
     letter-spacing="0">
    <tspan
       id="tspan310"
       y="77.56"
       x="-1240.72" />
  </text>
  <text
     id="text312"
     transform="scale(4.0128 .2492)"
     font-size="72.67"
     y="-229.14"
     x="-4.17"
     font-family="Arial"
     text-anchor="middle" />
  <text
     id="text314"
     font-size="200"
     line-height="125%"
     y="130.7"
     x="-495.34"
     font-family="Gentium Book Basic"
     word-spacing="0"
     letter-spacing="0">
    <tspan
       id="tspan316"
       y="130.7"
       x="-495.34" />
  </text>
  <text
     id="text318"
     transform="scale(4.0128 .2492)"
     font-size="72.67"
     y="-15.889"
     x="181.58"
     font-family="Arial"
     text-anchor="middle" />
  <text
     id="text320"
     font-size="200"
     line-height="125%"
     y="6.884"
     x="404.27"
     font-family="Gentium Book Basic"
     word-spacing="0"
     letter-spacing="0">
    <tspan
       id="tspan322"
       y="6.884"
       x="404.27" />
  </text>
  <text
     id="text324"
     transform="scale(4.0128 .2492)"
     font-size="72.67"
     y="-512.75"
     x="405.76"
     font-family="Arial"
     text-anchor="middle" />
  <text
     id="text326"
     font-size="200"
     line-height="125%"
     y="-45.754"
     x="-467.88"
     font-family="Gentium Book Basic"
     word-spacing="0"
     letter-spacing="0">
    <tspan
       id="tspan328"
       y="-45.754"
       x="-467.88" />
  </text>
  <text
     id="text330"
     transform="scale(4.0128 .2492)"
     font-size="72.67"
     y="-723.97"
     x="188.42"
     font-family="Arial"
     text-anchor="middle" />
  <text
     id="text332"
     font-size="200"
     line-height="125%"
     y="-169.57"
     x="431.74"
     font-family="Gentium Book Basic"
     word-spacing="0"
     letter-spacing="0">
    <tspan
       id="tspan334"
       y="-169.57"
       x="431.74" />
  </text>
  <text
     id="text336"
     transform="scale(4.0128 .2492)"
     font-size="72.67"
     y="-1220.83"
     x="412.61"
     font-family="Arial"
     text-anchor="middle" />
  <text
     id="text338"
     font-size="200"
     line-height="125%"
     y="406.13"
     x="-3477.86"
     font-family="Gentium Book Basic"
     word-spacing="0"
     letter-spacing="0">
    <tspan
       id="tspan340"
       y="406.13"
       x="-3477.86" />
  </text>
  <text
     id="text342"
     transform="scale(4.0128 .2492)"
     font-size="72.67"
     y="1089.36"
     x="-561.67"
     font-family="Arial"
     text-anchor="middle" />
  <text
     id="text344"
     font-size="200"
     line-height="125%"
     y="-39.3"
     x="-1955.29"
     font-family="Gentium Book Basic"
     word-spacing="0"
     letter-spacing="0">
    <tspan
       id="tspan346"
       y="-39.3"
       x="-1955.29" />
  </text>
  <text
     id="text348"
     transform="scale(4.0128 .2492)"
     font-size="72.67"
     y="-698.07"
     x="-182.24"
     font-family="Arial"
     text-anchor="middle" />
  <text
     id="text350"
     font-size="200"
     line-height="125%"
     y="13.844"
     x="-1209.91"
     font-family="Gentium Book Basic"
     word-spacing="0"
     letter-spacing="0">
    <tspan
       id="tspan352"
       y="13.844"
       x="-1209.91" />
  </text>
  <text
     id="text354"
     transform="scale(4.0128 .2492)"
     font-size="72.67"
     y="-484.82"
     x="3.507"
     font-family="Arial"
     text-anchor="middle" />
  <text
     id="text356"
     font-size="200"
     line-height="125%"
     y="-109.97"
     x="-310.3"
     font-family="Gentium Book Basic"
     word-spacing="0"
     letter-spacing="0">
    <tspan
       id="tspan358"
       y="-109.97"
       x="-310.3" />
  </text>
  <text
     id="text360"
     transform="scale(4.0128 .2492)"
     font-size="72.67"
     y="-981.68"
     x="227.69"
     font-family="Arial"
     text-anchor="middle" />
  <text
     id="text362"
     font-size="200"
     line-height="125%"
     y="-162.61"
     x="-1182.45"
     font-family="Gentium Book Basic"
     word-spacing="0"
     letter-spacing="0">
    <tspan
       id="tspan364"
       y="-162.61"
       x="-1182.45" />
  </text>
  <text
     id="text366"
     transform="scale(4.0128 .2492)"
     font-size="72.67"
     y="-1192.9"
     x="10.351"
     font-family="Arial"
     text-anchor="middle" />
  <text
     id="text368"
     font-size="200"
     line-height="125%"
     y="-286.43"
     x="-282.83"
     font-family="Gentium Book Basic"
     word-spacing="0"
     letter-spacing="0">
    <tspan
       id="tspan370"
       y="-286.43"
       x="-282.83" />
  </text>
  <text
     id="text372"
     transform="scale(4.0128 .2492)"
     font-size="72.67"
     y="-1689.76"
     x="234.54"
     font-family="Arial"
     text-anchor="middle" />
  <text
     id="text374"
     font-size="200"
     line-height="125%"
     y="289.27"
     x="-4192.43"
     font-family="Gentium Book Basic"
     word-spacing="0"
     letter-spacing="0">
    <tspan
       id="tspan376"
       y="289.27"
       x="-4192.43" />
  </text>
  <text
     id="text378"
     transform="scale(4.0128 .2492)"
     font-size="72.67"
     y="620.43"
     x="-739.74"
     font-family="Arial"
     text-anchor="middle" />
  <g
     id="g380"
     transform="matrix(16.269171,0,0,16.269171,44.50678,3.8288527)"
     style="fill:#BFBFBF">
    <path
       id="path382"
       d="m 7,22 0,1 c 0,0.551 -0.449,1 -1,1 L 4,24 C 3.449,24 3,23.551 3,23 l 0,-1 4,0"
       inkscape:connector-curvature="0" />
    <path
       id="path384"
       d="m 23,22 0,1 c 0,0.551 -0.449,1 -1,1 l -2,0 c -0.551,0 -1,-0.449 -1,-1 l 0,-1 4,0"
       inkscape:connector-curvature="0" />
    <path
       id="path386"
       d="M 23,7 3,7 C 1.343,7 0,8.344 0,10 l 0,8 c 0,1.656 1.343,3 3,3 l 20,0 c 1.657,0 3,-1.344 3,-3 l 0,-8 C 26,8.344 24.657,7 23,7 m -12.5,10 -7,0 C 3.224,17 3,16.775 3,16.5 3,16.225 3.224,16 3.5,16 l 7,0 c 0.276,0 0.5,0.225 0.5,0.5 0,0.275 -0.224,0.5 -0.5,0.5 m 0,-2 -7,0 C 3.224,15 3,14.775 3,14.5 3,14.225 3.224,14 3.5,14 l 7,0 c 0.276,0 0.5,0.225 0.5,0.5 0,0.275 -0.224,0.5 -0.5,0.5 m 0,-2 -7,0 C 3.224,13 3,12.776 3,12.5 3,12.224 3.224,12 3.5,12 l 7,0 c 0.276,0 0.5,0.224 0.5,0.5 0,0.276 -0.224,0.5 -0.5,0.5 m 8.5,6.06 c -2.793,0 -5.059,-2.265 -5.059,-5.059 0,-2.794 2.266,-5.059 5.059,-5.059 2.793,0 5.059,2.265 5.059,5.059 0,2.794 -2.266,5.059 -5.059,5.059"
       inkscape:connector-curvature="0" />
    <circle
       id="circle388"
       cy="14"
       cx="19"
       r="2.813" />
  </g>
</svg>
