<?xml version='1.0' encoding='UTF-8' standalone='no'?>
<!-- Created with Inkscape (http://www.inkscape.org/) -->

<svg xmlns:cc='http://creativecommons.org/ns#' xmlns:dc='http://purl.org/dc/elements/1.1/' sodipodi:docname='video-joined-displays-symbolic.svg' inkscape:export-filename='/home/sam/dev/RESOURCES/gnome-icon-theme-symbolic/src/gnome-stencils.png' inkscape:export-xdpi='90' inkscape:export-ydpi='90' height='16' id='svg7384' xmlns:inkscape='http://www.inkscape.org/namespaces/inkscape' xmlns:osb='http://www.openswatchbook.org/uri/2009/osb' xmlns:rdf='http://www.w3.org/1999/02/22-rdf-syntax-ns#' xmlns:sodipodi='http://sodipodi.sourceforge.net/DTD/sodipodi-0.dtd' xmlns:svg='http://www.w3.org/2000/svg' version='1.1' inkscape:version='0.92+devel unknown' viewBox='0 0 16 16' width='16' xmlns='http://www.w3.org/2000/svg'>
  <metadata id='metadata90'>
    <rdf:RDF>
      <cc:Work rdf:about=''>
        <dc:format>image/svg+xml</dc:format>
        <dc:type rdf:resource='http://purl.org/dc/dcmitype/StillImage'/>
        <dc:title>Gnome Symbolic Icon Theme</dc:title>
      </cc:Work>
    </rdf:RDF>
  </metadata>
  <sodipodi:namedview inkscape:bbox-nodes='true' inkscape:bbox-paths='true' bordercolor='#666666' borderopacity='1' inkscape:current-layer='layer10' inkscape:cx='30.867139' inkscape:cy='-9.38963' inkscape:document-rotation='0' inkscape:document-units='px' gridtolerance='10' inkscape:guide-bbox='true' guidetolerance='10' id='namedview88' inkscape:measure-end='0,0' inkscape:measure-start='0,0' inkscape:object-nodes='true' inkscape:object-paths='false' objecttolerance='10' pagecolor='#3a3b39' inkscape:pageopacity='1' inkscape:pageshadow='2' showborder='false' showgrid='false' showguides='true' inkscape:snap-bbox='true' inkscape:snap-bbox-midpoints='false' inkscape:snap-global='true' inkscape:snap-grids='true' inkscape:snap-nodes='true' inkscape:snap-others='false' inkscape:snap-to-guides='true' inkscape:window-height='1376' inkscape:window-maximized='1' inkscape:window-width='3440' inkscape:window-x='0' inkscape:window-y='27' inkscape:zoom='1'>
    <inkscape:grid dotted='false' empspacing='2' enabled='true' id='grid4866' originx='-40' originy='330' snapvisiblegridlinesonly='true' spacingx='1px' spacingy='1px' type='xygrid' visible='true'/>
  </sodipodi:namedview>
  <title id='title9167'>Gnome Symbolic Icon Theme</title>
  <defs id='defs7386'>
    <linearGradient gradientTransform='matrix(-2.7365795,0.28202934,-0.18908311,-0.99988321,239.54008,-879.45557)' id='linearGradient19282' osb:paint='solid'>
      <stop id='stop19284' offset='0' style='stop-color:#666666;stop-opacity:1;'/>
    </linearGradient>
  </defs>
  <g inkscape:groupmode='layer' id='layer9' inkscape:label='status' style='display:inline' transform='translate(-281.0002,-547)'/>
  <g inkscape:groupmode='layer' id='layer10' inkscape:label='devices' style='display:inline' transform='translate(-281.0002,-547)'>

    <path inkscape:connector-curvature='0' d='m 287.0002,553 c 1.662,0 3,1.338 3,3 v 1 c 0,1.662 -1.338,3 -3,3 h -3 c -1.662,0 -3,-1.338 -3,-3 v -1 c 0,-1.662 1.338,-3 3,-3 z m 0,2 h -3 c -0.554,0 -1,0.446 -1,1 v 1 c 0,0.554 0.446,1 1,1 h 3 c 0.554,0 1,-0.446 1,-1 v -1 c 0,-0.554 -0.446,-1 -1,-1 z' id='path5559' sodipodi:nodetypes='ssssssssssssssssss' style='fill:#BFBFBF;fill-opacity:1;stroke:none'/>
    <path inkscape:connector-curvature='0' d='m 285.5002,561 c -2.5,0 -2.5,0.5 -2.5,0.5 0,0.5 0.5,0.5 0.5,0.5 h 4 c 0.5,0 0.5,-0.5 0.5,-0.5 0,0 0,-0.5 -2.5,-0.5 z' id='path5561' sodipodi:nodetypes='sscccs' style='fill:#BFBFBF;fill-opacity:1;stroke:none;stroke-width:0.5'/>
    <path inkscape:connector-curvature='0' d='m 294.0002,550.0625 c 1.662,0 3,1.338 3,3 V 557 c 0,1.662 -1.338,3 -3,3 h -3 c -1.662,0 -3,-1.338 -3,-3 v -3.9375 c 0,-1.662 1.338,-3 3,-3 z m 0,2 h -3 c -0.554,0 -1,0.446 -1,1 V 557 c 0,0.554 0.446,1 1,1 h 3 c 0.554,0 1,-0.446 1,-1 v -3.9375 c 0,-0.554 -0.446,-1 -1,-1 z' id='path5565' sodipodi:nodetypes='ssssssssssssssssss' style='fill:#BFBFBF;fill-opacity:1;stroke:none'/>
    <path inkscape:connector-curvature='0' d='m 292.5002,561 c -2.5,0 -2.5,0.5 -2.5,0.5 0,0.5 0.5,0.5 0.5,0.5 h 4 c 0.5,0 0.5,-0.5 0.5,-0.5 0,0 0,-0.5 -2.5,-0.5 z' id='path5567' sodipodi:nodetypes='sscccs' style='fill:#BFBFBF;fill-opacity:1;stroke:none;stroke-width:0.5'/>
  </g>
  <g inkscape:groupmode='layer' id='layer11' inkscape:label='apps' transform='translate(-281.0002,-547)'/>
  <g inkscape:groupmode='layer' id='layer13' inkscape:label='places' style='display:inline' transform='translate(-281.0002,-547)'/>
  <g inkscape:groupmode='layer' id='layer14' inkscape:label='mimetypes' transform='translate(-281.0002,-547)'/>
  <g inkscape:groupmode='layer' id='layer15' inkscape:label='emblems' style='display:inline' transform='translate(-281.0002,-547)'/>
  <g inkscape:groupmode='layer' id='g71291' inkscape:label='emotes' style='display:inline' transform='translate(-281.0002,-547)'/>
  <g inkscape:groupmode='layer' id='g4953' inkscape:label='categories' style='display:inline' transform='translate(-281.0002,-547)'/>
  <g inkscape:groupmode='layer' id='layer12' inkscape:label='actions' style='display:inline' transform='translate(-281.0002,-547)'/>
</svg>
