<?xml version="1.0" encoding="UTF-8" standalone="no"?>
<svg
   xmlns:dc="http://purl.org/dc/elements/1.1/"
   xmlns:cc="http://creativecommons.org/ns#"
   xmlns:rdf="http://www.w3.org/1999/02/22-rdf-syntax-ns#"
   xmlns:svg="http://www.w3.org/2000/svg"
   xmlns="http://www.w3.org/2000/svg"
   xmlns:sodipodi="http://sodipodi.sourceforge.net/DTD/sodipodi-0.dtd"
   xmlns:inkscape="http://www.inkscape.org/namespaces/inkscape"
   height="513"
   width="512"
   version="1.1"
   id="svg6"
   sodipodi:docname="folder-blue.svg"
   inkscape:version="0.92.2 2405546, 2018-03-11">
  <metadata
     id="metadata12">
    <rdf:RDF>
      <cc:Work
         rdf:about="">
        <dc:format>image/svg+xml</dc:format>
        <dc:type
           rdf:resource="http://purl.org/dc/dcmitype/StillImage" />
      </cc:Work>
    </rdf:RDF>
  </metadata>
  <defs
     id="defs10" />
  <sodipodi:namedview
     pagecolor="#ffffff"
     bordercolor="#666666"
     borderopacity="1"
     objecttolerance="10"
     gridtolerance="10"
     guidetolerance="10"
     inkscape:pageopacity="0"
     inkscape:pageshadow="2"
     inkscape:window-width="1314"
     inkscape:window-height="543"
     id="namedview8"
     showgrid="false"
     inkscape:zoom="0.46003899"
     inkscape:cx="256"
     inkscape:cy="256.5"
     inkscape:window-x="0"
     inkscape:window-y="27"
     inkscape:window-maximized="0"
     inkscape:current-layer="svg6" />
  <path
     d="M 33.692795,71.733047 H 217.37287 V 116.29449 H 33.692795 Z"
     id="path2"
     style="fill:#0044d8;fill-rule:evenodd"
     inkscape:connector-curvature="0" />
  <path
     d="M 8.6949148,115.20763 H 502.13137 v 326.0593 H 8.6949148 Z"
     id="path4"
     style="fill:#0064e0;fill-rule:evenodd"
     inkscape:connector-curvature="0" />
</svg>
