<svg xmlns="http://www.w3.org/2000/svg" width="48" height="48">
<defs>
<defs
     id="defs3">
  </defs>
  <path
     d="M 24,2 C 11.86087,2 1.9999999,11.849416 2,23.984093 2,36.118769 11.859951,46 24,46 36.14005,46 46,36.118769 46,23.984093 46,11.849416 36.139131,2 24,2 z m 12.694767,9.989877 c 1.625602,2.469299 3.110118,5.283252 3.83721,8.812726 L 22.081395,36.550976 10.026163,25.065799 l 6.843023,-5.567607 4.540698,4.994939 0.351744,0.349964 0.351744,-0.318149 14.581395,-12.535069 z"
     id="path-main"
      />
</defs>

<use id="1" style="fill:#545C70" xlink:href="#path-main" />



</svg>
