<svg xmlns="http://www.w3.org/2000/svg" width="48" height="48">
<defs>
<defs
     id="defs1874">
  </defs>
  <path
     d="M 24,2 C 11.849736,2 2,11.846434 2,24 2,36.153566 11.849736,46 24,46 36.150264,46 46,36.153566 46,24 46,11.846434 36.150264,2 24,2 z m -6.645833,4.8503937 c 0.147178,-0.02048 0.290608,0.015312 0.401041,0.1154856 0.110436,0.1001737 0.176633,0.2545318 0.171875,0.4041994 l 0,0.9238843 c 0.332444,-0.02417 0.669552,-0.02825 1.002604,-0.02887 0.190348,-3.52e-4 0.384356,0.02304 0.572917,0.02887 l 0,-0.8083987 c -0.01077,-0.2488846 0.159048,-0.4689453 0.401042,-0.519685 0.155764,-0.040773 0.333778,-0.016096 0.458333,0.086614 0.124555,0.1027104 0.180683,0.2711152 0.171875,0.4330709 l 0,0.8372708 c 1.931111,0.158128 3.494792,0.548556 3.494792,0.548556 0.30317,0.05071 0.563141,0.254225 0.658854,0.548557 0.09571,0.294331 0.01406,0.644408 -0.200521,0.866141 -0.214576,0.221734 -0.536398,0.291188 -0.830729,0.2021 0,0 -1.416463,-0.312222 -3.122396,-0.461942 l 0,5.427821 c 0.572415,0.135649 1.12018,0.280469 1.632813,0.490814 0.5046,0.207048 0.998207,0.477054 1.375,0.895013 0.376792,0.417959 0.619939,0.990661 0.630208,1.616798 0.02313,1.421999 -0.934692,2.473735 -2.0625,2.91601 -0.493752,0.193628 -1.025918,0.306717 -1.575521,0.375328 l 0,1.818898 c 0,0.287014 -0.230853,0.519685 -0.515625,0.519685 -0.284772,0 -0.515625,-0.232671 -0.515625,-0.519685 l 0,-1.732283 c -0.381002,0.0084 -0.76133,-0.0079 -1.145833,-0.02887 -0.143991,-0.0079 -0.286403,-0.01771 -0.429688,-0.02887 l 0,1.674541 c 0.02074,0.193518 -0.06549,0.387512 -0.229166,0.490813 -0.16368,0.103303 -0.380592,0.103304 -0.544271,0 -0.163679,-0.103302 -0.249903,-0.297295 -0.229167,-0.490813 l 0,-1.790027 c -2.045366,-0.255218 -3.752604,-0.721784 -3.752604,-0.721784 -0.32087,-0.0397 -0.590306,-0.26668 -0.6875,-0.577428 -0.09719,-0.310751 -0.0111,-0.648153 0.229167,-0.866142 0.24027,-0.217989 0.591579,-0.274336 0.888021,-0.144357 0,0 1.52699,0.400003 3.322916,0.635171 l 0,-3.666667 C 16.272347,16.11692 15.639303,15.858904 15.0625,15.48294 c -1.036703,-0.675732 -1.850301,-1.853095 -1.861979,-3.406825 -0.01119,-1.477724 0.893808,-2.575569 2.005208,-3.11811 0.52982,-0.258636 1.119824,-0.413408 1.71875,-0.519685 l 0,-1.0682413 c -0.0086,-0.2581029 0.17625,-0.4816579 0.429688,-0.519685 z m 1.57552,3.0892393 c -0.342701,6.33e-4 -0.675829,0.0317 -1.002604,0.05774 l 0,4.850394 c 0.305025,0.07897 0.592964,0.161065 0.916667,0.230971 0.217183,0.0469 0.439704,0.09848 0.658854,0.144357 l 0,-5.254593 c -0.193251,-0.0067 -0.379354,-0.02923 -0.572917,-0.02887 z m -2.005208,0.173228 c -0.376569,0.07627 -0.724108,0.181634 -1.002604,0.317585 -0.723059,0.352969 -1.066721,0.744449 -1.059896,1.645669 0.008,1.061473 0.387438,1.564012 1.088542,2.020998 0.270517,0.176325 0.613156,0.330183 0.973958,0.461942 l 0,-4.446194 z m 1.002604,6.467191 0,3.493439 c 0.175388,0.01478 0.340202,0.04817 0.515625,0.05774 0.360171,0.01966 0.717637,0.03963 1.059896,0.02887 l 0,-3.233596 C 19.171523,16.857186 18.849518,16.799891 18.5,16.724409 c -0.191175,-0.04129 -0.380477,-0.09879 -0.572917,-0.144357 z m 2.606771,0.577428 0,2.887139 c 0.360068,-0.05525 0.706955,-0.126264 0.973958,-0.230971 0.730301,-0.28639 1.015511,-0.534575 1.002605,-1.328084 -0.0043,-0.263761 -0.06288,-0.395881 -0.200521,-0.548556 -0.137639,-0.152676 -0.406752,-0.311483 -0.773438,-0.461942 -0.279367,-0.11463 -0.628424,-0.224527 -1.002604,-0.317586 z m 10.197917,4.879265 c 0.03817,-0.0019 0.07641,-0.0019 0.114583,0 3.931259,0.09431 5.61487,0.173159 6.388021,0.230972 0.193287,0.01445 0.341168,0.04185 0.458333,0.05774 0.05858,0.0079 0.101843,0.01334 0.171875,0.02887 0.07003,0.01553 0.134036,0.0064 0.372396,0.144357 0.05959,0.03449 0.136195,0.05541 0.229167,0.144357 0.04648,0.04447 0.142941,0.172821 0.143229,0.173228 2.88e-4,4.07e-4 0.143084,0.28832 0.143229,0.288714 1.45e-4,3.93e-4 0.08593,0.374947 0.08594,0.375328 4e-6,1.48e-4 -0.01925,0.07366 -0.02865,0.144357 l 1.174479,6.149606 c 0.118655,0.645782 -0.304576,1.266238 -0.945313,1.385827 -0.640736,0.119589 -1.256344,-0.306975 -1.375,-0.952756 l -0.716145,-3.955376 c -0.08657,0.07184 -0.187776,0.128191 -0.257813,0.202099 l -7.820312,8.834646 c -0.251524,0.2823 -0.628252,0.415342 -1.002605,0.375328 -0.374353,-0.04002 -0.700846,-0.248233 -0.88802,-0.577428 L 23.455727,28.792651 15.46354,37.973753 C 15.036384,38.468056 14.292524,38.51976 13.802083,38.089239 13.311643,37.658718 13.260343,36.909 13.6875,36.414698 l 9.080729,-10.451443 c 0.250803,-0.29462 0.619526,-0.444539 1.002604,-0.4042 0.383079,0.04034 0.731703,0.265793 0.916667,0.606299 l 3.523437,6.293964 6.703125,-7.593176 c 0.05438,-0.06313 0.241248,-0.197844 0.372396,-0.317586 -0.926073,-0.03913 -2.188471,-0.08896 -4.497396,-0.144357 -0.648647,0.01595 -1.187304,-0.501101 -1.203125,-1.154855 -0.01582,-0.653755 0.497187,-1.196653 1.145834,-1.212599 z"
     id="path-main"
      />
</defs>

<use id="1" style="fill:#545C70" xlink:href="#path-main" />



</svg>
