<svg xmlns="http://www.w3.org/2000/svg" width="48" height="48">
<defs>
<defs
     id="defs1874">
  </defs>
  <path
     d="M 24,2 C 11.853579,2 2,11.851538 2,24 2,36.148461 11.853579,46 24,46 36.146421,46 46,36.148461 46,24 46,11.851539 36.146421,2 24,2 z m -8.713725,5.5 c 0.268383,-0.034396 0.548292,0.047826 0.747712,0.2328042 0.19942,0.184978 0.298152,0.4539748 0.287582,0.7275128 l 0,4.161376 4.026143,0 c 0.33188,-0.0047 0.637919,0.175536 0.805229,0.465609 0.167309,0.290071 0.167309,0.641145 0,0.931217 -0.16731,0.290072 -0.473349,0.470357 -0.805229,0.465608 l -4.026143,0 0,3.783069 c 0.0047,0.33583 -0.173471,0.645513 -0.460131,0.814815 -0.286659,0.1693 -0.633603,0.1693 -0.920262,0 -0.286659,-0.169302 -0.464824,-0.478985 -0.46013,-0.814815 l 0,-3.783069 -3.824837,0 c -0.331879,0.0047 -0.637919,-0.175536 -0.8052286,-0.465608 -0.1673094,-0.290072 -0.1673094,-0.641146 0,-0.931217 0.1673096,-0.290073 0.4733496,-0.470358 0.8052286,-0.465609 l 3.824837,0 0,-4.161376 C 14.462456,7.9772479 14.812233,7.5601057 15.286275,7.5 z m 17.42745,6.664021 c 0.331707,-0.01842 0.65525,0.153151 0.833987,0.436508 0.178739,0.283357 0.184931,0.634518 0.02876,0.931217 l -0.977778,2.007937 c 0.608096,0.152005 1.208678,0.32059 1.811765,0.523809 l 0.891503,-1.775132 c 0.150891,-0.343657 0.491222,-0.561765 0.862745,-0.55291 0.316371,0.0126 0.59,0.1878 0.747712,0.465608 0.157715,0.277808 0.177371,0.619217 0.02876,0.902117 l -0.805228,1.629629 c 1.449465,0.612209 2.709464,1.525865 3.853594,2.589947 0.265317,0.308701 0.384482,0.54822 0.402615,0.727514 0.03197,0.143147 0.06336,0.382026 -0.08628,0.669312 -0.149637,0.287286 -0.467724,0.459481 -0.661438,0.494709 -0.271523,0.07431 -0.482571,0.01 -0.77647,-0.145503 -0.277352,-0.128372 -0.555794,-0.321378 -0.805229,-0.465608 -0.931383,-0.676549 -1.910964,-1.281162 -2.904575,-1.862434 l -4.313726,8.730158 c 0.970269,0.920644 1.962752,1.647999 2.616994,3.026455 0.459732,1.046372 0.361357,2.179311 -0.05752,3.113757 -0.418874,0.934447 -1.116841,1.684065 -1.984314,2.18254 -1.591117,0.998669 -3.405757,1.07581 -5.061438,0.785714 l -1.26536,2.589947 c -0.140755,0.310703 -0.439446,0.530178 -0.77647,0.55291 -0.337025,0.02273 -0.653723,-0.147462 -0.833987,-0.436508 -0.180265,-0.289049 -0.194078,-0.662261 -0.02876,-0.960317 l 1.092818,-2.240741 c -0.581639,-0.217039 -1.118978,-0.529107 -1.667974,-0.814815 l -1.150326,2.328043 c -0.140756,0.310702 -0.439447,0.530178 -0.776471,0.55291 -0.337025,0.02273 -0.653722,-0.147462 -0.833987,-0.436508 -0.180264,-0.289049 -0.194078,-0.662261 -0.02876,-0.960318 l 1.265359,-2.560846 c -1.666099,-1.117906 -2.924281,-2.638567 -4.026143,-4.306879 -0.270006,-0.425902 -0.162069,-0.978102 0.258823,-1.251322 0.420892,-0.27322 0.995354,-0.163998 1.26536,0.261904 0.968914,1.325931 2.115406,2.493486 3.335947,3.579365 l 3.364706,-6.809523 c -1.466597,-1.601341 -2.872122,-3.593511 -2.875817,-6.111111 -2.9e-5,-0.02001 -1.44e-4,-0.03812 0,-0.0582 -0.0801,-1.944163 1.254754,-3.609211 2.99085,-4.161375 1.163567,-0.375505 2.341361,-0.477981 3.479738,-0.407408 0.540298,0.0335 1.060064,0.111001 1.5817,0.203704 l 1.207843,-2.444444 c 0.14567,-0.304283 0.442871,-0.504776 0.77647,-0.52381 z m -7.793464,7.595238 c 0.0035,1.445283 0.920763,2.47362 1.811765,3.492064 l 3.048366,-6.198413 c -2.35294,-0.334431 -4.67308,0.237182 -4.860131,2.706349 z m 6.75817,-2.386243 -3.623529,7.362434 c 0.459373,0.46803 0.953745,0.902669 1.437908,1.367725 l 3.997386,-8.119048 c -0.595335,-0.242909 -1.198744,-0.453069 -1.811765,-0.611111 z m -4.773856,9.719577 -3.220915,6.518518 c 0.555091,0.298359 1.161374,0.469863 1.754248,0.669312 l 2.904576,-5.849206 c -0.479663,-0.432059 -0.953941,-0.853468 -1.437909,-1.338624 z m 2.818301,2.648148 -2.415686,4.917989 c 1.457713,0.0897 3.01662,-0.255702 3.738562,-1.396825 0.578204,-1.47302 -0.341396,-2.402684 -1.322876,-3.521164 z"
     id="path-main"
      />
</defs>

<use id="1" style="fill:#545C70" xlink:href="#path-main" />



</svg>
