<svg xmlns="http://www.w3.org/2000/svg" width="48" height="48">
<defs>
<defs
     id="defs4" />
  <g
     id="layer1">
    <path
       d="M 21.467377,42.431893 C 36.48311,36.094212 41.560392,21.16245 29.886425,11.489786 L 37.110176,3.1152189 L 11,3.1275968 L 14.084482,29.809136 C 14.084482,29.809136 21.533963,21.172877 21.533963,21.172877 C 27.344335,25.74482 27.681519,34.712322 19.913931,40.829425 L 21.467377,42.431893 z"
       id="path-main"
        />
  </g>
</defs>

<use id="1" style="fill:#545C70;opacity:0.7" xlink:href="#path-main" />



</svg>
