<svg xmlns="http://www.w3.org/2000/svg" width="48" height="48">
<defs>
<defs
     id="defs1874">
  </defs>
  <path
     d="M 24,2 C 11.845814,2 2,11.851543 2,24 2,36.148456 11.845814,46 24,46 36.154186,46 46,36.148456 46,24 46,11.851543 36.154187,2 24,2 z M 8.6631854,13.727513 c 0.069012,-0.0071 0.1320322,-0.0071 0.2010444,0 l 30.3864232,0 c 0.337756,0.0012 0.662268,0.162743 0.832898,0.436508 0.170629,0.273765 0.164254,0.595836 0,0.873016 L 24.890339,39.743386 c -0.169507,0.280956 -0.489063,0.465608 -0.832898,0.465609 -0.343834,0 -0.66339,-0.184652 -0.832898,-0.465609 L 8.0313316,15.037037 C 7.8752294,14.788656 7.8504402,14.486313 7.9738903,14.222222 8.0973403,13.95813 8.3628468,13.787691 8.6631854,13.727513 z m 21.4830286,3.84127 c -0.489505,0.01347 -0.915261,0.305949 -1.120104,0.756614 l -5.169713,8.992063 -5.112272,-8.992063 c -0.253672,-0.471485 -0.766693,-0.737164 -1.292428,-0.669312 -0.422712,0.06413 -0.79229,0.336719 -0.976501,0.727513 -0.184211,0.390793 -0.159011,0.848782 0.05744,1.222222 l 6.203655,10.9709 c 0.228327,0.409085 0.65627,0.669312 1.120105,0.669312 0.463835,1e-6 0.891778,-0.260227 1.120104,-0.669312 l 6.261097,-10.941799 c 0.286978,-0.402029 0.31484,-0.928988 0.08616,-1.367725 -0.228678,-0.438738 -0.688042,-0.711881 -1.177546,-0.698413 z"
     id="path-main"
      />
</defs>

<use id="1" style="fill:#545C70" xlink:href="#path-main" />



</svg>
