<svg xmlns="http://www.w3.org/2000/svg" height="513" width="512">
 <path d="M33.693 71.733h183.68v44.56H33.693z" fill="#6F778A" fill-rule="evenodd"/>
 <path d="M8.695 115.208H502.13v326.06H8.696z" fill="#8792A8" fill-rule="evenodd"/>
 <g fill="#3F4554">
  <path d="M408.466 264.024c-39.33 0-71.677 30.112-75.97 68.67h-17.53l25.5 34.335 25.5-34.336h-16.203c4.142-29.1 28.742-51.502 58.703-51.502 32.86 0 59.5 26.9 59.5 60.086 0 33.185-26.64 60.086-59.5 60.086-18.59 0-35.028-8.804-45.953-22.264l-12.218 12.34c13.966 16.592 34.88 27.09 58.17 27.09 42.25 0 76.5-34.588 76.5-77.255 0-42.666-34.25-77.254-76.5-77.254z" fill-rule="evenodd"/>
  <path d="M399.966 298.36v47.21l31.344 28.97 5.84-5.897-28.688-27.365v-42.92h-8.5z"/>
 </g>
</svg>
