<?xml version="1.0" encoding="UTF-8" standalone="no"?>
<svg xmlns:dc="http://purl.org/dc/elements/1.1/" xmlns:cc="http://creativecommons.org/ns#" xmlns:rdf="http://www.w3.org/1999/02/22-rdf-syntax-ns#" xmlns:svg="http://www.w3.org/2000/svg" xmlns="http://www.w3.org/2000/svg" xmlns:sodipodi="http://sodipodi.sourceforge.net/DTD/sodipodi-0.dtd" xmlns:inkscape="http://www.inkscape.org/namespaces/inkscape" viewBox="0 0 512 512" height="512" width="512" version="1.1" id="svg2" inkscape:version="0.91 r" sodipodi:docname="document-multiple.svg">
<sodipodi:namedview pagecolor="#ffffff" bordercolor="#6F778A" borderopacity="1" objecttolerance="10" gridtolerance="10" guidetolerance="10" inkscape:pageopacity="0" inkscape:pageshadow="2" inkscape:window-width="640" inkscape:window-height="480" id="namedview24" showgrid="false" inkscape:zoom="0.4609375" inkscape:cx="218.0339" inkscape:cy="256" inkscape:window-x="0" inkscape:window-y="0" inkscape:window-maximized="0" inkscape:current-layer="svg2" />
<metadata id="metadata711">
<rdf:RDF>
<cc:Work rdf:about="">
<dc:format>image/svg+xml</dc:format>
<dc:type rdf:resource="http://purl.org/dc/dcmitype/StillImage" />
</cc:Work>
</rdf:RDF>
</metadata>
<defs id="defs4">
<linearGradient gradientUnits="userSpaceOnUse" id="0-3" y2="471.66" x2="0" y1="33.753">
<stop id="stop7-6" stop-color="#6a6a6a" />
<stop offset="0.47" id="stop9-1" />
<stop offset="0.494" id="stop11-7" stop-color="#ffffff" />
<stop offset="0.901" id="stop13-8" stop-color="#ffffff" />
<stop offset="0.955" id="stop15-1" />
<stop offset="1" id="stop17-5" />
</linearGradient>
</defs>
<g id="g3352" transform="matrix(1.5397966,0,0,1.5397966,-133.8499,-136.01843)">
<path id="path699" d="m 181.82,148.37 c -7.43,0 -13.469,6 -13.469,13.438 l 0,188.38 c 0,7.437 6.04,13.438 13.469,13.438 l 1.531,0 0,-186.81 c 0,-7.437 6.04,-13.438 13.469,-13.438 l 34.469,0 65.875,0 13.469,0 -14.688,-14.875 0,-0.125 -0.125,0 -13.656,0 -65.875,0 -34.469,0" inkscape:connector-curvature="0" style="fill:#8792A8" />
<path d="m 320.83405,221.76253 0,-48.39157 47.81849,48.39157 z" id="path703" inkscape:connector-curvature="0" style="fill:#8792A8" />
<path d="m 368.65254,375.1761 c 0,7.43656 -6.01734,13.4539 -13.4539,13.4539 l -148.39406,0 c -7.42982,0 -13.4539,-6.01734 -13.4539,-13.4539 l 0,-188.35798 c 0,-7.43656 6.02408,-13.4539 13.4539,-13.4539 l 100.3396,0 0,56.84113 c 0,3.71828 3.00867,6.72695 6.72695,6.72695 l 54.77972,0 0,138.24717 m -155.06876,-20.26007 67.4212,0 0,-15.16977 -67.4212,0 0,15.16977 m 0,-42.13825 67.4212,0 0,-15.16977 -67.4212,0 0,15.16977 m 67.4212,-99.44627 -67.4212,0 0,15.16977 67.4212,0 0,-15.16977 m 64.05014,42.13825 -131.47134,0 0,15.16977 131.47134,0 0,-15.16977 m 0,42.13825 -42.13825,0 0,57.30802 42.13825,0 0,-57.30802" id="path705" inkscape:connector-curvature="0" style="fill:#8792A8" />
<path id="path707" d="m 156.82,123.37 c -7.43,0 -13.469,6 -13.469,13.438 l 0,188.38 c 0,7.437 6.04,13.438 13.469,13.438 l 1.531,0 0,-186.81 c 0,-7.437 6.04,-13.438 13.469,-13.438 l 34.469,0 65.875,0 13.469,0 -14.688,-14.875 0,-0.125 -0.125,0 -13.656,0 -65.875,0 -34.469,0" inkscape:connector-curvature="0" style="fill:#8792A8" />
</g>
</svg>
