<svg height="513" width="512" xmlns="http://www.w3.org/2000/svg">
 <path d="m33.692795 71.733047h183.68008v44.56144h-183.68008z" fill="#6F778A" fill-rule="evenodd"/>
 <path d="m8.6949148 115.20763h493.43646v326.0593h-493.43646z" fill="#8792A8" fill-rule="evenodd"/>
 <g fill="#3F4554" transform="matrix(8.5 0 0 8.5837823 166.00346 184.18869)">
  <path d="m11 2c-4.6269 0-8.4326 3.508-8.9375 8h-2.0625l3 4 3-4h-1.9062c.4872-3.39 3.3814-6 6.9062-6 3.866 0 7 3.134 7 7 0 3.866-3.134 7-7 7-2.1871 0-4.121-1.0257-5.4062-2.5938l-1.4375 1.4375c1.6431 1.933 4.1035 3.156 6.8437 3.156 4.9706 0 9-4.0294 9-9 0-4.9706-4.0294-9-9-9z" fill-rule="evenodd"/>
  <path d="m10 6v5.5l3.6875 3.375.687-.687-3.375-3.188v-5h-1z"/>
 </g>
</svg>
