<svg height="16" width="16" xmlns="http://www.w3.org/2000/svg">
    <path d="M3.994 0C2.736.015 1.815-.029 1.062.387a1.878 1.878 0 0 0-.84.996C.058 1.821 0 2.343 0 3v7c0 .658.058 1.179.223 1.617.164.439.463.79.84.998.752.416 1.673.37 2.931.385H7v1h2v-1h3.006c1.258-.015 2.179.03 2.932-.385.376-.207.675-.56.84-.998.164-.438.222-.96.222-1.617V5c0-.658-.058-1.179-.223-1.617-.02-.055-.048-.104-.074-.154l-.027-.057a1.838 1.838 0 0 0-.738-.787c-.753-.416-1.674-.37-2.932-.385H8.967L6.945 0H3.996zm.012 1h2.53l1.765 1.746L7.033 4H3.994c-1.258.015-2.179-.03-2.932.385-.022.012-.04.03-.062.043V3c0-.592.062-1.006.16-1.266s.203-.371.387-.472c.366-.203 1.195-.247 2.459-.262zm5.459 2h2.527c1.264.015 2.092.06 2.46.262.183.1.288.212.386.472.098.26.162.674.162 1.266v5c0 .592-.063 1.006-.16 1.266-.098.26-.203.371-.387.472-.366.202-1.193.247-2.453.262H4c-1.26-.015-2.087-.06-2.453-.262-.184-.1-.29-.212-.387-.472C1.063 11.006 1 10.592 1 10V7c0-.592.064-1.006.162-1.266s.203-.371.387-.472c.367-.203 1.195-.247 2.459-.262h3.435zM1 15v1h14v-1z" fill="#8792A8" font-family="sans-serif" font-weight="400" overflow="visible" style="line-height:normal;font-variant-ligatures:none;font-variant-position:normal;font-variant-caps:normal;font-variant-numeric:normal;font-variant-alternates:normal;font-feature-settings:normal;text-indent:0;text-align:start;text-decoration-line:none;text-decoration-style:solid;text-decoration-color:#000;text-transform:none;shape-padding:0;isolation:auto;mix-blend-mode:normal;marker:none" white-space="normal" color="#000"/>
</svg>
