<svg height="513" width="512" xmlns="http://www.w3.org/2000/svg">
 <path d="m33.692795 71.733047h183.68008v44.56144h-183.68008z" fill="#6F778A" fill-rule="evenodd"/>
 <path d="m8.6949148 115.20763h493.43646v326.0593h-493.43646z" fill="#8792A8" fill-rule="evenodd"/>
 <g fill-rule="evenodd" transform="matrix(5.4268192 0 0 5.4268192 127.79661 161.12843)">
  <path d="m0 0h25.926046v17.412197h-25.926046z" fill="#bdc3c7" transform="translate(10.8203 14.5569)"/>
  <path d="m19.4498 9.15558c-.703-5.64625-5.4189-9.67268-10.6601-9.1016507-5.24121.5710297-9.119801 5.5338207-8.7674849 11.2182707.3523169 5.6845 4.8086349 10.043 10.0733849 9.8524 5.2648-.1906 9.4416-4.8618 9.4416-10.559" fill="#bdc3c7" transform="translate(1.19307 14.5417)"/>
  <path d="m0 10.569c.00134316 5.6086 4.16446 10.2387 9.48275 10.5463 5.31825.3076 9.93795-3.8145 10.52265-9.3892.5847-5.57482-3.0694-10.65909-8.3232-11.581005-5.2539-.921912-10.2762 2.639895-11.439839 8.113075" fill="#bdc3c7" transform="translate(26.8493 14.5526)"/>
  <path d="m0 7.48678c.00095146 3.97302 2.95 7.25282 6.71734 7.47072 3.76736.2179 7.03976-2.702 7.45396-6.65106.4142-3.94903-2.1743-7.5506-5.89595-8.203659-3.7217-.653059-7.279375 1.870029-8.103667 5.747099" fill="#7f8c8d" transform="translate(29.9117 17.733)"/>
  <path d="m0 0h3.626874v11.644175h-3.626874z" fill="#34495e" transform="translate(8.93816 19.2013)"/>
  <path d="m0 0h3.626874v11.644175h-3.626874z" fill="#34495e" transform="matrix(0 1 -1 0 16.5737 23.2418)"/>
  <rect fill="#34495e" height="3.824" rx=".765" transform="matrix(.707107 .707107 -.707107 .707107 22.1056 23.1644)" width="1.53"/>
  <rect fill="#34495e" height="3.824" rx=".765" transform="matrix(.707107 .707107 -.707107 .707107 26.7848 23.2319)" width="1.53"/>
  <rect fill="#ecf0f1" height="4.86" rx="2.43" transform="matrix(.707107 -.707107 .707107 .707107 29.4592 25.1499)" width="11.233"/>
  <path d="m3.9679 1.98395c0-1.095705-.88824-1.98395-1.98395-1.98395-1.095705 0-1.98395.888245-1.98395 1.98395 0 1.09571.888245 1.98395 1.98395 1.98395 1.09571 0 1.98395-.88824 1.98395-1.98395" fill="#27ae60" transform="matrix(.707107 -.707107 .707107 .707107 30.133 25.1373)"/>
  <path d="m3.9679 1.98395c0-1.095705-.88824-1.98395-1.98395-1.98395-1.095705 0-1.98395.888245-1.98395 1.98395 0 1.09571.888245 1.98395 1.98395 1.98395 1.09571 0 1.98395-.88824 1.98395-1.98395" fill="#2980b9" transform="matrix(.707107 -.707107 .707107 .707107 34.6031 20.6421)"/>
  <rect fill="#ecf0f1" height="4.86" rx="2.43" transform="matrix(.707107 -.707107 .707107 .707107 33.4001 29.6511)" width="11.233"/>
  <path d="m3.9679 1.98395c0-1.095705-.88824-1.98395-1.98395-1.98395-1.095705 0-1.98395.888245-1.98395 1.98395 0 1.09571.888245 1.98395 1.98395 1.98395 1.09571 0 1.98395-.88824 1.98395-1.98395" fill="#f39c12" transform="matrix(.707107 -.707107 .707107 .707107 34.0739 29.6082)"/>
  <path d="m3.9679 1.98395c0-1.095705-.88824-1.98395-1.98395-1.98395-1.095705 0-1.98395.888245-1.98395 1.98395 0 1.09571.888245 1.98395 1.98395 1.98395 1.09571 0 1.98395-.88824 1.98395-1.98395" fill="#c0392b" transform="matrix(.707107 -.707107 .707107 .707107 38.544 25.1433)"/>
 </g>
</svg>
