<svg xmlns="http://www.w3.org/2000/svg" width="48" height="48">
<defs>
<defs
     id="defs4">
  </defs>
  <path
     id="path-main"
     d="M 4.0911458,8.6666667 24,28.575521 43.908854,8.6666667 l -39.8177082,0 z M 2,10.757813 2,35.908854 14.575521,23.333333 2,10.757813 z m 44,0 L 33.424479,23.333333 46,35.908854 46,10.757813 z M 16.666667,25.424479 4.0911458,38 43.908854,38 31.333333,25.424479 24,32.757812 16.666667,25.424479 z" />
</defs>

<use id="1" style="fill:#8792A8" xlink:href="#path-main" />



</svg>
