<?xml version="1.0" encoding="UTF-8" standalone="no"?>
<svg
   xmlns:dc="http://purl.org/dc/elements/1.1/"
   xmlns:cc="http://creativecommons.org/ns#"
   xmlns:rdf="http://www.w3.org/1999/02/22-rdf-syntax-ns#"
   xmlns:svg="http://www.w3.org/2000/svg"
   xmlns="http://www.w3.org/2000/svg"
   xmlns:sodipodi="http://sodipodi.sourceforge.net/DTD/sodipodi-0.dtd"
   xmlns:inkscape="http://www.inkscape.org/namespaces/inkscape"
   height="22"
   viewBox="0 0 512 512"
   width="22"
   version="1.1"
   id="svg2"
   inkscape:version="0.91 r13725"
   sodipodi:docname="start-here-sardi10.svg">
  <defs
     id="defs17" />
  <sodipodi:namedview
     pagecolor="#aca9a5"
     bordercolor="#6F778A"
     borderopacity="1"
     objecttolerance="10"
     gridtolerance="10"
     guidetolerance="10"
     inkscape:pageopacity="0.36078431"
     inkscape:pageshadow="2"
     inkscape:window-width="1920"
     inkscape:window-height="1021"
     id="namedview15"
     showgrid="false"
     inkscape:zoom="0.88351187"
     inkscape:cx="152.59481"
     inkscape:cy="415.44447"
     inkscape:window-x="0"
     inkscape:window-y="0"
     inkscape:window-maximized="1"
     inkscape:current-layer="svg2"
     showguides="true"
     inkscape:guide-bbox="true">
    <sodipodi:guide
       position="80.361116,278.43429"
       orientation="1,0"
       id="guide4596" />
    <sodipodi:guide
       position="265.98398,287.48906"
       orientation="1,0"
       id="guide4598" />
    <sodipodi:guide
       position="-16.977701,428.9699"
       orientation="0,1"
       id="guide4600" />
    <sodipodi:guide
       position="80.361116,247.87443"
       orientation="0,1"
       id="guide4602" />
  </sodipodi:namedview>
  <metadata
     id="metadata28">
    <rdf:RDF>
      <cc:Work
         rdf:about="">
        <dc:format>image/svg+xml</dc:format>
        <dc:type
           rdf:resource="http://purl.org/dc/dcmitype/StillImage" />
        <dc:title></dc:title>
      </cc:Work>
    </rdf:RDF>
  </metadata>
  <g
     transform="matrix(1.5858654,0,0,1.5858654,170.06522,-23.058617)"
     id="g5427-6"
     style="fill:#8792A8;fill-opacity:1;stroke:none;stroke-opacity:1;stroke-width:0;stroke-miterlimit:4;stroke-dasharray:none">
    <linearGradient
       id="linearGradient5515-4"
       gradientUnits="userSpaceOnUse"
       x1="-68.768997"
       y1="67.834"
       x2="-68.769096"
       y2="193.83791"
       gradientTransform="matrix(1,0,0,-1,214.5,339.5771)">
      <stop
         offset="0"
         style="stop-color:#252D42"
         id="stop5517-9" />
      <stop
         offset="1"
         style="stop-color:#485E82"
         id="stop5519-5" />
    </linearGradient>
  </g>
  <rect
     style="opacity:1;fill:#8792A8;fill-opacity:1;stroke:none;stroke-width:5;stroke-linecap:square;stroke-linejoin:round;stroke-miterlimit:4;stroke-dasharray:none;stroke-dashoffset:0;stroke-opacity:1"
     id="rect4567"
     width="190.62477"
     height="191.35793"
     x="40.852478"
     y="44.065018" />
  <rect
     style="opacity:1;fill:#8792A8;fill-opacity:1;stroke:none;stroke-width:5;stroke-linecap:square;stroke-linejoin:round;stroke-miterlimit:4;stroke-dasharray:none;stroke-dashoffset:0;stroke-opacity:1"
     id="rect4567-2"
     width="190.62477"
     height="191.35793"
     x="280.59979"
     y="43.698425" />
  <rect
     style="opacity:1;fill:#8792A8;fill-opacity:1;stroke:none;stroke-width:5;stroke-linecap:square;stroke-linejoin:round;stroke-miterlimit:4;stroke-dasharray:none;stroke-dashoffset:0;stroke-opacity:1"
     id="rect4567-3"
     width="190.62477"
     height="191.35793"
     x="40.485893"
     y="278.68011" />
  <rect
     style="opacity:1;fill:#8792A8;fill-opacity:1;stroke:none;stroke-width:5;stroke-linecap:square;stroke-linejoin:round;stroke-miterlimit:4;stroke-dasharray:none;stroke-dashoffset:0;stroke-opacity:1"
     id="rect4567-7"
     width="190.62477"
     height="191.35793"
     x="281.33295"
     y="279.04672" />
</svg>
