<svg height="16" width="16" xmlns="http://www.w3.org/2000/svg">
    <path d="M3.994 2c-1.258.015-2.179-.03-2.931.385-.377.207-.676.56-.84.998C.058 3.82 0 4.343 0 5v7c0 .658.058 1.179.223 1.617.164.439.463.79.84.998.752.416 1.673.37 2.931.385H12.006c1.258-.015 2.179.03 2.932-.385a1.88 1.88 0 0 0 .838-.998c.164-.438.224-.96.224-1.617V5c0-.658-.06-1.179-.225-1.617a1.88 1.88 0 0 0-.838-.998c-.752-.416-1.673-.37-2.931-.385h-8.01zM4 3h8c1.26.015 2.087.058 2.453.26.184.1.29.214.387.474.097.26.16.674.16 1.266v7c0 .592-.063 1.006-.16 1.266-.098.26-.203.373-.387.474-.366.202-1.193.245-2.453.26H4zM1.834 3h.332C2.833 3 3 3.2 3 4s-.167 1-.834 1h-.332C1.167 5 1 4.8 1 4s.167-1 .834-1zm0 3h.332C2.833 6 3 6.2 3 7s-.167 1-.834 1h-.332C1.167 8 1 7.8 1 7s.167-1 .834-1zm0 3h.332C2.833 9 3 9.2 3 10s-.167 1-.834 1h-.332C1.167 11 1 10.8 1 10s.167-1 .834-1zm0 3h.332c.667 0 .834.2.834 1s-.167 1-.834 1h-.332C1.167 14 1 13.8 1 13s.167-1 .834-1z" style="line-height:normal;text-indent:0;text-align:start;text-decoration-line:none;text-decoration-style:solid;text-decoration-color:#000;text-transform:none;isolation:auto;mix-blend-mode:normal;marker:none" color="#000" font-weight="400" font-family="sans-serif" white-space="normal" overflow="visible" fill="#8792A8"/>
</svg>
