<?xml version="1.0" encoding="UTF-8" standalone="no"?>
<svg xmlns:dc="http://purl.org/dc/elements/1.1/" xmlns:cc="http://creativecommons.org/ns#" xmlns:rdf="http://www.w3.org/1999/02/22-rdf-syntax-ns#" xmlns:svg="http://www.w3.org/2000/svg" xmlns="http://www.w3.org/2000/svg" xmlns:sodipodi="http://sodipodi.sourceforge.net/DTD/sodipodi-0.dtd" xmlns:inkscape="http://www.inkscape.org/namespaces/inkscape" viewBox="0 0 512 512" height="512" width="512" version="1.1" id="svg2" inkscape:version="0.91 r" sodipodi:docname="user-identity.svg">
<sodipodi:namedview pagecolor="#ffffff" bordercolor="#6F778A" borderopacity="1" objecttolerance="10" gridtolerance="10" guidetolerance="10" inkscape:pageopacity="0" inkscape:pageshadow="2" inkscape:window-width="640" inkscape:window-height="480" id="namedview21" showgrid="false" inkscape:zoom="0.4609375" inkscape:cx="218.0339" inkscape:cy="256" inkscape:window-x="0" inkscape:window-y="0" inkscape:window-maximized="0" inkscape:current-layer="svg2" />
<metadata id="metadata473">
<rdf:RDF>
<cc:Work rdf:about="">
<dc:format>image/svg+xml</dc:format>
<dc:type rdf:resource="http://purl.org/dc/dcmitype/StillImage" />
</cc:Work>
</rdf:RDF>
</metadata>
<defs id="defs4">
<linearGradient gradientUnits="userSpaceOnUse" id="0-1" y2="471.66" x2="0" y1="33.753">
<stop id="stop7-7" stop-color="#6a6a6a" />
<stop offset="0.47" id="stop9-7" />
<stop offset="0.494" id="stop11-4" stop-color="#ffffff" />
<stop offset="0.901" id="stop13-0" stop-color="#ffffff" />
<stop offset="0.955" id="stop15-6" />
<stop offset="1" id="stop17-6" />
</linearGradient>
</defs>
<path id="path469" d="m 255.82,98.38 c -39.43,0 -71.5,31.689 -71.5,71.12 0,39.43 32.07,71.5 71.5,71.5 39.43,0 71.5,-32.07 71.5,-71.5 0,-39.43 -32.07,-71.12 -71.5,-71.12 m -60.36,160.69 c -35.837,3.414 -66.5,53.01 -55.742,110.33 l 8.07,44.21 108.02,0 108.02,0 8.457,-44.21 c 14.338,-76.43 -45.517,-139.18 -92.26,-96.88 -23.13,20.934 -25.306,20.934 -48.44,0 -11.686,-10.576 -24.19,-14.593 -36.14,-13.455" fill="#8792A8" fill-rule="evenodd" />
</svg>
